<?xml version="1.0" encoding="utf-8"?>
<!-- Generator: Adobe Illustrator 25.3.1, SVG Export Plug-In . SVG Version: 6.00 Build 0)  -->
<svg version="1.1" id="Layer_1" xmlns="http://www.w3.org/2000/svg" xmlns:xlink="http://www.w3.org/1999/xlink" x="0px" y="0px"
	 viewBox="0 0 965.9 663" style="enable-background:new 0 0 965.9 663;" xml:space="preserve">
<style type="text/css">
	.st0{fill:#A3A3A3;}
	.st1{fill:#C4C4C4;}
	.st2{fill:#494949;}
	.st3{fill:#D3C984;}
	.st4{fill:#BC8A93;}
	.st5{fill:#99C2D6;}
	.st6{fill:#6DD1A8;}
	.st7{opacity:0.1;fill:#FFFFFF;enable-background:new    ;}
	.st8{fill:#FFFFFF;}
	.st9{fill:#00B1AA;}
	.st10{fill:#F0E6E1;}
	.st11{fill:#FFEBD4;}
	.st12{fill:#BFB29F;}
	.st13{fill:#481F58;}
	.st14{fill:#F2D4B1;}
	.st15{fill:#EFCEEC;}
	.st16{fill:#C69B71;}
	.st17{fill:#EFD8EF;}
	.st18{fill:#F4EAF4;}
	.st19{fill:#D8A9D5;}
	.st20{fill:#D8D8D8;}
	.st21{fill:#C93F3F;}
	.st22{fill:#A5A5A5;}
	.st23{fill:#C7725A;}
	.st24{fill:#422645;}
	.st25{fill:none;stroke:#8B4C3F;stroke-linecap:round;stroke-miterlimit:10;}
	.st26{fill:none;stroke:#FFFFFF;stroke-width:1.5;stroke-linecap:round;stroke-miterlimit:10;}
	.st27{fill:none;stroke:#79319B;stroke-linecap:round;stroke-miterlimit:10;}
	.st28{fill:none;stroke:#108C85;stroke-linecap:round;stroke-miterlimit:10;}
	.st29{fill:none;stroke:#F2D4B1;stroke-linecap:round;stroke-miterlimit:10;}
	.st30{fill:none;stroke:#D6B6B0;stroke-linecap:round;stroke-miterlimit:10;}
	.st31{fill:none;stroke:#181B2D;stroke-linecap:round;stroke-miterlimit:10;}
	.st32{fill:none;stroke:#CE7D6F;stroke-linecap:round;stroke-miterlimit:10;}
	.st33{fill:none;stroke:#B2685B;stroke-linecap:round;stroke-miterlimit:10;}
	.st34{fill:none;stroke:#A5A5A5;stroke-miterlimit:10;}
	.st35{fill:none;stroke:#A5A5A5;stroke-width:0.5;stroke-linecap:round;stroke-miterlimit:10;}
	.st36{fill:none;stroke:#599950;stroke-width:5;stroke-linecap:round;stroke-miterlimit:10;}
	.st37{fill:#AA5757;}
	.st38{fill:#73D890;}
	.st39{fill:#8FA1D1;}
	.st40{fill:none;stroke:#C4C4C4;stroke-miterlimit:10;}
	.st41{fill:none;stroke:#C4C4C4;stroke-width:3;stroke-miterlimit:10;}
</style>
<g id="Layer_9">
	<path class="st0" d="M805.2,472.5H149c-6.6,0-12-5.4-12-12V34.6c0-6.6,5.4-12,12-12h656.1c6.6,0,12,5.4,12,12v425.9
		C817.2,467.1,811.8,472.5,805.2,472.5z"/>
	<path class="st0" d="M936.2,639.4H25.5c-6.4,0-11.6-4.6-11.6-10.3v-22.2h934v22.2C947.8,634.8,942.6,639.4,936.2,639.4z"/>
	<path class="st1" d="M833.6,484.7c0-6.6-16.7-12.9-23.3-12.9l-661.2,0.7c-6.4,0-22.9,6.3-22.9,12.9L13.8,606.9c0,6.6,13,8,19.4,8
		l895.2-0.7c6.5,0,19.7-1.4,19.7-8L833.6,484.7z"/>
	<path class="st0" d="M2035.3,777.8h1c0.3,0,0.5,0.2,0.5,0.5l0,0c0,0.3-0.2,0.5-0.5,0.5h-1c-0.3,0-0.5-0.2-0.5-0.5l0,0
		C2034.8,778,2035,777.8,2035.3,777.8z"/>
	<path class="st2" d="M152.2,485.1h654.6c1.7,0,3.2,0.7,4.4,1.9l90.1,97.1c3.7,3.9,0.9,10.5-4.4,10.5l-835.8-1.3
		c-5.3,0-8-6.6-4.3-10.5l91.1-95.8C149,485.8,150.6,485.1,152.2,485.1z"/>
</g>
<g id="Layer_10">
	<rect x="177.2" y="62.9" class="st3" width="292.6" height="181.1"/>
	<rect x="482.9" y="61.9" class="st4" width="292.6" height="181.1"/>
	<rect x="178.8" y="255.1" class="st5" width="292.6" height="181.1"/>
	<rect x="484.5" y="254.1" class="st6" width="292.6" height="181.1"/>
	<path class="st7" d="M513.1,244.5c0,0-23.6-49.1-2.4-62.6c21.2-13.5,52.5-48.7,52.5-48.7s-3.9,2.5,2.4,7.8
		c0,0,85.8-69.4,110.3-35.6c24.6,33.7,4.8,77.1,26.5,96.8c21.7,19.8-2.9,41.4-2.9,41.4L513.1,244.5z"/>
	<path class="st7" d="M537.7,415.5c6.3-7.2-33.7-14.9-31.8-41.4s-16.4-52.5,20.7-70.8c37.1-18.3,54.9-42.9,88.6-27.5
		c33.7,15.4,45.3,24.6,61.2,25.5c35.7,2.2,47.2-29.9,66.5,1.4s32.3,62.1,7.7,83.8C726,408.3,537.7,415.5,537.7,415.5z"/>
	<path class="st7" d="M283.3,427.6c-11.6-17.3-3.4-63.1-36.1-54c-32.8,9.2-61.2-27.9-40.9-48.7c20.2-20.7,33.2-54.9,71.8-35.6
		c38.5,19.3,47.5,39.5,76.7,33c29.3-6.5,52.9-12.3,63.5,26.7s10.1,61.7-14,70.8c-24.1,9.2-57.8,1.4-65.5,6.3
		C331,430.9,283.3,427.6,283.3,427.6z"/>
	<path class="st7" d="M265.5,230.5c-6.3-19.3-11.1-43.4-34.7-36.1c-23.6,7.2-53-8.3-31.8-23.1c53-37.1-32.3-72.3,48.7-92.5
		c27.6-6.9,60.2,24.5,93.5,20.2s43.4-25.1,80-23.6s16.9,30.8,14,68.4s26.5,76.6,9.2,82.4c-17.3,5.8-71.8-23.1-77.1-9.2
		C361.8,231,265.5,230.5,265.5,230.5z"/>
	<path class="st8" d="M367.1,217.1"/>
	<path class="st9" d="M252.3,247.2c0,0,8.2-73.2,29.4-73.9c21.2-0.7,84.5,3.9,84.5,3.9s13.2,12,33.5,11.3c3.9-1.7-2.5-35.1-2.5-35.1
		l10.3-2.1c0,0,20.2,39.3,12.2,56.9c-15.4,18.1-49.9,13.2-52.5,8.9s7.9,17.8,6.5,27.7C373.4,244.8,252.3,247.2,252.3,247.2z"/>
	<path class="st10" d="M523.2,243.3l69.1,1l27.2,1.2l-3.1-28.4c0,0,13.2-11.1,13.2-14.2c-4.6-2.4-14-10.6-17.8-15.9
		s-26.2-14.5-36.8-15s-24.2,0.1-24.2,0.1s-21.6,13.6-27.6,22.1c-6,8.4-7.7,15.7-6.7,21.4C517.5,221.4,523.2,243.3,523.2,243.3z"/>
	<path class="st11" d="M579.5,330.2c2.9-4.2,27.3-20,38.3-17.8s12.3,0,16.7,0.2s32.4,9.9,40.6,19.2c0.2,0.2-10.3,23.1-10.3,25.6
		s4.4,23.2,5.3,28.4c0.9,5.1,2.2,22,2.2,22h-79.8c0,0-0.5-46.2-0.7-49.4C591.1,350,579.5,330.2,579.5,330.2z"/>
	<path class="st12" d="M483.4,408.8c2.6,0.2,294.5-1.9,294.5-1.9l0.3,29.2l-295.1-1L483.4,408.8z"/>
	<path class="st13" d="M270.3,435.5c0,0,96.1,0.7,94-0.1c-2.1-0.8-7.5-5.7-13.3-9.8c-5.8-4.2-9.8-4.7-10.3-5
		c4.8-5.2,2.3-20.2,2.3-20.2s-41.8-12.2-42.8-4.6c-1.1,7.6-29.2,39.5-29.2,39.5"/>
	<path class="st11" d="M227.5,349.6c0,0,1.7,14.7,3.6,16.9c6-2,13.9-3.3,20.5-3.3s37.8-1,37.8-1s9.9,18.2,10.9,19.4
		c1,1.2-3.8,4.5-3.4,8s3,6.9,4.8,7.5s37.8,5.7,41.2,3.3c3.4-2.4,8.4-9,1.8-34.7c0-0.4,26.3-2.5,34-2.2c7.8,0.4,33.2,1.6,33.2,1.6
		s0.2-12.2-1-14.3s-2.4-2.5-7.6-1.8c-5.2,0.8-20.5,1.8-27.5,1s-29.6-6.7-35.4-8.2c-5.8-1.6-49.4-2.5-49.4-2.5s-17.2,3.4-22.6,5.4
		S227.5,349.6,227.5,349.6z"/>
	<path class="st14" d="M675.1,331.8c0,0,7.9,12.4,5.1,25.4c0.2,0,13.1,24.6,10.3,43.9c-12.3,8.4-50.7-9.3-50.5-12s3.4-9.2,3.4-9.2
		s18.7,6.3,26.8,5.7c0,0-6.5-20.7-6.1-26.1C664.4,354.5,675.1,331.8,675.1,331.8z"/>
	<path class="st14" d="M579.5,330.2c0,0,12.4,22.7,12.4,25.6s0.2,14.1,0.2,14.1l4.4-5.7l11.9,3.1l-2.2,9.9c0,0-10.3,27.3-35.9,30.8
		c-11.5-1.5,0.7-46.5,2.6-49.8C574.8,354.9,576.1,336.1,579.5,330.2z"/>
	<path class="st8" d="M643.3,380.1l-2.9,10.7c0,0,3.8,3.8,7,4.6c3.1,0.7,9.2-8.7,4-13.1C650.6,381.6,643.3,380.1,643.3,380.1"/>
	<path class="st8" d="M595.9,361.7l-3.8,8.2c0,0,3.3,8.4,11.7,8.4s5.3-7.3,5.3-7.3L595.9,361.7"/>
	<path class="st15" d="M601.1,367.1l-6.5-2.4c0,0,5.6-24,28.1-18.1c0,0.2-0.2,4.6-0.2,4.6s2.4-0.1,3.4,1.6c1,1.6,1.7,8.5,3.5,9.9
		c1.7,1.4,7.6,19.4,7.6,19.4l-1.2,1.7l-1.9,0.6c0,0-1.8,3.6-7.9,2.3c-6-1.3-5.7-4.5-11.1-7c-5.4-2.5-11.3-3.2-12.9-6.1
		C600.5,370.7,601.1,367.1,601.1,367.1z"/>
	<path class="st16" d="M600.5,408.3l1.4,17.3c0,0,2.9,12.1,27.4,11.2c24.4-0.9,29.4-10.3,29.4-10.3l-0.2-17.6c0,0-3.4-10.4-28-9.2
		C605.8,400.9,600.5,408.3,600.5,408.3z"/>
	<path class="st17" d="M658.4,408.4c0,0-3.4-10.4-28-9.2c-24.6,1.2-29.9,8.6-29.9,8.6l1.1,13.7c0.4-1.7,0-4.3,2-3.7
		c2.9,0.9,0.1,6.9,4.6,7.5s-2.2-7.7,4.5-5s-1.6,9.2,5.7,9.2c7.2,0-1.2-9.8,6.1-7c7.3,2.7-0.5,8.4,5.5,9c6,0.5-3-7.8,4.2-8.1
		c7.2-0.3,3.5,6.9,9,7.6s-0.7-8.5,3.6-9.5s2.9,5.2,5.9,4.7c2.9-0.5,0.8-7.7,2.7-8.1c1.8-0.4,3.4,3.4,3.4,3.5L658.4,408.4z"/>
	<ellipse class="st18" cx="629.1" cy="408.5" rx="28" ry="9.4"/>
	<path class="st19" d="M635.9,391.2c0-0.1-0.5,4.4-2.9,4.9c-2.5,0.5-3,2.5-2.6,3.6c0.5,1.1,1.2,3.7,5.6,2.3c0-0.1,5.7,2.7,6.8-0.5
		s-0.7-5.8-4.4-6.2C636.6,395,635.9,391.2,635.9,391.2z"/>
	<path class="st19" d="M623,391.1c0-0.1-0.5,4.4-2.9,4.9c-2.5,0.5-3,2.5-2.6,3.6c0.5,1.1,1.2,3.7,5.6,2.3c0-0.1,5.7,2.7,6.8-0.5
		s-0.7-5.8-4.4-6.2C623.7,394.9,623,391.1,623,391.1z"/>
	<path class="st19" d="M611.9,392.8c0-0.1-0.4,4.4-2.6,4.9c-2.2,0.5-2.7,2.5-2.3,3.6s1,3.7,4.9,2.3c0-0.1,5,2.7,6-0.5
		s-0.6-5.8-3.9-6.2C612.6,396.6,611.9,392.8,611.9,392.8z"/>
	<path class="st19" d="M603.6,397.4c0-0.1-0.4,4.4-2.6,4.9c-2.2,0.5-2.7,2.5-2.3,3.6s1,3.7,4.9,2.3c0-0.1,5,2.7,6-0.5
		s-0.6-5.8-3.9-6.2C604.3,401.3,603.6,397.4,603.6,397.4z"/>
	<path class="st19" d="M606.6,403.4c0-0.1-0.4,4.4-2.6,4.9c-2.2,0.5-2.7,2.5-2.3,3.6s1,3.7,4.9,2.3c0-0.1,5,2.7,6-0.5
		s-0.6-5.8-3.9-6.2C607.3,407.2,606.6,403.4,606.6,403.4z"/>
	<path class="st19" d="M617.4,406.6c0-0.1-0.4,4.4-2.6,4.9c-2.2,0.5-2.7,2.5-2.3,3.6s1,3.7,4.9,2.3c0-0.1,5,2.7,6-0.5
		s-0.6-5.8-3.9-6.2C618.1,410.4,617.4,406.6,617.4,406.6z"/>
	<path class="st19" d="M629.1,407.1c0-0.1-0.4,4.4-2.6,4.9c-2.2,0.5-2.7,2.5-2.3,3.6s1,3.7,4.9,2.3c0-0.1,5,2.7,6-0.5
		s-0.6-5.8-3.9-6.2C629.7,411,629.1,407.1,629.1,407.1z"/>
	<path class="st19" d="M641.2,406.6c0-0.1-0.4,4.4-2.6,4.9c-2.2,0.5-2.7,2.5-2.3,3.6s1,3.7,4.9,2.3c0-0.1,5,2.7,6-0.5
		s-0.6-5.8-3.9-6.2C641.9,410.4,641.2,406.6,641.2,406.6z"/>
	<path class="st20" d="M635,391.6c-0.5-0.4-6.1-5.5-6.1-5.5s-1.6-2.3,0.6-3.3c2.3-1,4.4,1.5,4.4,1.5L635,391.6z"/>
	<path class="st19" d="M633.9,384.3"/>
	<ellipse class="st21" cx="551.4" cy="184.4" rx="4.3" ry="4.4"/>
	<ellipse class="st21" cx="594.8" cy="173.3" rx="4.3" ry="4.4"/>
	<polygon class="st20" points="635,391.6 635.9,391.2 633.9,384.3 	"/>
	<path class="st22" d="M595.4,185.9l-1.8-12c0,0,0.8-2.5,1.8,0.2c1,2.8,1.7,10.5,1.7,10.5L595.4,185.9z"/>
	<path class="st22" d="M551.2,186.1c0,0-1.4-3.9,1.9-2.2c1.5,0.8,10.2,10.1,19.6,18.8c10.8,10.7,21.2,20.9,21.9,22.5
		c1.3,3-23.8-21.2-23.8-21.2L551.2,186.1z"/>
	<path class="st13" d="M293,77.6c4.3-1.7,21.2-1.7,26,3.1c4.8,4.8,11.8,10.6,12.5,15.4s3.1,10.8,5.3,12.5c2.2,1.7,10.4,7.7,11.6,13
		s0.2,17.6,0.2,17.6s11.8,1.4,16.9,9.9c-1.2,14,4.6,29.9,4.6,29.9s-12.3,2.9-14.7,7s-5.8,16.6-13,17.1s-13.5,3.9-27.2-14.2
		s-40.7-12.8-40.7-12.8s9.4-8.4,9.9-15.7s-2.6-8.7-0.5-10.4c2.2-1.7,5.1-2.4,5.1-2.4s-12-10.4-11.6-26
		C277.8,106,278.7,83.1,293,77.6z"/>
	<path class="st13" d="M291.1,339.3c0,0,5.2-6.4,15.4-3.4c-0.6-0.5,0.9-6.3,4.9-9.6c-3.1-3.8-3.7-12.8-2.8-17.6
		c0,0,2.5-13.6,12.1-17.4c9.7-3.7,16.9-2.9,22.6-0.7c5.7,2.3,12,7.3,12,7.3s-1.3,7.5-4.2,10.2c-2.9,2.6-7.3,30.6-7.3,30.6
		s-0.9,6.1-6.4,7.5c0.1,0,3.2,5,3,10.3s-0.2,19.6,0,21s0.7,2.4-0.6,3.3c-1.3,1-8.1,7.7-12.5,8.1c-4.5,0.4-6,0.2-6.1-1s1.9-2,2.5-6.7
		s1-25.3-0.8-28.4c0.2,0-6.7,2-10.9-0.5c-4.3-2.5-7.7-5.9-11.4-8.4C296.8,341.4,291.1,339.3,291.1,339.3z"/>
	<path class="st23" d="M306.9,91.3c0,0-14,25.9-15.4,27.8s-0.8,7.2-0.3,9.3s5.5,17.2,12.5,20.6c7.1,3.4,17,5.8,21.5,4.2
		s10.3-12.7,10.3-20.4s-5.3-23.1-8-25.7s-5.9-3.2-8-4.8S312.5,91.6,306.9,91.3z"/>
	<path class="st24" d="M550.6,134.6l0.2-5.2c0,0,6.6-8,7.6-8.3s5.1-0.7,5.3-0.4c0.2,0.3-0.5,12-0.6,12.6c-0.1,0.6-2.8,12.3-2.8,12.3
		s-3.4-3.2-3.7-3.7s-2.3-2.7-2.6-3C553.8,138.5,550.6,134.6,550.6,134.6z"/>
	<path class="st23" d="M397.2,153.3l-1.1-3.5c0,0-11.2-4.2-9.8-16.1c0.3-8.7,4.5-7.1,4.5-7.1s-1.9-6.9,1-8.5s4.8-2.6,5.9-1.6
		s1.4,3.2,1.4,3.2s6.4-1.9,5.8,5.8c6.7,3.1,4,8.7,4,8.7s5.5,3.5,1.1,8.4c-4.3,4.8-2.6,8.7-2.6,8.7S403.4,154.7,397.2,153.3z"/>
	<path class="st13" d="M550.5,133.5c0,0-4.7-18.7-0.6-23.1c4.1-4.4,12.8-8.7,16.7-8.7s16.5,0.7,16.5,0.7l-4.1,13.8l-14,9
		C565,125.3,551.9,128.1,550.5,133.5z"/>
	<path class="st9" d="M561.3,126.6c0,0,3-9.6,11.1-18.6s12.1-7.5,15.9-7.4c3.8,0.2,16.5,6,17.7,7.7c1.1,1.7,4.2,4.7,2.2,9.5
		c-2,4.7-8.8,15.3-11.4,17C594.1,136.6,561.3,126.6,561.3,126.6z"/>
	<path class="st23" d="M586.7,168.2c4.5-1.8,7.1-8.5,7.9-13.2c0.8-4.7,2.2-20.7,2.4-22s-0.6-6.9-5.8-8.5c-5.1-1.6-19.4-2.1-24.2-0.2
		s-5.6,2.2-5.6,2.2s-1.4,12.8-0.2,15.1c0,0.2-2.9-0.5-2.9-0.5s0-9.3-7.7-7.7s-2.6,11.1-1.1,12.2c1.4,1.1,3.7,2.6,5.5,1.8
		c0.2,2.9,2.2,9.4,4.7,11.2c-0.3,0.2-0.8,8-0.8,8s-7.7,3.9-7.9,5.3c-0.2,1.4,18.7,11.7,26.7,4.7c1.4-1.3-0.8-1.9-0.8-1.9l0.2-5.8
		C576.9,169,582.2,170,586.7,168.2z"/>
	<path class="st23" d="M591,191.7c0,0-3.2-1.4-3.5,3.4s2.9,7.1,2.9,7.1s-1.8,2.6,3.9,8.4c5.6,5.8,30.2,24.9,37.4,26.2
		s16.1,2.6,18.3,0s5.5-8.8,0-13.8s-8-5.3-13.3-9.2s-10-8.2-10-8.2s-6.6,5.5-6.9,6.6c-0.3,1.1-11.1-3.2-11.1-3.2s4.2-2.7,0.8-6.9
		c0.3,0.3,2.2-5.8-1.4-7.1c-0.2-0.2,2.1-3.7-1.8-4.8c0.3,0-0.2-8.4-7.5-7.2S591,191.7,591,191.7z"/>
	<path class="st11" d="M586.1,243.9c0,0-2.8-1.2,0.6-5s-1.7-6.3-1.7-8.7s-0.2-2.4-0.8-3.1c-0.6-0.6-1.3-3.3,0.1-4.5
		c1.4-1.2-0.2-6.5-0.2-6.5s10,3.3,16.1-0.6s6.3-1.1,8.7,0s7.9,4.3,11.7,3.7s5.7-1.2,7.6,0.2c1.9,1.4,2.4,6.7,4.4,8.8
		c2,2.2,6.4,2,8.2,4.7s1.2,5.8,4.2,6.7c3,1,5.7,1.1,5.9,3.6C650.9,243.5,586.1,243.9,586.1,243.9z"/>
	<path class="st23" d="M548.1,234.6l4.3,8.7l-18.5,0.3C534,243.5,546.2,234.2,548.1,234.6z"/>
	<path class="st23" d="M553.6,243.2l11.6-17.5c0,0-3.4-13.6-0.3-16.7c3.1-3.1,6.4-6.3,9.3-6.3s5.1,2.1,6.1,2.7
		c1,0.6,4.5,1.3,4.5,3.7c1.4,0.8,1.6,2,4.2,3.7c2.2,1.4,3.1,2.4,0.6,4.5c-2.4,2.1-4.2,0.6-5.8,0.5c-1.6-0.2-3.9,1-3.7,3.1
		s2.7,3.5,2.1,7.1c-0.6,3.5-3.2,6.6-7.7,6.6c-0.2,0-4.2,9.6-4.2,9.6L553.6,243.2z"/>
	<path class="st23" d="M578.1,208.5c0,0-0.4-8.1,0.5-9.6c0.8-1.6,1.4-1.9,2.4-1.9s1.3,1.5,1.4,4s0.8,8.6,0.8,8.6L578.1,208.5z"/>
	<path class="st23" d="M227.6,350.2c0,0-8.6,1.3-11.2,1.2c-6.2-0.4-6-1.4-9.7-0.9s-10,2.8-12.1,3s-11.2,0.8-12.1,0.5
		c-0.9-0.3-1.9,0-1.7,1.1s1.8,1.9,3.2,2.1s10.7,1,12.9,0.8s3.3-0.3,3.3-0.3s-2,0.7-1.9,2.1s1.3,1.9,3.4,1.7c2.1-0.2,5.1-1.3,6.4-1.1
		s2.5,2.3,5.3,2.2c2.8-0.1,7,0.2,8.3-4.7c0.1-0.1,4.1-1.3,7.1-0.3C228.8,357.5,227.6,350.2,227.6,350.2z"/>
	<path class="st23" d="M411,350.8c0,0,13.2-0.9,16.4-1.8c3.2-0.9,9.2-0.8,11.1-0.7s21.9,4.2,24.2,4.2c2.3,0,5.7-0.3,6.4-0.4
		s2.1,0.5,0.8,1.9s-9.8,2.9-11.9,2.1c0,0,0.7,1.7-1.5,1.9c-2.2,0.2-7.2-0.3-8.5,0.1s-1.9,3.2-7,2.6s-8.9-1.5-10-4.9
		c-3.1,0.8-16.1,3.6-19.8,3.7C411.2,359.4,411,350.8,411,350.8z"/>
	<path class="st23" d="M347.6,299.2c0,0,4.6,7.5,4.6,10.2c0,2.6-1.3,3-1.1,4.7s3.2,7.5,3.7,8.2s-0.3,3.3-1.5,3.6
		c-1.2,0.3-0.8,5.8-1.5,7.2s-2.1,5.9-6.1,6s-6.7,0.5-7.4-0.3c-0.7-0.8-9.1-7.5-8.6-17.7C330.3,310.9,345.2,299.5,347.6,299.2z"/>
	<path class="st23" d="M607.4,286.8L606,287c0,0-1.8-2.4-3.2-2s-2.4,3.7-1.2,5.6s2.1,3.7,5.8,2.5s2.4,0.8,2.4,0.8s2.8,6.6,2.9,7.7
		c0.1,1.2,4.5,6.5,5.2,6.7s4.9,1.3,5.6,1.4s7.3,0.9,7.7,0.8s5.2-4.7,5.4-4.9s2-4.7,2-4.7l1.6-7.7l0.5,0.4c0,0,2.6,1.8,3.2-3.2
		c0.6-5.1-1.8-5.2-3-3.3s0.1-4.4,0.1-4.4s0.1-6,0.1-6.3s-1-8.2-1-8.2s-4.7-2.7-5.1-2.9c-0.4-0.2-5.1-3.2-6.6-2.9s-12.8,1.8-13.1,2
		c-0.3,0.1-7.6,8.4-7.7,8.6c-0.1,0.2-1.8,7.4-1.8,7.4L607.4,286.8z"/>
	<path class="st23" d="M613,317.3c0,0,11.6,18.2,11.9,20.6s9.3-16.9,13.6-20.6C638.4,317.3,613,317.3,613,317.3z"/>
	<path class="st23" d="M595.9,361.7c0,0-4.4-6.2-1.5-9c1.6-1.8,2.8-1.6,2.8-1.6s-1.3-4.1,1.3-6.1s3.7-0.9,3.7-0.9s0.5-2.8,2.7-2.9
		s3.9,0.8,3.9,0.8s0.9-2.3,3.3-1.2c2.4,1.2,3.5,3.8,3.2,5.4c-0.2,1.6-0.9,3.8-3.3,3.7c0.1,1.3-0.4,3.1-2.9,3.1
		c0.4,2.9-1.2,3.3-1.8,3.3c-0.1,0,3.1,3.4,0.5,4.9s-5.2-3.6-6.6-4s-3.5-0.1-3.5-0.1L595.9,361.7z"/>
	<path class="st23" d="M624.4,369.7c0,0,0.3-6.5,3.6-7.5s2.6-0.5,2.6-0.5s-0.9-2.7,0.7-2.9c1.5-0.2,2.6,0.5,2.6,0.5s0.1,2.7,0.7,3.4
		c0.6,0.7,1.9,2.9,2,3.4s3,1.5,2.9,3.4c1.3,1.6,2,2.3,1.3,4.5c0,0,1.3,5.1,2.6,6.3c1.2,1.2,2.5,2.5,2.6,3.3s0.6,5.7-2.3,6.1
		c-2.9,0.4-3.7-0.2-3.7-0.2s-6-0.8-6-4.9c0-0.2,2.1-1.2,1.1-5.1c-1.2-1.3-5.2,0.6-5.8,0.7c-0.5,0.1-2.7,0.5-2.4-1.2
		c-0.7-0.1-2.6,0.2-2.4-1.5c-0.9,0.2-3.3-0.3-2.1-2.9s2.4-3.8,2.4-3.8L624.4,369.7z"/>
	<path class="st24" d="M611.7,258c3.8-1.8,12.4-4.1,15.4-2.3s5.1,5.4,5.1,5.4s4.5-2.1,7.4,1.9s4.3,11.8,2.6,17.3
		c-0.7,2,0.4,5.8,0.4,5.8s-1.3,0.4-1.5,1.2c-0.1,0.7-0.9,4.6-0.7,6.2c0.1,1.6-1.1,12.8-0.7,15.9c0.4,3.1,0,6.8-1.3,8.5
		c-1.3,1.6-6.8,6-10.9,6c-4.1,0.1-10.6-1-12.2-2.8c-1.6-1.8-6.1-7.4-6.1-10.9s-0.5-15.8-0.6-16.8s-1.8-5-2.6-6.2
		c-0.7-1.2-2.2-3.4-2.4-5.6s-0.9-8.3,1.6-10.6C603.4,268.1,605.2,261.1,611.7,258z"/>
	<path class="st23" d="M631.3,266.2c0,0-0.9,5.5-7.6,6.2c-6.7,0.7-7.7-1.3-11-0.9c-0.5,4.3-3.6,5.7-3.7,9.9
		c-0.1,4.1,1,11.6,2.3,14.5s2.9,3.5,3.7,3.6s3.2-0.4,4.8-2.1c1.6-1.8,3.7-2.2,3.7-2.2s1,2.3,3,2.1c2-0.1,2.9-1.4,2.9-1.4
		s2.4,0.6,3.2,2.8s1.9,2,2.8,1.8c0.9-0.1,3.7-3.7,3.9-6.4c0.2-2.7,0.8-18,0.2-19.4C638,273.5,632.7,270.9,631.3,266.2z"/>
	<path class="st23" d="M626.1,298.8c0,0,0.1,1.2-2.7,1.5c-2.9,0.3-5.7,3.6-5.7,3.6s2,3.8,7,4c5.1,0.1,8.5-3.2,8.5-3.2
		s-2.1-3.7-3.5-3.8C628.3,300.6,626.5,300.2,626.1,298.8z"/>
	<path class="st24" d="M612.1,279.7c-0.3-0.7,1.1-2.3,2.4-2.6c1.3-0.4,3.7-1.3,4.7-0.6c1,0.7,0.7,1.9,0.1,1.9s-2.8,0.4-3.6,0.7
		C614.9,279.5,612.8,281.3,612.1,279.7z"/>
	<path class="st24" d="M629.7,277.6c0-0.8,2-1,3.2-0.8c1.3,0.2,3.1,1,3.1,1.9c-0.1,0.9-0.4,1.3-1.7,0.9s-2.8-0.9-3.5-0.8
		C630,278.9,629.7,278.2,629.7,277.6z"/>
	<ellipse class="st24" cx="617.4" cy="285" rx="1.4" ry="2.3"/>
	<ellipse class="st24" cx="632.5" cy="284.8" rx="1.3" ry="2.2"/>
	<path class="st24" d="M568.3,131.1c0,0,0.4-2.9,4.2-3c3.7-0.1,5.1,0,5.2,0.7c0.1,0.7,0.2,1.6-0.7,1.6s-3.6-0.4-4.3-0.1
		C572,130.6,570.2,132.4,568.3,131.1z"/>
	<path class="st24" d="M590.4,132.8c-0.1,0.9,0.4,1.8,1.4,1.7s2.2-0.5,2.7,0s1.3,1,1.3,0.3s-1-2.5-2.5-2.6
		C591.9,132.1,590.5,132.3,590.4,132.8z"/>
	<ellipse class="st24" cx="573.6" cy="137.1" rx="1.6" ry="2.5"/>
	<ellipse class="st24" cx="592.2" cy="139.5" rx="1.4" ry="2.4"/>
	<path class="st24" d="M294.5,122.9c0.2,1,1,1.1,2.2,0.2c1.1-0.9,2.6-2.4,3.9-2.5c1.3-0.2,4.4-0.6,5-1.1s0.7-1.5-0.2-1.8
		c-1-0.2-3.8-0.7-5.8-0.1C297.5,118.3,294.3,122,294.5,122.9z"/>
	<path class="st24" d="M315.8,115c-0.1,1.3,1.8,0.8,2.6,0.8c0.7,0,6.3-1.2,6.9-1s2.1-1.5,1.4-2.1c-0.6-0.6-3.7-0.9-5.4-0.5
		C319.7,112.7,316,113.4,315.8,115z"/>
	<ellipse transform="matrix(0.96 -0.28 0.28 0.96 -22.9677 90.4201)" class="st24" cx="305" cy="125.6" rx="1.6" ry="2.8"/>
	<ellipse transform="matrix(0.96 -0.28 0.28 0.96 -21.3305 95.3036)" class="st24" cx="322.9" cy="122.3" rx="1.6" ry="2.8"/>
	<ellipse class="st24" cx="345" cy="315.8" rx="1.2" ry="2.1"/>
	<path class="st24" d="M340.5,310.1c0.2,0.3,2.2-0.7,3.2-0.7s2.7,0.3,3,0c0.3-0.2,0-1.3-0.6-1.6c-0.6-0.2-2.2-0.5-3-0.2
		S340,309.3,340.5,310.1z"/>
	<path class="st22" d="M599.3,225.8c0,0-2-14.6-2.4-20.8c0.7,0,2.3-0.2,2.3-0.2S600.3,222.5,599.3,225.8z"/>
	<path class="st25" d="M308.5,120.3c1.2,0.2,2.1,1.3,2.8,2.3c0.8,1.1,1.6,2.2,2.1,3.4c0.5,1.2,0.7,2.7,0.2,3.9
		c-0.2,0.6-0.6,1.2-0.9,1.8s-0.4,1.3-0.1,1.9c0.3,0.5,0.8,0.9,1.4,1.1c1.4,0.5,3.1,0.4,4.4-0.2c1.4-0.6,2.5-1.8,3-3.2
		c0.3-0.7,0.4-1.7-0.2-2.2c-0.2-0.2-0.5-0.3-0.8-0.4c-0.7-0.3-1.7-0.5-2.3,0"/>
	<path class="st25" d="M304.6,134.1c0.8-0.5,1.4-1.3,2-2c0.4-0.5,0.8-1.1,1.1-1.7c0.3-0.6,0.4-1.3,0.2-1.9"/>
	<path class="st25" d="M321,125.6c1.3,1.5,3.6,2.1,5.5,1.5"/>
	<path class="st25" d="M312.4,142.4c1.4,0.8,3.1,0.9,4.7,0.6c1.6-0.3,3.1-1,4.5-1.8c1.5-0.8,3-1.8,3.7-3.3c0-0.1,0.1-0.2,0-0.3
		s-0.3,0-0.2,0.1"/>
	<path class="st25" d="M312.1,133.3c-2,3.6-2.5,7.9-1.5,11.9"/>
	<path class="st25" d="M323.3,132.1c0.5,0,1,0.3,1.4,0.6c0.7,0.4,1.4,0.9,2.1,1.3c0.4,0.3,0.8,0.5,1.1,0.8c0.4,0.4,0.8,1,1.1,1.5
		c0.6,1,1.2,2,1.2,3.2"/>
	<path class="st25" d="M390,126.7c1.8-0.4,3.6,0.6,4.9,1.9c1.4,1.5,2.3,3.4,2.7,5.4c0.2,1,0.2,2.2-0.5,3c-0.6,0.8-1.7,1.1-2.7,0.9
		c-1-0.2-1.9-0.7-2.7-1.4c-1.3-1.2-2.3-2.7-2.9-4.4"/>
	<path class="st25" d="M395.8,149.6c0.8,0.5,1.8,0.6,2.7,0.3"/>
	<path class="st25" d="M407.3,138.5c-0.7-0.8-1.8-1.3-2.8-1.2c-1.1,0.1-2,0.8-3,1.2c-1,0.5-2.2,0.8-3.2,0.1c-0.6-0.4-0.9-1-1-1.7
		c-0.4-1.9,0.4-3.9,1.9-5.1c1.5-1.2,3.6-1.5,5.4-1.1c1.9,0.5,3.5,1.6,4.6,3.2"/>
	<path class="st25" d="M396.4,131c-0.2-0.6-0.1-1.2,0.1-1.8s0.6-1.1,1-1.6c0.6-0.8,1.2-1.5,2-2c1.1-0.6,2.5-0.7,3.7-0.7
		c0.5,0,1.1,0,1.4,0.5"/>
	<path class="st25" d="M394.4,128.2c-0.4-0.9-0.4-1.9-0.2-2.9c0.3-0.9,0.8-1.8,1.2-2.7c0.5-0.9,1.1-1.8,1.9-2.5
		c0.5-0.4,1.1-0.6,1.6-0.5"/>
	<path class="st25" d="M576,155c1.5,1.2,3.4,1.9,5.3,1.8c1.9-0.1,3.8-0.8,5.2-2.1"/>
	<path class="st25" d="M549.2,138.2c0.3-0.9,1.3-1.3,2.2-1.4c0.6-0.1,1.2-0.1,1.7,0.3c0.3,0.2,0.5,0.5,0.7,0.7
		c0.8,1.2,1.1,2.5,1.1,3.9c-0.6-0.5-1.3-1-2.1-0.9c-0.5,0-1,0.3-1.4,0.7s-0.6,0.8-0.9,1.3"/>
	<path class="st25" d="M585.5,134.4c2.4,3.2,4.3,7,4.2,11.1c0,2.1-0.9,4.5-2.8,5.3c-1.8,0.8-4.2-0.2-4.9-2.1"/>
	<path class="st25" d="M560.8,159.5c4.5,4.5,10.3,7.8,16.4,9.3"/>
	<path class="st25" d="M590.8,191.7c0-0.1,0.3,0,0.3,0.1c1.5,2,2.7,4.2,3.5,6.6c0.2,0.7,0.4,1.4,0.4,2.2c0,0.7-0.2,1.5-0.7,2
		c-0.6,0.6-1.5,0.8-2.4,0.6c-0.8-0.2-1.5-0.8-1.9-1.6"/>
	<path class="st25" d="M610.1,209.9c1.4,1,3,1.6,4.6,2.1c9.9,3.4,20.1,5.9,30.4,7.5"/>
	<path class="st25" d="M576.2,218.7c-0.1-1.7,0.6-3.4,1.8-4.7s2.9-2,4.6-2.2c2-0.3,4.1,0.1,5.9,1.1"/>
	<path class="st25" d="M572.8,215.8c0.1-2.9,2.1-5.7,4.9-6.5c0.9-0.3,1.8-0.3,2.8-0.4c1.6-0.1,3.3-0.2,4.8,0.5"/>
	<path class="st25" d="M570.3,213.2c-0.2-2.8,1.6-5.6,4.1-6.8c2.5-1.3,5.6-1.2,8.2-0.1"/>
	<path class="st25" d="M594.3,202.2c0,0.9,0.8,1.6,1.6,1.9c1.3,0.5,2.8,0.5,4.1,0.2c1.4-0.3,2.6-0.9,3.9-1.5"/>
	<path class="st25" d="M595.3,200.6c1.9-1.2,4.1-1.8,6.3-1.9c1.4-0.1,2.9,0.1,4,0.9c1,0.7,1.7,1.9,2.9,2.4"/>
	<path class="st25" d="M595,198.3c-0.1,0-0.2-0.1-0.2-0.3c0-0.8,0.7-1.5,1.4-2c1.9-1.4,4-2.9,6.4-3.1c1.9-0.1,3.8,0.5,5.1,1.8"/>
	<path class="st25" d="M592.5,195.2c0.9-2.6,2.9-4.8,5.5-5.8s5.6-0.9,8,0.4"/>
	<path class="st25" d="M602.5,203.4c-0.1,0.6,0.2,1.3,0.6,1.8s0.9,0.9,1.3,1.3"/>
	<path class="st25" d="M579.7,205.3c-0.6-1-1.7-1.6-2.8-1.7"/>
	<path class="st25" d="M615.9,290.5c1.2,0.2,2.4-0.5,3.3-1.3c0.3-0.3,0.7-0.6,0.9-1.1s0.3-0.9,0.2-1.3"/>
	<path class="st25" d="M629.6,287.5c0.4,0.7,0.9,1.4,1.6,1.9s1.6,0.7,2.3,0.3"/>
	<path class="st25" d="M628.2,280.6c-0.6,1.1-0.4,2.5-0.2,3.8c0.3,1.5,0.6,3.1,1,4.6c0.2,0.7,0.5,1.3,0.6,2c0.2,0.9,0.3,1.8,0.4,2.7
		c0,0.6,0.1,1.2-0.1,1.7c-0.1,0.3-0.3,0.6-0.5,0.8c-1,1-2.6,1.2-3.8,0.6c-1.2-0.7-1.9-2.2-1.6-3.5"/>
	<path class="st25" d="M622.6,302.6c0.7,0.9,1.9,1.2,3,1.3c1.5,0,3.2-0.6,4-1.8"/>
	<path class="st25" d="M611.8,285.6c0.6-0.3,1.2-0.5,1.9-0.4"/>
	<path class="st25" d="M612.1,287.8c0.3-0.6,0.9-1.1,1.5-1.3"/>
	<path class="st25" d="M635.4,284.7c0.5-0.2,1.1-0.3,1.7-0.3"/>
	<path class="st25" d="M635.4,285.8c0.5,0.2,1,0.5,1.5,0.6"/>
	<path class="st25" d="M607.4,356.2c-2.4-2.6-5.7-4.4-9.1-5.1c-0.6-0.1-1.2-0.2-1.6,0.3"/>
	<path class="st25" d="M602.2,344.2c0.9,0.2,1.8,0.6,2.5,1.2c0.6,0.5,1.1,1.2,1.6,1.8c1.2,1.7,2.1,3.6,2.9,5.6"/>
	<path class="st25" d="M608.7,341.8c0.6,0.3,1.1,0.8,1.4,1.4c1.1,2,1.6,4.3,1.8,6.5"/>
	<path class="st25" d="M624.4,370.7c1.3-2.1,3.2-3.8,5.4-4.7c2.3-0.9,5-0.7,7,0.6"/>
	<path class="st25" d="M634.7,363.2c-0.7-0.5-1.4-1-2.3-1.3c-0.8-0.3-1.8-0.4-2.6-0.1"/>
	<path class="st25" d="M629.3,364.7c0.1,0.5,0.5,0.9,1,1.1"/>
	<path class="st25" d="M624.3,377.2c1-2.9,3.2-5.4,5.9-6.9s6-1.8,9-1"/>
	<path class="st25" d="M626.9,379.1c0.3-1.4,1.1-2.6,2.1-3.5s2.3-1.6,3.6-2.1c0.9-0.4,1.8-0.6,2.8-0.7c1.7-0.1,3.2,0.6,4.8,1.2"/>
	<path class="st25" d="M630.8,379.5c0.5-0.2,1-0.3,1.6-0.5c1.7-0.5,3.6-1,5.3-0.4c0.4,0.1,0.7,0.4,1.1,0.5c0.4,0.1,0.8,0.1,1.2-0.1"
		/>
	<path class="st25" d="M595.6,356.6c1.7,0.5,3.6,0.5,5.3,0"/>
	<path class="st25" d="M444.3,353.9c2.7-0.8,5.5-0.9,8.3-0.4c2,0.4,4.1,1.2,5.5,2.7"/>
	<path class="st25" d="M199.4,357.9c0.9-0.4,1.8-0.6,2.8-0.7c2.7-0.4,5.4-1,8-1.9c0.6-0.2,1.3-0.5,1.5-1.1"/>
	<path class="st25" d="M342.3,329.2c1.2,1.4,3.2,1.8,5.1,1.9c0.7,0,1.5-0.1,1.8-0.7"/>
	<path class="st25" d="M209.9,353.8c0.4,0.2,0.7,0.5,1,0.9"/>
	<path class="st26" d="M331.1,315.3c2.6-0.4,5.3-0.7,8-0.9"/>
	<path class="st26" d="M348.5,315.4c0.3-0.5,0.8-0.8,1.3-1s1.1-0.2,1.7-0.2"/>
	<path class="st26" d="M340.8,320.2c0.2,0.6,0.5,1.1,1.1,1.4c0.5,0.2,1.1,0.2,1.6,0.1c1-0.2,2-0.5,2.9-1c0.5-0.2,0.9-0.5,1.2-0.9
		c0.3-0.4,0.4-0.8,0.5-1.3c0.3-1.5,0.4-3,0.4-4.6c0-0.4,0-0.7-0.2-1.1s-0.6-0.7-1-0.9c-2.1-1.1-6-1.7-7.6,0.7
		C338.4,314.6,340,318.3,340.8,320.2z"/>
	<path class="st27" d="M302.3,91.2c-5.4-0.4-10.5,2.8-13.7,7.1s-4.8,9.6-6,14.8"/>
	<path class="st27" d="M337,115.1c3,3.5,3.4,8.5,3.7,13.1c0.1,1.7,0.2,3.4,0.3,5c0.1,1.7,0.2,3.3-0.1,5c-0.3,1.6-1.2,3.2-2.6,4.1"/>
	<path class="st27" d="M345.4,122.4c1.3,4.7,1.5,9.7,0.5,14.4"/>
	<path class="st27" d="M292.4,144.1c1.7,3.9,3.9,7.9,7.6,10.2c6.7,4.1,15.6,0.8,23.2,2.7c3.8,0.9,7.3,3.2,9.7,6.3"/>
	<path class="st27" d="M298.5,161.1c2.8,2.1,6.5,2.6,10,2.6c3.5,0.1,7.1-0.2,10.4,0.8c3.2,1,6.2,3.6,6.1,6.9"/>
	<path class="st27" d="M326.4,187.8c2.4,4.1,8.3,5.7,12.5,3.4c2.6-1.5,4.3-4.1,6.2-6.3c4.2-4.9,10.5-8.7,16.9-8"/>
	<path class="st27" d="M355.3,167.5c-0.1,3.7-3.4,6.5-6.7,8.1s-7,2.7-9.7,5.3"/>
	<path class="st28" d="M285.8,204.6c-5.4,13.4-8.6,27.5-9.5,41.7"/>
	<path class="st28" d="M281.8,202.6c-0.8,3.7-1.5,7.5-2.3,11.2"/>
	<path class="st28" d="M315.7,231.3c10.5,2,21.9,1.9,31.5-2.8c1.6-0.8,3.2-1.8,4-3.3"/>
	<path class="st28" d="M322.8,239.2c3,0.1,6,0.2,9,0.3s6.5-0.1,8.2-2.6"/>
	<path class="st28" d="M399.6,191c-1.3,4.7-1,9.7,0.8,14.2"/>
	<path class="st28" d="M396.9,189.7c-2,2.7-2.8,6.4-2,9.7"/>
	<path class="st29" d="M588.3,219.3c1.2,0.2,1.6,1.7,1.4,2.9c-0.2,1.2-0.8,2.3-0.6,3.5c0.2,1.9,2.2,3.1,3.2,4.8
		c0.2,0.3,0.4,0.7,0.4,1.1c0.1,1-0.8,1.8-1,2.8c-0.4,2,2,3.6,2.4,5.6c0.2,1.1-0.1,2.2-0.5,3.2"/>
	<path class="st29" d="M592.3,218.6c1.2,0.5,1.9,1.9,2,3.2s-0.2,2.7-0.3,4c0,0.4-0.1,0.9,0.1,1.3c0.2,0.5,0.6,1,0.9,1.4
		c0.7,0.8,1.5,1.6,2.2,2.4c0.9,0.9,1.8,2,1.8,3.3c0,1.2-0.9,2.3-0.8,3.6c0.1,1.2,1,2,1.8,2.9s1.5,2.1,1,3.1"/>
	<path class="st29" d="M597.3,217.9c1.1,0.2,1.8,1.5,1.9,2.7c0.1,1.2-0.1,2.4,0.2,3.5c0.4,1.8,2,3.2,3.4,4.5s2.7,2.9,2.6,4.8
		c-0.1,1.7-1.5,3.3-1,4.9c0.3,0.9,1,1.6,1.6,2.4s1,1.9,0.5,2.7"/>
	<path class="st29" d="M601.2,217.2c1.2-0.3,2.5,0.5,3.1,1.6s0.6,2.4,0.7,3.7c0,1.3,0,2.6,0.6,3.7c0.7,1.4,2,2.4,3.1,3.5
		c1,1,1.9,2.1,2.6,3.3c0.4,0.7,0.8,1.5,0.7,2.3c0,1.2-0.9,2.4-0.7,3.6c0.1,0.8,0.7,1.4,1.1,2.1c0.4,0.7,0.7,1.6,0.3,2.2"/>
	<path class="st29" d="M608,217.3c1.9,0.7,3.3,2.7,3.3,4.8c0,1.5-0.7,3.1-0.2,4.6c0.6,1.7,2.4,2.5,3.7,3.8c1.3,1.4,2,3.4,1.7,5.2
		c-0.1,0.8-0.4,1.5-0.4,2.3c0,1.7,1.3,3.2,2.5,4.5"/>
	<path class="st29" d="M614.4,219.6c1.3,0.5,2.4,1.7,2.6,3.1c0.2,1.6-0.5,3.3,0.1,4.7c0.6,1.2,1.9,1.9,3,2.6c1.7,1.1,3.1,3,2.8,5
		c-0.2,1.1-0.9,2.1-0.9,3.2c-0.1,1.9,1.6,3.5,3.2,4.6"/>
	<path class="st29" d="M619.5,220.8c1.5-0.2,3,0.7,3.6,1.9c1.1,2.1,0.1,4.9,1.4,6.8c1,1.5,3,2,3.8,3.6c1,2-0.4,4.5,0.5,6.5
		c0.4,1,1.3,1.7,2.1,2.3c1,0.8,2.3,1.7,3.6,1.4"/>
	<path class="st29" d="M624.8,220.5c1.9,0.5,3.5,2.1,3.9,4c0.4,1.5,0.1,3.1,0.5,4.5c0.3,1,0.9,2,1.7,2.7c0.9,0.7,2,1.2,3,1.8
		c1,0.7,1.8,1.7,1.7,2.9c-0.1,0.8-0.7,1.5-0.5,2.3c0.2,0.7,0.8,1.1,1.4,1.5c1.3,0.8,2.7,1.6,4,2.4"/>
	<path class="st29" d="M588,241.3c0.8-1.3,2.2-2.3,3.6-2.7c1.5-0.5,3-0.6,4.6-0.5c7.3,0.1,14.6,2.4,21.8,1.7
		c5.2-0.4,10.2-2.3,15.2-4c2.4-0.8,5-1.6,7.3-0.6c0.2,0.1,0.4,0.2,0.6,0.1c0.2-0.1,0.2-0.4,0-0.4"/>
	<path class="st29" d="M589.1,236.6c0.9-1.3,2.5-2.2,4.1-2.5c1.6-0.4,3.2-0.3,4.9-0.2c5.1,0.3,10.2,1.3,15.3,1.6s10.4-0.1,15.1-2.2
		c1.9-0.9,3.8-2,5.8-1.5"/>
	<path class="st29" d="M587.9,232.4c1.4-2.4,4.2-3.6,7-3.9c2.7-0.3,5.5,0.3,8.2,0.8c2.8,0.6,5.7,1.2,8.5,1.8c4.7,1,9.8,1.9,13.9-0.4
		c1.8-0.9,3.4-2.4,5.4-2.5"/>
	<path class="st29" d="M586.6,228.9c0.5-1.7,2.1-3,3.7-3.6c1.7-0.7,3.5-0.8,5.3-0.9c1.6-0.1,3.2-0.1,4.7,0.1
		c1.7,0.2,3.3,0.8,4.9,1.2c3.9,1.1,7.9,1.9,12,2.4c1.8,0.2,3.7,0.3,5.5-0.2c2.2-0.7,4.2-2.3,6.5-2.2"/>
	<path class="st29" d="M586.2,224.7c0.1-0.8,0.9-1.3,1.6-1.7c2-1.1,4.1-2.2,6.4-2.7c5.3-1.2,10.7,1.2,16,2.5
		c2.9,0.7,5.8,1.1,8.7,1.2c3.1,0.1,6.5-0.2,8.8-2.2"/>
	<path class="st30" d="M291.6,360.4c2.7-0.6,5.1-2.7,5.9-5.3"/>
	<path class="st30" d="M344.2,353.3c1.7,4.1,0.2,8.8,0.5,13.2"/>
	<path class="st30" d="M290.2,362.2c1.9,0.5,4.1,0.2,5.8-0.8"/>
	<path class="st30" d="M346.7,356.5c0.8,3.2,0.1,6.8-1.9,9.6"/>
	<path class="st30" d="M301.7,380.2c4.3,0.5,8.9-1.6,11.3-5.1"/>
	<path class="st30" d="M301.9,383.4c3.5,1.1,7.5,0.6,10.6-1.3"/>
	<path class="st31" d="M307.7,336.7c2.6,0.2,4.3,2.6,6.3,4.3c2.8,2.4,6.7,3.4,10.5,3.1c3.7-0.4,7.2-2.1,10-4.5"/>
	<path class="st31" d="M335.8,342.6c-4.4,3-9.3,6-14.6,6c-2.9,0-5.8-0.9-8.2-2.6"/>
	<path class="st31" d="M327.7,366.1c-0.2,3.1-0.4,6.3,1,9.1c0.7,1.4,1.8,2.6,3.1,3.6c0.8,0.6,2,1.1,2.8,0.5"/>
	<path class="st31" d="M331.4,372.1c0.5,1.1,1.1,2.2,2,2.9c1,0.7,2.4,0.9,3.4,0.3"/>
	<path class="st31" d="M312.7,424.9c6.3-2,12.9-3.2,19.5-3.5"/>
	<path class="st31" d="M319,428.4c5.1-2.4,10.7-3.9,16.3-4.4c1.1-0.1,2.4-0.2,3.1-1"/>
	<path class="st31" d="M301.7,400.8c9.3,4.4,20.2,3.4,30.5,2.2"/>
	<path class="st31" d="M313.7,325.6c3.5,0.8,7.3,0.1,10.3-1.9"/>
	<path class="st31" d="M314.2,328c3.2,0.7,6.6,0.6,9.8-0.4"/>
	<path class="st31" d="M327.2,314.1c3-8.6,10.3-15.6,19.1-18.4"/>
	<path class="st31" d="M323.3,317.6c-0.4-4.5,0.3-9,2.2-13.1"/>
	<path class="st29" d="M630.5,353c4-7.7,8.2-15.6,15.1-20.7"/>
	<path class="st29" d="M609.5,329.1c2.3,2.2,4.7,4.5,6.6,7.1c1.9,2.6,3.3,5.7,3.5,9"/>
	<path class="st32" d="M670.5,385.9c3.6,0.3,7.1-2.3,10.5-1.4c1,0.3,1.9,0.8,2.8,1.3c1,0.6,2,1.2,3,1.8"/>
	<path class="st33" d="M568,395.5c-0.5-3.2,0.9-6.5,3.1-9s4.9-4.3,7.6-6.2c4.4-3.1,8.6-6.5,12.6-10.1"/>
	<path class="st32" d="M568.9,385.5c1.2-2,3.6-3.2,5.9-3.2c0.7,0,1.6,0,1.9-0.6"/>
	<path class="st32" d="M672.3,385.8c2.7-1.8,5.8-3.1,9-3.7"/>
	<path class="st34" d="M536.1,202.9c2.9,1.4,4.9,4.2,6.1,7.2c1.2,3,1.8,6.2,2.5,9.3c1.1,4.8,2.5,9.5,4,14.2"/>
	<path class="st34" d="M552.5,176.9c5.4,4.4,12.9,5,19.9,4.5c2.3-0.2,4.7-0.5,6.5-1.8s2.9-4.1,1.7-6"/>
	<path class="st35" d="M613,267.3c1.8-0.5,3.7-0.2,5.6,0.1c1.9,0.3,3.8,0.5,5.6,0c1.8-0.6,3.3-2.3,3.1-4.2"/>
	<path class="st35" d="M633,264.2c0.3,0.8,0.5,1.5,1,2.2c0.4,0.5,0.8,0.9,1.3,1.3c0.6,0.5,1.2,0.9,1.9,0.7"/>
	<path class="st35" d="M617.2,262.9c1.1,0.7,2.5,0.9,3.8,0.6c1.3-0.2,2.5-0.9,3.4-1.8"/>
	<path class="st36" d="M295.7,182.8c0,0,8.7,20.6,6.1,35.6"/>
	<polygon class="st37" points="293.8,246.1 313.5,246 319.8,217.9 286.2,217.9 	"/>
	<path class="st38" d="M303,208.5c0,0-2.9-11.2,9.1-12.1C314.8,207.7,303,208.5,303,208.5z"/>
	<path class="st38" d="M291.2,182.8l5.1,5.3c0,0,1.6,0,1.5-0.2s0.5-3.9,0.3-4.2c-0.2-0.2-3.9-3.9-4.3-3.9c-0.5-0.1-2.6,0.2-2.6,0.4
		C291.2,180.4,291.2,182.8,291.2,182.8"/>
	<path class="st38" d="M302.1,209.2c0,0-10.3,5.3-13.8-6.2C298.7,197.8,302.1,209.2,302.1,209.2z"/>
	<path class="st38" d="M297.2,188.1c0,0-10.5,9.6-18.4-2.8C289.4,175.8,297.2,188.1,297.2,188.1z"/>
	<path class="st38" d="M310,174.7c0,0,1.8,14.1-12.8,13.4C295.4,174,310,174.7,310,174.7z"/>
	<path class="st38" d="M300.2,170.5c0,0,8.1,10.7-2.4,16.7C289.8,176.4,300.2,170.5,300.2,170.5z"/>
	<path class="st38" d="M279.2,178.3c0,0,12.6-4.2,15.1,5.4C281.6,187.9,279.2,178.3,279.2,178.3z"/>
	<path class="st38" d="M293.4,165.9c0,0,9.5,9.3,3,15.4C286.9,172,293.4,165.9,293.4,165.9z"/>
	<path class="st38" d="M282.1,170.9c0,0,15.5,3.6,13.8,11.8C280.3,179.1,282.1,170.9,282.1,170.9z"/>
	<g>
		<path class="st39" d="M316.7,178.2c-0.1,0.6-0.2,1-0.4,1.5l-0.2,0.7l-0.3,0.6c-0.1,0.2-0.1,0.5-0.2,0.8s-0.2,0.4-0.5,0.4
			s-0.6,0-0.9-0.2c-0.4-0.2-0.8-0.4-1.4-0.8l-0.3-0.4c-0.3-0.7-0.4-1.2-0.4-1.6c-0.1-0.4,0-0.7,0-1c0.1-0.2,0.2-0.4,0.5-0.3
			c0.3,0,0.5,0.1,0.8,0l0.7-0.1h0.7c0.5,0,1,0,1.6,0L316.7,178.2z"/>
	</g>
	<g>
		<path class="st39" d="M324.2,179.4c0.1,0.6,0,1.1,0,1.6l-0.1,0.7l-0.1,0.7c0,0.2,0,0.5,0,0.8s-0.1,0.4-0.4,0.5
			c-0.2,0.1-0.5,0.1-1,0c-0.4-0.1-0.9-0.2-1.5-0.5l-0.4-0.3c-0.4-0.6-0.6-1.1-0.8-1.4c-0.2-0.4-0.2-0.7-0.2-0.9
			c0-0.3,0.1-0.4,0.4-0.4s0.5-0.1,0.7-0.2l0.6-0.3l0.7-0.2c0.5-0.1,1-0.3,1.5-0.3L324.2,179.4z"/>
	</g>
	<g>
		<path class="st39" d="M310.9,188.2c0.1,0.6,0.1,1.1,0.2,1.6v0.7l-0.1,0.7c0,0.2,0,0.5,0,0.8s-0.1,0.4-0.3,0.5
			c-0.2,0.1-0.5,0.1-1,0.1c-0.4,0-0.9-0.1-1.6-0.4l-0.4-0.3c-0.5-0.6-0.7-1-0.9-1.4c-0.2-0.4-0.3-0.7-0.3-0.9c0-0.3,0.1-0.4,0.4-0.5
			c0.2-0.1,0.5-0.1,0.7-0.2l0.6-0.3l0.7-0.3c0.5-0.2,1-0.3,1.5-0.5L310.9,188.2z"/>
	</g>
	<g>
		<path class="st39" d="M319.6,191.9c0.2,0.5,0.4,1,0.5,1.5l0.2,0.7l0.1,0.7c0,0.2,0.1,0.5,0.2,0.8s0,0.5-0.2,0.6s-0.5,0.2-0.9,0.3
			s-0.9,0.1-1.6,0l-0.5-0.2c-0.6-0.5-0.9-0.8-1.2-1.1c-0.3-0.3-0.4-0.6-0.5-0.8s0-0.4,0.2-0.5s0.5-0.2,0.7-0.4l0.5-0.4l0.6-0.4
			c0.4-0.3,0.9-0.5,1.4-0.8L319.6,191.9z"/>
	</g>
	<g>
		<path class="st39" d="M297.3,195.8c0.1,0.5,0.2,1.1,0.2,1.6v0.7v0.7c0,0.2,0,0.5,0.1,0.8c0,0.3-0.1,0.4-0.3,0.5
			c-0.2,0.1-0.5,0.2-0.9,0.1c-0.4,0-0.9-0.1-1.6-0.3l-0.4-0.3c-0.5-0.6-0.8-1-1-1.3c-0.2-0.4-0.3-0.7-0.3-0.9s0.1-0.4,0.3-0.5
			c0.2-0.1,0.5-0.1,0.7-0.3l0.6-0.3l0.7-0.3c0.5-0.2,0.9-0.4,1.5-0.5L297.3,195.8z"/>
	</g>
	<g>
		<path class="st39" d="M316.2,205.4c0.4,0.4,0.6,0.9,0.9,1.3l0.4,0.7l0.3,0.7c0.1,0.2,0.3,0.4,0.4,0.7c0.1,0.2,0.1,0.4,0,0.6
			c-0.2,0.2-0.4,0.4-0.8,0.5c-0.4,0.2-0.8,0.3-1.6,0.4l-0.5-0.1c-0.7-0.3-1.1-0.5-1.4-0.8c-0.3-0.2-0.5-0.5-0.7-0.7
			c-0.1-0.2-0.1-0.4,0.1-0.6c0.2-0.2,0.4-0.4,0.5-0.5l0.4-0.6l0.5-0.6c0.3-0.4,0.7-0.7,1.1-1.1L316.2,205.4z"/>
	</g>
	<g>
		<path class="st39" d="M319.3,170.4c-0.1,0.6-0.2,1-0.4,1.5l-0.2,0.7l-0.3,0.6c-0.1,0.2-0.1,0.5-0.2,0.8s-0.2,0.4-0.5,0.4
			s-0.6,0-0.9-0.2c-0.4-0.2-0.8-0.4-1.4-0.8l-0.3-0.4c-0.3-0.7-0.4-1.2-0.4-1.6c-0.1-0.4,0-0.7,0-1c0.1-0.2,0.2-0.4,0.5-0.3
			c0.3,0,0.5,0.1,0.8,0l0.7-0.1h0.7c0.5,0,1,0,1.6,0L319.3,170.4z"/>
	</g>
	<path class="st20" d="M322.7,162.5c0,0-2.9,2.4,0.8,9.4c3.7,7,7.9,4.6,7.9,4.6L322.7,162.5z"/>
	<path class="st22" d="M320.9,161.3l11.1,19.4c0,0,5.1-9.8,5.2-12c0.1-2.3,28.1-3.7,28.1-3.7l1.4,2.6l26.1-15.1l-2.3-4.9
		c0,0,10.4,0,10.5-8.4c-1.6,0.5-2.6,0.1-3.5-1c0,0-2.6,6.4-9.4,4.1c-0.1,0.1-4.8-10.1-4.8-10.1s1.6-7,7.5-5.5
		c-0.4-0.6-0.7-5.1-0.7-5.1s-8.8-1.7-11,5.5c-0.1-0.2-1.9-2.2-1.9-2.2l-6.6-0.2l-15.7,9.5l-1.8,8.6l6.9,13.7l-24.7,7
		C335.2,163.5,327.5,160.1,320.9,161.3z"/>
	<polygon class="st8" points="356.4,135 354.5,142.3 366.8,165.3 373.8,161 359,133.2 	"/>
	<polygon class="st22" points="355.6,135.5 370.3,163.3 372.3,162.1 357.3,134.2 	"/>
	<path class="st22" d="M353.7,143.1c0.1-0.1,10.2-5.7,10.2-5.7l-4.3-5.4l-4.3,2.3L353.7,143.1z"/>
	<polygon class="st8" points="786.3,257.8 168.4,257.8 168.4,241.9 507.3,241.9 786.3,241.9 	"/>
	<rect x="468.3" y="57.2" class="st8" width="16.5" height="388.3"/>
	<rect x="163.7" y="434.1" class="st8" width="617.8" height="15.9"/>
	<rect x="162.3" y="49.5" class="st8" width="16.5" height="400.2"/>
	<rect x="775.1" y="60.7" class="st8" width="16.5" height="389"/>
	<rect x="173.8" y="49.2" class="st8" width="617.8" height="15.9"/>
	<line class="st40" x1="124" y1="498.4" x2="832.7" y2="498.4"/>
	<line class="st40" x1="112.7" y1="513" x2="845.3" y2="513"/>
	<line class="st40" x1="93.5" y1="530.3" x2="862.6" y2="530.3"/>
	<line class="st40" x1="79.5" y1="547.5" x2="873.8" y2="547.5"/>
	<line class="st40" x1="71.6" y1="566.1" x2="893.7" y2="566.1"/>
	<line class="st41" x1="477.5" y1="475.9" x2="477.5" y2="566.8"/>
	<line class="st41" x1="440" y1="476.6" x2="437.7" y2="566.8"/>
	<line class="st41" x1="402.1" y1="477.3" x2="396.4" y2="566.8"/>
	<line class="st41" x1="362.2" y1="472.6" x2="344.3" y2="602.2"/>
	<line class="st41" x1="319.7" y1="473.3" x2="289" y2="601.7"/>
	<line class="st41" x1="277.3" y1="479.9" x2="227.1" y2="604.4"/>
	<line class="st41" x1="234.1" y1="477.9" x2="162.9" y2="599.5"/>
	<line class="st41" x1="189" y1="475.9" x2="100.1" y2="596"/>
	<line class="st41" x1="514.5" y1="482.1" x2="516.7" y2="567.1"/>
	<line class="st41" x1="552.9" y1="482.8" x2="558.2" y2="566.4"/>
	<line class="st41" x1="592.9" y1="478.2" x2="611" y2="607.7"/>
	<line class="st41" x1="635.8" y1="478.8" x2="666.8" y2="607.3"/>
	<line class="st41" x1="678.7" y1="485.5" x2="729.3" y2="609.9"/>
	<line class="st41" x1="722.2" y1="483.5" x2="794.1" y2="605"/>
	<line class="st41" x1="767.7" y1="481.5" x2="857.5" y2="601.5"/>
</g>
</svg>
