<?xml version="1.0" encoding="utf-8"?>
<!-- Generator: Adobe Illustrator 23.0.2, SVG Export Plug-In . SVG Version: 6.00 Build 0)  -->
<svg version="1.1" id="Layer_1" xmlns="http://www.w3.org/2000/svg" xmlns:xlink="http://www.w3.org/1999/xlink" x="0px" y="0px"
	 viewBox="0 0 803.35 679.17" style="enable-background:new 0 0 803.35 679.17;" xml:space="preserve">
<style type="text/css">
	.st0{opacity:0.1;fill:#007CC7;}
	.st1{fill:#AFC7D7;}
	.st2{fill:#999999;}
	.st3{fill:#1F2144;}
	.st4{fill:#6E439D;}
	.st5{fill:#F29542;}
	.st6{fill:#673636;}
	.st7{fill:#481F58;}
	.st8{fill:#515CA0;}
	.st9{fill:#522727;}
	.st10{fill:#7A369E;}
	.st11{fill:#643526;}
	.st12{fill:#422645;}
	.st13{fill:#D37E37;}
	.st14{fill:#311C33;}
	.st15{fill:#FFFFFF;}
	.st16{fill:#803D3D;}
	.st17{fill:#945549;}
	.st18{fill:#363A5E;}
	.st19{fill:#73A0BE;}
	.st20{fill:#6B4C33;}
	.st21{fill:#FFEDDF;}
	.st22{opacity:0.43;fill:#5E2C2C;}
	.st23{fill:#5E8296;}
	.st24{fill:#C09B7E;}
	.st25{fill:#9B6C53;}
	.st26{opacity:0.48;fill:#422645;}
	.st27{fill:none;stroke:#5E2C2C;stroke-width:1.1439;stroke-linecap:round;stroke-linejoin:round;stroke-miterlimit:10;}
	.st28{fill:#5E2C2C;}
	.st29{fill:none;}
	.st30{fill:#002042;}
	.st31{opacity:0.57;}
	.st32{fill:#6382D7;}
	.st33{opacity:0.48;fill:#99AFBC;}
	.st34{opacity:0.9;}
	.st35{fill:#CCCCCC;}
	.st36{fill:#B3B3B3;}
	.st37{fill:#E6E6E6;}
	.st38{fill:#808080;}
	.st39{fill:#666666;}
	.st40{fill:none;stroke:#E6E6E6;stroke-width:0.2619;stroke-miterlimit:10;}
	.st41{opacity:0.34;}
	.st42{fill:#757575;}
	.st43{fill:#72A084;}
	.st44{fill:#4E725B;}
	.st45{fill:#6FB1ED;}
	.st46{fill:none;stroke:#522727;stroke-width:1.0552;stroke-linecap:round;stroke-linejoin:round;stroke-miterlimit:10;}
	.st47{opacity:0.53;}
	.st48{fill:#FFF88E;}
	.st49{fill:none;stroke:#5E2C2C;stroke-width:1.0523;stroke-linecap:round;stroke-linejoin:round;stroke-miterlimit:10;}
	.st50{fill:#FFF4D6;}
	.st51{fill:#F3A769;}
	.st52{fill:none;stroke:#5E2C2C;stroke-width:1.0841;stroke-linecap:round;stroke-linejoin:round;stroke-miterlimit:10;}
	.st53{fill:none;stroke:#522727;stroke-width:0.7881;stroke-linecap:round;stroke-linejoin:round;stroke-miterlimit:10;}
	.st54{opacity:0.27;fill:#673636;}
</style>
<g>
	<path class="st0" d="M800.82,404.11c10.31,83.3-10.99,118.39-61.11,175.19c-19.79,22.43-50.78,39.02-76.04,52.14
		c-53.61,27.84-112.21,40.23-169.65,45.18c-56.03,4.83-112.15,2.53-167.31-4.58c-3.21-0.41-6.42-0.85-9.62-1.3
		c-109.12-15.3-256.17-65.71-299.54-191.18C4.73,442.48-2.26,403.07,0.66,363.79c1.39-18.71,6.61-35.05,11.08-52.84
		c4.67-18.59,77.73-153.52,210.21-205.29c61.04-27.21,280.91-55.15,370.77,24.25c14.99,13.25,28.22,27.67,38.91,44.32
		c9.85,15.34,19.63,32.7,26.2,49.81c4.78,12.44,9.47,25.01,14.49,37.35c7.49,18.4,20.76,33.11,37.46,43.84
		c7.58,4.87,16.5,7.78,24.74,11.34C768.99,331.45,796.21,366.9,800.82,404.11z"/>
	<path class="st1" d="M106.55,646.64c-3.11-0.28-4.79-0.69-5.57-0.92c-0.79-0.23-0.71-0.34-0.45-0.39c0.55-0.16,1.77-0.12-1.18-1.17
		c2.41,0.49,4.48,1.04,5.75,1.42c0.47-0.01,2.2,0.19,3.7,0.23c1.5,0.06,2.77,0.01,2.41-0.16c0.63,0.38,2.69,0.74,5.28,0.96
		c2.59,0.23,5.62,0.27,8.45,0.37c5.63,0.11,10.27,0.13,7.63,1.01c3.42-0.04,10.39-0.63,18.14-1.67c7.77-1.01,16.34-2.35,23.37-3.31
		l-3.74,0.88c15.03-0.75,12.73-2.63,21.21-3.99c-7.39,1.33,6.78-0.2,9.84-0.06c6.57-1.03,11.91-2.26,21.31-2.44
		c1.96,0.54,2.21,1.35,8.15,1.46c1.35-0.16,2.7-0.32,4.06-0.44c5.95,0.13,14,0.2,17.78,0.8l-0.82-0.01c6.68,0.77,7.1-0.03,1.88-0.54
		l6.48,0.15l0.18,0.19c8.58,0.34,16.71,0.29,30.35,1.55c-3.76,0.18,10.08,2.1-2.25,1c3.6,0.09-1.83-0.74-2.48-1.06
		c-4.41-0.59-8.55-0.39-10.51-0.52c1.38,0.46-0.08,1.08-2.52,1.27c4.47-0.03,12.8,0.81,20.39,1.5c7.58,0.68,14.4,1.15,15.59,0.49
		c5.49,0.53,11.88,0.96,18.51,1.29c6.64,0.2,13.47,0.45,19.84,0.71c-0.53-0.07-1.55-0.2-1.25-0.3l10.98,0.62l-2.54,0.14l7.27,0.45
		c0.76,0.24-2.07,0.48-5.09,0.55c-1.72,0.09-3.28-0.1-1.6-0.19c-7.86,0.51,6.52,0.21,1.41,0.76c-1.93-0.08-4.43,0.05-5.81,0.03
		c8.97,0.37,13.13-0.57,18.65,0.02c2.12-0.32,5.34-0.69,9.04-0.96c3.7-0.25,7.85-0.61,11.91-0.62c-3.09,0.53,8.73-0.6,4.78,0.31
		c3.08-0.47,10.31-0.68,11.47-1.19c-1.11,0.24-4.61,0.52-7.05,0.57c3.29-0.44,3.64-0.86,7.68-1.12c0.53,0.02,0.25,0.15,0.25,0.15
		c5.19-0.81,1.59-1.48,10.74-2.34c23.97-2.67-3.14,1.8,0.3,1.75c0.84-0.42,11.41-1.69,16.21-1.9l-1.11,0.28
		c2.42-0.4,5.96-1.06,8.6-1.02c1.38-0.7,4.12-1.52,5.74-2.07l10.68-1.32l-2.15,0.55c2.41-0.41,4.55-0.67,6.7-0.94
		c1.02,0.3-2.16,0.55-5.39,1.1c1.83,0.17,3.97-0.1,6.4-0.8l-1.34,0.13c2.7-0.55,12.59-2.33,4.62-1.54c5.88-1.1,7.93-0.49,11.96-1.18
		c0.49,0.29-3.24,0.83-1.13,0.86c3.98-0.39,6.62-0.65,9.83-1.18c-3.18,0.24,0.83-0.42-4.19-0.06c1.87-0.41,6.91-1.06,6.68-1.2
		c-1.6,0.26-2.69,0.54-5.57,0.64c5.32-0.79,10.9-1.44,16.45-1.78c-0.18,0.1-0.71,0.23-1.32,0.38c7.02-1.33,17.76-2.37,22.44-3.44
		l-2.14,0.05c-1.7,0.33-5.19,0.71-6.62,0.69c5.34-0.74-3.93-0.24,1.7-1.12c7.77-1.07,14.85-0.91,19.01-2.07
		c-7.45,0.61-17.59,1.04-20.54,1.75c1.6-0.15,3.2-0.32,4.81-0.45c-3.6,0.65-7.19,1.37-10.78,2.05c-0.49-0.3-9.61,1.22-9.54,0.66
		c3.75-0.53,7.19-0.86,10.13-1.23c-0.75-0.17-10.11,0.91-14.09,1.32l5.03-0.36c-8.82,1.46-20.23,2.61-28.8,3.98
		c6.7-1.24-8.73,0.63-3.38-0.47c2.15-0.56,5.84-0.52,4.78-0.53c0.57-0.58-5.31,0.52-7.14,0.36c-0.84,0.43-9.65,1.63-4.35,1.4
		c-2.91,0.11-9.08,1.35-13.05,1.44c1.28,0.46-7.22,1.17-8.61,1.59c-1.71,0.16-3.22,0.21-4.4,0.2c3.58-0.6,7.96-1.33,12.52-2.09
		c1.87-0.11,5.32-0.51,4.27-0.52l0.03-0.23c6.87-1.21,13.73-2.42,18.67-3.29c0.79-0.09,1.57-0.18,2.36-0.28l-0.45,0.12
		c0.25-0.06,0.5-0.1,0.75-0.15c40.21-4.73,80.45-9.32,120.8-8.76c-2.65,0.08-6.96-0.05-8.74,0.24l0.28-0.11l-4.11,0.23
		c3.46-0.02,10.32-0.07,13.29-0.36c2.83,0.04,5.67,0.11,8.5,0.21l-7.1-0.45c0.01-0.01,0.03-0.01,0.04-0.02
		c-0.01,0.01-0.03,0.01-0.04,0.02l-8.39-0.53c5.53-0.4,10.73-0.79,17.34-0.59c-2.13,0.22-0.04,0.31,0.5,0.42
		c18.18-1.53,35.84-1.57,54.16-1.21c7.7,0.15,15.44,0.3,23.05-0.86c16.08-2.45,31.51-10.69,47.87-7.5c2.16,0.42,4.39,0.42,6.52-0.1
		c11.15-2.74,7.49-14.73,0.41-18.39c-5.58-2.89-12.22-2.37-18.5-2.56c-8.19-0.25-16.36-1.84-24.53-1.18
		c-10.45,0.84-19.85,3.83-30.42,3.18c-7.49-0.47-15.39-1.99-22.9-1.77c4.25-0.12-2.67-0.76-6.02-1.29
		c-10.38-0.48-32.39-1.78-48.1-2.19c2.14-0.51-2.22-0.75-7.26-0.98c-5.04-0.21-10.76-0.43-11.34-0.98
		c-3.49-0.17-8.94-0.19-9.37,0.19c1.96-0.12,6.65,0.39,6.01,0.58c-5.11-0.13-12.9-0.41-13.66,0.06l-6.25-0.75
		c-0.32,0.29-1.59,0.58-3.68,0.65c-1.25-0.08-2.51-0.16-3.76-0.24c-2.11-0.32-2.21-0.21-2.35-0.04c-1.52-0.05-3.03-0.11-4.55-0.16
		c1.75-0.21,3.2-0.39,3.91-0.61c-5.35-0.29-4.64-0.02-8.44-0.06c-1.22-0.35,3.83-0.71,7.94-0.77l-6.86-0.55
		c-6.7,0.38-18.32,0.85-28.99,0.24c1.77-0.3,5.24-0.16,2.49-0.78c-4.6-0.03-10.8,0.42-16.83-0.18c0.84-0.01,0.33-0.1,1.16-0.1
		c-10.71,0.11-8-0.48-17.62-0.99c0.16-0.05,0.2-0.12,0.49-0.16l-5.93,0.1c-12.45,0.25-13.66-1.31-20.97-2.14l1.64,0.02
		c-2.26-0.45-7.13-0.72-11.94-1.03c-4.81-0.3-9.58-0.56-11.66-0.84c5.14,0.75,1.67,0.5,5.38,1.41c4.62,0.18,3.35-0.65,10.98,0.1
		c-1.09,0.58-10.8,0.08-12.89,0.42c-4.31-0.26-7.03-1.47-7.38-1.86c-10.68-0.79-16.6-1.64-29.71-2.72
		c-4.77-0.03-8.63,0.9-19.39-0.96l0.65-0.16c-0.45,0.36-5.29-0.58-7.57-0.48c3.66,0.97-4.76,0.01-0.26,1.01
		c-6.42-0.49-7.33-1.44-7.87-2.02c-4.7,0.52-12.66-1.44-22.64-1.36c1.82-0.36,12.63,0.22,8.24-0.47c-4.29,0.07-8.58,0.24-12.86,0.44
		l5.66,0.2c-9.71,0.28-12.36-0.48-17.99-0.82c-0.55-0.13,0.1-0.22,1.23-0.29c1.13-0.04,2.75-0.03,4.13,0
		c-2.99-0.13-7.78,0.03-11.68,0.28c-2.95,0.28-13.14,1.05-17.14,1.89c-0.54,0.02-1.09,0.04-1.65,0.06c0.15-0.06,0.4-0.13,0.73-0.16
		c-0.82,0.08-1.49,0.13-2.09,0.24c-1.71,0.13-3.41,0.26-5.12,0.39l1-0.23c-0.67,0.1-1.32,0.2-1.95,0.3
		c-1.77,0.11-3.52,0.31-5.28,0.53l-2.63,0.59l1.33-0.16c-0.16,0.37-1.75,0.89-4.22,1.45c-2.98,0.48-5.95,1.03-8.92,1.65
		c-3.1,0.65-6.21,1.37-9.32,2.11c-3.36,0.63-7.06,1.59-10.49,2.44c-4.26,1.05-8.1,1.87-10.08,1.73c11.35-2.97,16.78-4.24,29-7.16
		c3.32-0.27,1.33,0.16-1.44,0.85c-2.78,0.67-6.37,1.56-6.47,1.79c2.32-0.48,4.64-0.96,6.98-1.39c-1.16-0.32,13.56-2.81,9.63-3.05
		c-3.9,0.67-7.85,1.23-11.65,2.05c-3.8,0.79-7.52,1.64-11.15,2.48c-7.25,1.67-14.2,3.21-20.73,4.1c3.79-2.12,7.19-4.42,10.54-6.8
		c-0.03-0.06,0.15-0.2,0.65-0.47l-0.65,0.47c0.09,0.2,2.56-0.54,5.4-1.35c-0.51,0.35-1.05,0.74,2.4-0.11
		c7.15-1.32,10.76-3.23,16.32-4.21l-1.67,0.4c2.63-0.4,5.62-0.9,8.42-1.46c2.81-0.53,5.49-0.96,7.46-1.45
		c2.22,0.1-1.56,0.68-4.85,1.19c-3.29,0.52-6.03,1.14-1.89,0.71c-2.89,0.41-6.37,1.09-9.6,1.87c-3.22,0.8-6.14,1.66-8.21,2.17
		c3.51-0.74,6.97-1.25,9.28-1.44c2.34-0.16,3.51-0.04,2.57,0.38c7.71-1.71,7.61-2.1,7.23-2.47c-0.37-0.37-1.01-0.68,5.99-1.84
		c3.25-0.46,6.53-0.62,9.78-0.93c1.08-0.42,2.16-0.85,3.25-1.21c5.9-0.41-3.52,0.98,5.49,0.3c2.42-0.65,8.26-0.4,10.02-0.76
		c-0.24,0.24-0.34,0.39,4.26,0.36c0.31-0.11-0.12-0.46,3.5-0.48c2.47,0.88-9.27,0.26-5.06,1.04c10.27-0.06,6.59-0.82,8.17-1.18
		c-0.35,0.03-0.92-0.01-1.95-0.02c0.11-0.31,4.49-0.05,4.03-0.38c-1.74-0.08-3.5,0.05-5.03,0.14c3.13-0.28-5.11-0.62-8.3-0.47
		c-7.19,0.52-22.17,1.4-32.05,3.1c0.85-0.17,2.55-0.49,1.43-0.47c-1.77,0.26-3.4,0.49-4.95,0.72c-1.53,0.28-2.97,0.54-4.36,0.78
		c-2.77,0.49-5.33,0.93-7.86,1.49c-5.06,1.07-10.15,2.36-17.17,4.1l-1.39,0.99c-6.11,1.37-7.33,1.97-7.51,2.5
		c-0.16,0.52,0.85,0.83-0.61,1.19c-2.68,0.5-4.9,1.24-7.28,1.13c0.41-0.12,0.81-0.24,1.21-0.38c-3.73,0.51-4.29,0.67-4.76,0.83
		c-0.46,0.13-0.87,0.34-4.17,0.29c-2.66,0.15-1.51,0.22-0.09,0.25c1.43,0.01,3.11,0.03,1.38,0.23c-1.8,0-2.96,0.01-3.89,0.06
		c-0.94,0.08-1.63,0.18-2.45,0.22c-1.66,0.1-3.77,0.21-9.36-1.31c0.33-0.04,0.09-0.3,0.62-0.37c0.52-0.09,1.83,0.08,5.02,0.56
		c-2.01-0.48-4.03-1.07-6.15-1.71c3.9,0.73,4.55,0.77,5.31,0.89c0.75,0.07,1.46,0.33,5.1,0.6c1.74-0.17,2.42-0.48,3.03-0.69
		c0.61-0.22,1.21-0.47,2.72-0.76c-1.34,0.09-1.9,0.29-2.61,0.39c-0.7,0.09-1.63,0.28-3.58,0.03c-4.69-0.64,0.83-0.24,1.31-0.42
		c-3.17,0.12-4.86-0.33-6.53-0.84c-1.68-0.5-3.25-1.04-6.72-1.44c0.89,1.01-0.26,0.74,4.02,2.2c-2.25-0.35-4.85-1.03-6.88-1.67
		c-2.01-0.64-3.45-1.22-3.06-1.5l-1.32,0.38c-1.17-0.4-5.49-1.01-5.72-1.21l-1.92,0.11c3.8,0.88,7.11,1.58,13.3,2.76
		c-2.69-0.15,2.96,1.71-5.15,0.13c-3.61-0.69-0.29-0.42-0.45-0.63c-2.39-0.4-4.56-0.64-6.44-0.91c-1.91-0.17-3.57-0.41-5.07-0.52
		c-1.5-0.13-2.83-0.24-4.07-0.35c-1.23-0.09-2.37-0.17-3.47-0.24c-4.39-0.22-8.4-0.42-15.92,0.59c3.69-0.73,13.08-1.14,20.68-1.18
		c-4.54-0.72-9.82,0.1-14.11,0.34c3.82-0.5,4.48-0.75-0.13-0.74c-0.62,0.16-1.21,0.35-1.82,0.52c-2.73,0.19-7.48,0.83-7.88,0.7
		c-0.09,0.15,1.1,0.1,3.55-0.07c-3.31,0.6-7.98,1.46-13.18,2.48c-5.12,1.04-10.83,2.2-16.4,3.34c3.1-0.63,6.63-1.99,9.75-2.92
		c-12.23,1.54-24.01,0.87-36.09,4.43c-6.43,1.89-12.71,4.44-19.34,5.4c-8.75,1.27-28.92,0.01-30.9,12.66
		c-0.5,3.21,0.59,6.45,2.65,8.96c3.78,4.58,7.3,9.75,12.3,13.12c4.97,3.34,11.08,4.67,16.06,8.01c4.03,2.7,7.1,6.59,10.8,9.71
		C94.02,647.01,99.51,646.7,106.55,646.64z M245.8,574.57l-4.72,1.03C242.85,575.13,244.62,574.7,245.8,574.57z M160.88,639.77
		c-1.2,0.23-2.85,0.51-4.33,0.77c-1.33,0.09-1.63,0.04-1.62-0.04C156.91,640.27,158.9,640.02,160.88,639.77z M79.65,619
		c-0.1-0.16-0.19-0.41-0.28-0.75C79.46,618.5,79.55,618.75,79.65,619z M223.94,634.89c-1.92,0.26-1.63,1.06-9.23,1.17
		c-0.1-0.08,0.54-0.17,1.29-0.24c-3.45,0.25-4.04,0.14-7.82,0.25c-1.23-0.5,4.58-0.77,7.06-1.28c-2.43,0.22-5.13,0.69-7.8,0.8
		l0.59-0.26c-2.68,0.26-5.35,0.53-8.02,0.83c-3.23,0.75,6.11-0.51,6.6-0.18l-5.08,0.8c-5.85,0.6-21.44,2.7-26.97,2.59
		c-6.89,0.6-3.73,0.88-5.36,1.46c-4.01,1.02-7.98,0.88-12,1.58c0.24,0.44-4.6,0.97-4.65,1.55l-6.73,0.6
		c-3.62,1.24,8.1-0.7,9.92-0.58c3.73,0.32-4.88,0.83-2.48,0.99c5.13-0.68,5.41-1.12,7.86-1.55c2.92-0.42,4.52-0.43,4.49-0.14
		c-8.26,0.71-4.29,1.18-11.04,1.84l-0.26-0.15c-0.04,0.6-9.75,1.33-13.38,1.89c-7.56,0.03,5.9-1.39,5.6-1.58
		c-3,0.37-6.01,0.71-9.04,1.01c3.91-0.7-0.14-0.72,5.09-1.55c-5.48,0.7-6.21,0.2-11.46,0.92c5.92-1.21-7.52-0.19-8.21-0.8
		c5.78-0.33,16.01-0.4,16.57-0.27c0.84-0.2,7.45-0.73,10.16-0.84l4.09-1.25c-4.8,0.54-11.32,1.52-9.61,0.69
		c-2.18,0.31-4.35,0.64-6.54,0.93c6.63-1.62,6.29-1.55,12.3-2.65c-12.64,0.53-22.32,2.99-32.86,2.32l1.64-0.1
		c-5.18,0.13-9.46-0.14-12.81-0.82c-3.36-0.66-5.73-1.68-7.34-2.68c-0.06-0.04-0.1-0.07-0.16-0.11c0.32,0.15,0.61,0.32,0.94,0.46
		c5.79,2.49,13.02,2.75,19.9,2.64c11.02-0.18,21.95-1.14,32.85-2.39l-1.3,0.52c0.27-0.05,0.46-0.09,0.75-0.14
		c12.53-1.77,1.27,0.76,14.07-1.23c-0.49,0.13-0.7,0.23-0.97,0.32c5.19-0.92,14.87-1.91,15.86-2.66c-1.23,0.16-6.06,0.62-8.43,0.69
		c5.47-0.71,10.94-1.43,16.41-2.08c1.15-0.03,2.26-0.07,3.55-0.18l0,0l0.01,0c1.24-0.11,2.62-0.29,4.43-0.59
		c0.43-0.09,0.73-0.16,0.94-0.21c6.55-0.67,13.11-1.2,19.7-1.49C216.5,634.32,231.57,633.98,223.94,634.89z M244.46,634.64
		c-7.77-0.32-2.34-0.27-7.86-0.72c-0.3-0.11-0.11-0.2,0.35-0.28c5.83,0.15,11.64,0.44,17.45,0.85
		C249.36,634.29,244.13,634.02,244.46,634.64z M268.01,636.14c-2.65-0.3-10.18-0.72-10.73-1.27c3.65,0.27,4.69,0.32,4.29,0.18
		c3.79,0.31,7.57,0.66,11.35,1.03c0.14,0.08,0.47,0.18,1,0.29C272.22,636.33,269.58,636.15,268.01,636.14z M365.63,644.21
		c-6.76,0.07,0.36-0.38-3.07-0.6c-5.14,0.84-6.57-0.67-12.02,0.28c-6.54,0.08-4.47-0.42-6.53-0.74c6.49,0.07-3-0.65,5.15-0.77
		c-3.3-0.17-4.51-0.06-5.6,0.1c-1.08,0.16-2.04,0.34-4.82,0.11l-0.8-0.73c-2.53-0.17-6.5-0.43-10.7-0.71
		c-4.2-0.29-8.61-0.61-12.06-0.65c5.67,0.89-3.43,0.19-2.57,0.66c1.11-0.49,8.93,0.51,8.8,0.79c-4.09-0.14-13.59-0.84-17.35-1.28
		l7.45,1.02c-3.13,0.12-14.16-0.31-14.48-0.24c-3.33-0.62-8.4-1.07-10.07-1.62l6.39,0.14l2.15,0.67l3.75-0.19
		c-4.04-0.6-12.52-1.87-14.25-2.54c6.41,0.66,15.19,1.5,25.72,1.92c6.04,0.53,12.09,0.99,18.15,1.31
		c14.48,0.77,28.95,0.77,43.42,0.25c-0.11,0.02-0.21,0.03-0.32,0.05c-1.69,0.3-3.68,0.54-6.03,0.68c1.34-0.09,2.93-0.13,5.1-0.04
		c-3.89,0.5-7.78,1.1-11.71,1.44c2.96,0.09,4.66-0.17,6.52-0.47c1.86-0.29,3.87-0.58,7.48-0.61
		C372.88,643.12,373.36,643.45,365.63,644.21z M566.89,621.4c5.06,0.05,10.12,0.05,15.18,0.03l-0.07,0.01l4.96,0.46
		c-1.89,0.15-3.78,0.28-5.67,0.42L566.89,621.4z M220.48,585.76c1.59-0.06,2.08,0.07,2.56,0.23c-1.29,0.15-2.55,0.29-3.8,0.37
		L220.48,585.76z M174.21,580.5c0.29-0.34,2.44-0.39,4.83-0.28c2.4,0.06,5.01,0.37,6.31,0.26c1.03,0.07,3.81,0.59,5.97,1.12
		c2.16,0.53,3.76,1.02,2.7,1.03c-2.95-0.8-4.53-0.8-5.97-0.84c-1.46-0.04-2.78-0.18-5.62-1.03c-1.07,0.28,0.43,0.64,2.66,1.1
		c-0.79-0.06-1.29-0.03-1.4,0.06c-1.15-0.18-2.26-0.36-3.34-0.53c-1.09-0.12-2.16-0.24-3.18-0.35
		C175.34,580.75,173.67,580.67,174.21,580.5z M165.96,580.47l-1.92,0.14c-7.33,0.25-11.96,1.01-14.57,1.45
		c-2.52,0.47-3.14,0.72-2.4,0.81c-1.71,0.26-3.41,0.53-5.11,0.83c2.97-0.86,5.8-1.61,7.44-1.99
		C155.47,580.76,162.12,580.33,165.96,580.47z M128.18,585.52c-0.35,0.24,0.05,0.25,0.8,0.15c-1.87,0.46-3.77,0.92-5.67,1.38
		C124.04,586.61,122.66,586.58,128.18,585.52z M75.59,612.45c0.02-1.03,0.46-2.07,0.73-2.99c0.66-1.42,1.36-2.46,1.59-2.56
		c-0.23-0.5,0.83-2.66,2.98-4.84c2.28-2.41,5.78-4.55,7.6-5.79c4.86-2.58,6.87-2.88,8.56-3.34c1.74-0.36,3.24-0.78,7.88-2.4
		c-1.23,0.19-2.45,0.43-3.68,0.67c4.13-1.49,7.15-2.39,10.32-3.23c3.19-0.85,6.48-1.58,11.26-2.56c1.38,0.3-4.39,0.86-6.41,1.66
		l4.71-0.48c-2.04,0.49-5.82,1.91-5.93,1.35c0.05,0.29-2.96,1.48,2.92-0.17l-4.29,1.49c0.27,0,0.64-0.03,1.06-0.09
		c-1.3,0.36-2.64,0.73-3.96,1.1c-1.77,0.28-4.76,1.14-7.55,1.56c-0.3-0.11,2.41-1.02,3.96-1.56c-4.15,0.93-7.6,2.26-9.72,3.22
		c3.07-1.08,3.86-1.22,4.07-1.12c0.2,0.09-0.16,0.42,0.66,0.42c-1.81,0.71-4.2,1.62-6.35,2.55c-2.14,0.92-4.05,1.85-4.96,2.44
		c-1.21,0.55-2.3,1.12-3.27,1.63c-1,0.47-1.77,0.94-2.39,1.23c-1.22,0.59-1.66,0.56-0.52-0.6c-2.38,2.06-5.08,4.34-5.85,7.18
		c0.58-1.24,1-1.85,1.31-2.15c0.36-0.27,0.59-0.26,0.84-0.28c0.25-0.02,0.52-0.08,0.98-0.5c0.24-0.2,0.48-0.52,0.86-0.93
		c0.4-0.4,0.89-0.93,1.5-1.63c0.49-0.17,0.63-0.13,0.55,0.06c-2.24,1.82-3.99,3.83-5.12,6.06c-0.38,0.61-0.73,1.19-0.99,1.68
		c0.55-1.69-0.43-0.36-0.56-0.82c-0.26,0.62-0.31,1.15-0.35,1.56c-0.04,0.42-0.05,0.73-0.03,0.95c0.03,0.44,0.17,0.5,0.36,0.31
		c0.17-0.15,0.34-0.46,0.54-0.88c-0.09,0.38-0.22,0.76-0.28,1.16c-0.31,2.16,0.02,4.27,0.75,6.33c0.14,1.01,0.39,2.02,0.7,3.03
		c-0.86-1.46-1.56-2.98-2.02-4.56c-0.11,1.03,0.28,2.37,0.97,3.67c0.69,1.31,1.62,2.6,2.34,3.71c0.62,1.31-0.57-0.03-2.02-2.14
		c-1.49-2.1-2.81-5.12-3.48-6.73C75.61,614.45,75.5,613.48,75.59,612.45z"/>
	<g>
		<path class="st50" d="M782.99,323c-27.32,0.59-733.97-0.15-737.45,0.4c-5.66,0.89-4.27,0.2-5.03,6.59
			c-0.4,3.36-15.65,214.85-17.13,253.24c-0.4,10.48,0.36,8.29,12.3,8.29c27.85,0,711.71,0.56,718.69,0
			c4.52-0.36,11.95,0.96,13.12-6.03c0.59-3.56,0.62-7.34,0.89-10.95c0.31-4.23,11.52-205.02,14.02-238.84
			c0.3-4.1,0.61-8.2,0.91-12.3C783.33,323.18,783.16,322.99,782.99,323z"/>
		<path class="st51" d="M24.96,553.39c-0.02,0.32-0.04,0.63-0.06,0.95c11.81,0.1,23.54,0.18,35.21,0.25
			c-0.94,10.58-1.92,21.84-2.98,34.67c-0.05,0.63-0.12,1.4-0.19,2.28c0.37,0,0.74,0,1.12,0c1.03-12.41,2.07-24.9,3.09-36.94
			c12.74,0.07,25.43,0.13,38.15,0.17c-0.85,9.61-1.73,19.84-2.69,31.33c-0.11,1.32-0.26,3.18-0.45,5.46c0.37,0,0.74,0,1.12,0
			c1.02-12.31,2.06-24.75,3.07-36.79c12.64,0.04,25.32,0.06,38.11,0.06c-0.85,9.59-1.73,19.8-2.68,31.27
			c-0.11,1.32-0.26,3.19-0.45,5.49c0.37,0,0.74,0,1.12,0c1.02-12.3,2.05-24.72,3.07-36.76c5.08,0,10.16,0,15.28-0.01
			c4.58-0.01,12.41-0.03,22.88-0.07c-0.77,8.7-1.56,17.94-2.41,28.19c-0.16,1.89-0.4,4.89-0.7,8.67c0.37,0,0.74,0,1.11,0
			c1.02-12.29,2.05-24.75,3.07-36.87c10.11-0.04,22.58-0.09,36.91-0.16c-0.79,8.93-1.6,18.42-2.48,28.98
			c-0.15,1.79-0.37,4.57-0.66,8.06c0.37,0,0.74,0,1.11,0c1.02-12.36,2.06-24.89,3.09-37.05c11.62-0.05,24.42-0.11,38.16-0.18
			c-0.71,8.06-1.44,16.61-2.22,26.01c-0.19,2.3-0.51,6.25-0.91,11.25c0.37,0,0.74,0,1.1,0c1.02-12.38,2.07-24.98,3.1-37.26
			c11.27-0.05,23.16-0.11,35.52-0.17c-0.79,8.94-1.6,18.45-2.48,29.03c-0.15,1.85-0.39,4.76-0.68,8.42c0.37,0,0.74,0,1.11,0
			c1.03-12.49,2.09-25.16,3.12-37.46c12.31-0.06,25.08-0.12,38.16-0.19c-0.71,8.08-1.44,16.65-2.22,26.07
			c-0.2,2.35-0.53,6.44-0.94,11.6c0.37,0,0.74,0,1.1,0c1.03-12.51,2.09-25.26,3.14-37.67c12.32-0.06,24.92-0.13,37.67-0.19
			c-0.77,8.78-1.57,18.11-2.44,28.48c-0.17,2.01-0.43,5.29-0.76,9.41c0.37,0,0.74,0,1.11,0c1.04-12.62,2.11-25.44,3.16-37.89
			c12.61-0.07,25.37-0.13,38.16-0.2c-0.69,7.92-1.41,16.31-2.18,25.52c-0.21,2.5-0.57,6.95-1.02,12.58c0.37,0,0.73,0,1.1,0
			c1.04-12.64,2.12-25.54,3.17-38.11c12.16-0.06,24.34-0.13,36.45-0.2c-0.87,9.82-1.77,20.27-2.75,32.04
			c-0.12,1.47-0.3,3.62-0.51,6.28c0.37,0,0.74,0,1.12,0c1.06-12.82,2.14-25.79,3.2-38.33c12.85-0.07,25.62-0.14,38.17-0.21
			c-0.79,8.96-1.61,18.49-2.49,29.1c-0.17,2.02-0.43,5.31-0.77,9.45c0.37,0,0.74,0,1.11,0c1.06-12.84,2.15-25.9,3.21-38.56
			c12.64-0.07,25.05-0.14,37.14-0.21c-0.88,9.94-1.79,20.52-2.79,32.47c-0.12,1.47-0.3,3.63-0.51,6.3c0.37,0,0.74,0,1.12,0
			c1.07-12.97,2.17-26.11,3.24-38.78c13.18-0.08,25.96-0.15,38.18-0.22c-0.8,9.09-1.63,18.76-2.53,29.54
			c-0.17,2.02-0.43,5.31-0.77,9.46h1.11c1.07-13,2.17-26.21,3.25-39.01c14.06-0.08,27.37-0.16,39.67-0.24
			c-0.9,10.08-1.82,20.81-2.83,32.95c-0.12,1.47-0.3,3.63-0.51,6.3c0.37,0,0.74,0,1.12,0c1.09-13.13,2.2-26.44,3.28-39.26
			c14.22-0.09,27.07-0.17,38.18-0.25c-0.82,9.24-1.66,19.07-2.57,30.05c-0.17,2.02-0.43,5.31-0.77,9.45c0.37,0,0.74,0,1.11,0
			c1.09-13.16,2.2-26.56,3.29-39.51c12.76-0.09,23.15-0.17,30.56-0.24c2.28,0.01,4.57,0.03,6.85,0.05
			c-0.94,10.58-1.92,21.84-2.98,34.67c-0.1,1.23-0.24,2.93-0.41,5.01c0.37,0,0.75,0,1.12,0c1.1-13.3,2.22-26.75,3.32-39.67
			c12.74,0.07,25.43,0.13,38.15,0.17c-0.85,9.61-1.73,19.84-2.69,31.33c-0.15,1.8-0.38,4.6-0.66,8.12c0.37,0,0.74,0,1.11,0
			c1.09-13.17,2.2-26.54,3.29-39.45c12.64,0.04,25.32,0.06,38.11,0.06c-0.85,9.59-1.73,19.8-2.68,31.27
			c-0.15,1.75-0.37,4.47-0.64,7.87c0.36-0.01,0.74-0.01,1.11-0.02c1.08-13.06,2.18-26.32,3.26-39.12c2.95,0,5.93,0,8.89-0.01
			c0.02-0.32,0.04-0.64,0.05-0.97c-2.96,0-5.91,0.01-8.87,0.01c1.16-13.77,2.29-26.99,3.33-38.84c2.57,0,5.16,0,7.75,0
			c0.02-0.32,0.04-0.64,0.06-0.97c-2.57,0-5.14,0.01-7.72,0.01c0.82-9.34,3.33-32.71,3.65-36.63c2.05,0,4.11,0,6.16,0
			c0.02-0.32,0.04-0.64,0.06-0.96c-2.05,0-4.09,0.01-6.14,0.01c0.99-12.2,2.07-25.39,3.18-38.84c1.72,0,3.46,0,5.19,0
			c0.02-0.32,0.04-0.64,0.06-0.96c-1.72,0-3.44,0.01-5.17,0.01c1.13-13.66,2.29-27.56,3.42-40.98c1.38,0,2.76,0,4.14,0
			c0.02-0.32,0.04-0.64,0.06-0.96c-1.37,0-2.75,0.01-4.12,0.01c1.16-13.77,2.29-26.99,3.33-38.84c1.04,0,2.1,0,3.14,0
			c0.02-0.32,0.04-0.64,0.06-0.96c-1.04,0-2.08,0-3.12,0c0.82-9.34,1.57-17.8,2.24-24.99c0.17-1.83,0.31-3.25,0.43-4.39
			c-0.2,0-0.41,0-0.64,0.01c-1.02,10.56-1.94,20.14-2.82,29.37c-12.79,0-25.58-0.01-38.37-0.05c0.82-9.32,1.57-17.77,2.23-24.94
			c0.16-1.76,0.3-3.14,0.41-4.26c-0.21,0-0.42,0-0.63,0c-1.01,10.49-1.93,20.01-2.8,29.19c-4.38-0.01-8.77-0.01-13.15-0.03
			c-8.6-0.03-16.96-0.07-25.25-0.13c0.7-8.01,1.36-15.31,1.94-21.62c0.36-3.93,0.59-6,0.76-7.37c-0.23,0-0.46,0-0.68,0
			c-1,10.43-1.92,19.88-2.78,28.94c-4.07,0.04-17.77,0.13-37.96,0.26c0.86-9.8,1.65-18.67,2.34-26.15c0.11-1.16,0.2-2.16,0.29-3.02
			c-0.21,0-0.42,0-0.63,0c-1.01,10.47-1.92,19.97-2.8,29.18c-11.07,0.07-24.04,0.14-38.43,0.23c0.76-8.64,1.46-16.5,2.08-23.22
			c0.27-2.91,0.46-4.8,0.61-6.14c-0.22,0-0.44,0-0.66,0c-1.02,10.58-1.94,20.16-2.82,29.37c-12.39,0.07-25.82,0.15-39.95,0.23
			c0.87-9.98,1.68-19.02,2.38-26.61c0.11-1.14,0.2-2.11,0.28-2.97c-0.21,0-0.42,0-0.63,0c-1.02,10.62-1.95,20.25-2.84,29.58
			c-12.34,0.07-25.22,0.14-38.42,0.21c0.77-8.82,1.49-16.83,2.12-23.67c0.27-2.89,0.46-4.78,0.61-6.12c-0.22,0-0.44,0-0.65,0
			c-1.03,10.75-1.97,20.46-2.86,29.79c-12.25,0.07-24.78,0.14-37.42,0.21c0.89-10.15,1.7-19.34,2.42-27.04
			c0.1-1.13,0.2-2.11,0.28-2.96h-0.63c-1.04,10.78-1.98,20.54-2.88,30.01c-12.76,0.07-25.62,0.14-38.42,0.21
			c0.79-8.99,1.52-17.15,2.16-24.1c0.27-2.9,0.46-4.78,0.61-6.12c-0.22,0-0.44,0-0.65,0c-1.05,10.91-2,20.75-2.9,30.22
			c-12.36,0.07-24.66,0.13-36.74,0.2c1-11.49,1.92-21.87,2.71-30.43c-0.21,0-0.42,0-0.63,0c-1.05,10.89-2,20.77-2.91,30.44
			c-13.13,0.07-25.99,0.14-38.39,0.21c0.91-10.4,1.74-19.81,2.47-27.68c0.11-1.14,0.2-2.12,0.28-2.98c-0.21,0-0.42,0-0.63,0
			c-1.06,11.03-2.02,20.99-2.94,30.66c-13.26,0.07-25.99,0.14-37.94,0.21c0.99-11.37,1.9-21.63,2.68-30.1
			c0.03-0.27,0.05-0.52,0.07-0.77c-0.21,0-0.42,0-0.63,0c-1.07,11.07-2.03,21.1-2.96,30.88c-14.03,0.08-26.96,0.15-38.4,0.21
			c0.89-10.2,1.71-19.42,2.43-27.16c0.15-1.59,0.27-2.88,0.38-3.94c-0.21,0-0.42,0-0.63,0c-1.08,11.21-2.05,21.32-2.98,31.1
			c-14.77,0.08-26.99,0.15-35.78,0.2c0.99-11.41,1.91-21.71,2.69-30.2c0.04-0.39,0.07-0.75,0.1-1.11c-0.21,0-0.42,0-0.63,0
			c-1.08,11.24-2.06,21.4-3,31.32c-7.18,0.04-11.95,0.07-13.76,0.08c-8.21,0.06-16.43,0.1-24.64,0.15
			c0.89-10.25,1.72-19.52,2.44-27.28c0.16-1.77,0.3-3.15,0.41-4.27c-0.21,0-0.42,0-0.63,0c-1.1,11.39-2.08,21.64-3.03,31.56
			c-12.39,0.07-24.78,0.12-37.17,0.16c0.92-10.56,1.77-20.11,2.51-28.08c0.13-1.45,0.25-2.64,0.35-3.64h-0.63
			c-1.1,11.45-2.09,21.74-3.04,31.73c-12.8,0.04-25.6,0.06-38.4,0.06c0.82-9.34,1.57-17.8,2.24-24.99c0.32-3.42,0.53-5.43,0.69-6.8
			c-0.22,0-0.45,0-0.67,0c-1.11,11.53-2.11,21.85-3.05,31.79c-12.79,0-25.58-0.01-38.37-0.05c0.82-9.32,1.57-17.77,2.23-24.94
			c0.32-3.41,0.53-5.42,0.69-6.79c-0.22,0-0.45,0-0.67,0c-1.11,11.5-2.1,21.81-3.04,31.73c-4.38-0.01-8.77-0.01-13.15-0.03
			c-8.6-0.03-16.96-0.07-25.25-0.13c0.7-8.01,1.36-15.31,1.94-21.62c0.66-7.11,0.86-8.16,1.13-9.92c-0.27,0-0.54,0-0.8,0
			c-1.1,11.48-2.09,21.73-3.03,31.54c-12.88-0.08-25.61-0.18-38.79-0.3c-0.02,0.32-0.05,0.63-0.07,0.95
			c13.03,0.11,25.93,0.2,38.77,0.28c-1.25,13.12-2.41,25.47-3.6,38.87c-12.6-0.08-25.07-0.18-37.96-0.29
			c-0.02,0.32-0.04,0.63-0.07,0.95c12.75,0.11,25.37,0.2,37.94,0.27c-0.94,10.58-1.92,21.84-2.98,34.67
			c-0.12,1.48-0.3,3.65-0.52,6.34c-12.41-0.08-24.68-0.17-37.33-0.28c-0.02,0.32-0.04,0.63-0.07,0.95
			c12.53,0.1,24.95,0.19,37.33,0.26c-0.75,9.32-1.93,24.21-3.09,38.87c-12.28-0.08-24.41-0.17-36.92-0.28
			c-0.02,0.32-0.04,0.63-0.06,0.95c12.39,0.1,24.68,0.19,36.91,0.26c-0.64,8.05-1.26,15.98-1.81,22.84
			c-0.45,4.71-0.89,9.27-1.32,13.72c-12.08-0.08-24.05-0.17-36.37-0.28c-0.02,0.32-0.04,0.63-0.06,0.95
			c12.2,0.1,24.3,0.19,36.35,0.26c-1.25,13.12-2.41,25.47-3.6,38.87C48.49,553.58,36.89,553.49,24.96,553.39z M138.55,553.86
			c-12.7,0-25.41-0.01-38.11-0.05c1.12-13.33,2.22-26.13,3.23-37.68c0.23,0,0.47-0.14,0.49-0.44c0.02-0.24,0.04-0.49,0.06-0.73
			c12.58,0.04,25.2,0.06,37.92,0.06C140.9,527.98,139.76,540.32,138.55,553.86z M695.21,392.93c-0.94,10.58-1.92,21.84-2.98,34.67
			c-0.12,1.48-0.3,3.65-0.52,6.34c-0.03,0-0.06,0-0.09,0c0-0.02,0-0.04,0-0.06c-0.76,0.01-2.04,0.02-3.79,0.03
			c-11.09-0.07-22.12-0.16-33.46-0.26c-0.01,0.16-0.02,0.32-0.03,0.48c-0.07,0-0.14,0-0.22,0c1.12-13.62,2.28-27.51,3.41-40.92
			c16.9-0.12,29.62-0.22,36.79-0.3c0,0,0,0,0,0.01C694.62,392.92,694.92,392.92,695.21,392.93z M684.52,473.71
			c-10.91-0.07-21.76-0.16-32.9-0.25c-0.01,0.16-0.02,0.31-0.03,0.47c-0.24,0-0.48,0-0.73,0c0.99-12.16,2.07-25.33,3.18-38.8
			c16.17-0.11,28.41-0.21,35.48-0.29c0.7,0,1.41,0.01,2.11,0.01c-0.75,9.32-1.93,24.21-3.09,38.87c-0.08,0-0.16,0-0.24,0
			c0-0.02,0-0.04,0-0.06C687.55,473.69,686.27,473.7,684.52,473.71z M649.86,473.94c-10.99,0.07-23.91,0.14-38.24,0.22
			c0.99-12.22,2.07-25.38,3.18-38.77c14.24-0.09,27.08-0.17,38.14-0.25C652.11,445.5,650.95,460.1,649.86,473.94z M610.6,474.17
			c-12.31,0.07-25.65,0.15-39.7,0.23c0.99-12.14,2.06-25.29,3.17-38.75c14.05-0.08,27.34-0.16,39.61-0.24
			C612.9,445.14,611.74,459.87,610.6,474.17z M569.9,474.4c-12.28,0.07-25.1,0.14-38.24,0.21c0.99-12.2,2.07-25.35,3.18-38.74
			c13.18-0.08,25.95-0.15,38.14-0.22C572.14,446.09,570.99,460.65,569.9,474.4z M530.65,474.62c-12.17,0.07-24.61,0.14-37.17,0.21
			c0.98-12.12,2.06-25.27,3.17-38.73c12.62-0.07,25.02-0.14,37.08-0.21C532.94,445.72,531.77,460.41,530.65,474.62z M492.48,474.83
			c-12.69,0.07-25.5,0.14-38.24,0.21c0.99-12.19,2.07-25.34,3.18-38.73c12.85-0.07,25.6-0.14,38.14-0.21
			C494.71,446.61,493.56,461.15,492.48,474.83z M453.22,475.05c-12.27,0.07-24.48,0.13-36.48,0.2c0.98-12.04,2.05-25.2,3.17-38.74
			c12.14-0.06,24.3-0.13,36.39-0.2C455.5,446.24,454.34,460.91,453.22,475.05z M415.75,475.25c-13.07,0.07-25.89,0.14-38.25,0.21
			c0.98-12.11,2.06-25.27,3.17-38.74c12.61-0.07,25.37-0.13,38.15-0.2C417.93,447.61,416.79,462.04,415.75,475.25z M376.49,475.47
			c-13.18,0.07-25.84,0.14-37.73,0.21c0.98-12.05,2.05-25.22,3.17-38.76c12.32-0.06,24.9-0.13,37.64-0.19
			C378.72,447.35,377.57,461.87,376.49,475.47z M337.76,475.68c-13.95,0.08-26.83,0.15-38.25,0.21c0.99-12.13,2.06-25.3,3.17-38.78
			c12.31-0.06,25.08-0.12,38.15-0.19C339.96,447.94,338.81,462.4,337.76,475.68z M298.51,475.89c-14.57,0.08-26.7,0.15-35.57,0.2
			c0.98-12.07,2.06-25.25,3.17-38.8c11.27-0.05,23.14-0.11,35.48-0.17C300.75,447.65,299.59,462.21,298.51,475.89z M261.94,476.1
			c-7.64,0.04-12.71,0.07-14.59,0.09c-7.89,0.06-15.78,0.1-23.67,0.14c0.99-12.15,2.07-25.35,3.18-38.86
			c11.63-0.05,24.43-0.11,38.15-0.18C264.14,448.33,262.99,462.81,261.94,476.1z M222.69,476.34c-12.32,0.07-24.65,0.12-36.97,0.16
			c0.99-12.14,2.07-25.34,3.18-38.87c10.16-0.04,22.61-0.09,36.87-0.16C224.93,448.04,223.77,462.63,222.69,476.34z M184.72,476.5
			c-12.74,0.04-25.49,0.06-38.23,0.06c0.99-12.2,2.07-25.39,3.18-38.84c4.75,0,9.5,0,14.28-0.01c4.72-0.01,12.9-0.03,23.86-0.07
			C186.95,448.34,185.79,462.91,184.72,476.5z M160.63,477.51c4.74-0.01,12.98-0.03,24.02-0.07c-0.46,5.78-0.9,11.36-1.29,16.37
			c-0.67,7.02-1.31,13.68-1.93,20.2c-12.65,0.04-25.31,0.06-37.96,0.06c0.81-10.16,1.82-22.7,2.95-36.54
			C151.13,477.52,155.86,477.52,160.63,477.51z M182.32,512.98c0.23,0,0.47-0.14,0.49-0.44c0.77-9.7,1.74-21.74,2.83-35.1
			c10.18-0.04,22.67-0.09,36.97-0.16c-0.48,6.06-0.94,11.92-1.36,17.16c-0.65,6.73-1.26,13.13-1.86,19.4
			c-12.39,0.07-24.78,0.12-37.17,0.16C182.26,513.65,182.29,513.32,182.32,512.98z M220.23,513.61c0.23,0,0.47-0.14,0.49-0.44
			c0.79-9.89,1.78-22.21,2.89-35.89c11.66-0.05,24.5-0.11,38.25-0.18c-0.4,5-0.78,9.81-1.12,14.19c-0.75,7.78-1.45,15.12-2.13,22.32
			c-7.18,0.04-11.95,0.07-13.76,0.08c-8.21,0.06-16.43,0.1-24.64,0.15C220.22,513.76,220.22,513.68,220.23,513.61z M259.72,510.45
			c0.23,0,0.47-0.14,0.49-0.44c0.73-9.17,1.64-20.43,2.65-32.92c11.3-0.05,23.2-0.11,35.57-0.17c-0.48,6.08-0.94,11.95-1.36,17.2
			c-0.64,6.69-1.25,13.05-1.84,19.28c-14.77,0.08-26.99,0.15-35.78,0.2C259.53,512.53,259.63,511.49,259.72,510.45z M296.04,513.29
			c0.23,0,0.47-0.14,0.49-0.44c0.79-9.9,1.78-22.24,2.89-35.94c12.34-0.06,25.14-0.13,38.25-0.19c-0.4,5.02-0.78,9.85-1.13,14.25
			c-0.74,7.74-1.44,15.04-2.12,22.21c-14.03,0.08-26.96,0.15-38.4,0.21C296.04,513.36,296.04,513.32,296.04,513.29z M335.53,510.13
			c0.23,0,0.47-0.14,0.49-0.44c0.73-9.18,1.64-20.46,2.65-32.98c12.35-0.06,24.96-0.13,37.73-0.19c-0.47,5.88-0.91,11.56-1.32,16.65
			c-0.66,6.87-1.29,13.4-1.89,19.79c-13.26,0.07-25.99,0.14-37.94,0.21C335.35,512.15,335.44,511.14,335.53,510.13z M374.07,512.34
			c0.23,0,0.47-0.14,0.49-0.44c0.78-9.77,1.76-21.91,2.85-35.39c12.65-0.07,25.43-0.13,38.25-0.2c-0.38,4.83-0.75,9.46-1.08,13.7
			c-0.76,7.94-1.48,15.4-2.17,22.74c-13.13,0.07-25.99,0.14-38.39,0.21C374.03,512.75,374.05,512.55,374.07,512.34z M413.56,509.18
			c0.23,0,0.47-0.14,0.49-0.44c0.72-9.05,1.61-20.14,2.61-32.43c12.17-0.06,24.36-0.13,36.48-0.2c-0.56,7.14-1.12,14.1-1.6,20.22
			c-0.54,5.6-1.05,10.97-1.55,16.22c-12.36,0.07-24.66,0.13-36.74,0.2C413.35,511.55,413.45,510.36,413.56,509.18z M454.15,476.11
			c12.88-0.07,25.67-0.14,38.25-0.21c-0.48,6.1-0.95,12.01-1.37,17.28c-0.64,6.65-1.25,12.97-1.83,19.16
			c-12.61,0.07-25.33,0.14-37.99,0.21C452.02,502.35,453.03,489.86,454.15,476.11z M490.49,511.9c0.79-9.92,1.79-22.28,2.9-36.01
			c12.65-0.07,25.08-0.14,37.17-0.21c-0.58,7.29-1.14,14.41-1.63,20.65c-0.52,5.44-1.03,10.67-1.51,15.79
			c-12.21,0.07-24.7,0.14-37.3,0.21C490.31,512.28,490.47,512.15,490.49,511.9z M531.57,475.68c13.22-0.08,26.02-0.15,38.25-0.22
			c-0.5,6.26-0.97,12.32-1.4,17.72c-0.62,6.49-1.22,12.68-1.79,18.73c-12.21,0.07-24.94,0.14-37.99,0.21
			C529.45,501.89,530.46,489.41,531.57,475.68z M570.82,475.45c14.09-0.08,27.41-0.17,39.7-0.24c-0.59,7.45-1.17,14.75-1.67,21.12
			c-0.51,5.29-1,10.37-1.47,15.34c-12.26,0.07-25.53,0.15-39.5,0.22C568.69,501.87,569.69,489.35,570.82,475.45z M611.53,475.2
			c14.28-0.09,27.16-0.17,38.25-0.25c-0.51,6.44-1,12.69-1.44,18.23c-0.59,6.18-1.16,12.08-1.71,17.85c-0.11,0-0.22,0-0.33,0
			c-0.01,0.14-0.02,0.28-0.03,0.41c-10.89,0.07-23.6,0.14-37.68,0.22C609.41,501.4,610.42,488.91,611.53,475.2z M650.78,474.94
			c16.15-0.11,28.37-0.21,35.43-0.29c0.75,0,1.51,0.01,2.26,0.01c-0.22,2.75-0.43,5.49-0.65,8.17c-0.98,10.2-1.87,19.46-2.72,28.34
			c-1.81,0.02-5.2,0.04-9.96,0.08c-9.01-0.06-18.04-0.14-27.27-0.22C648.67,501.04,649.67,488.65,650.78,474.94z M689.48,474.67
			c12.75,0.07,25.47,0.13,38.21,0.17c-0.13,1.65-0.26,3.29-0.39,4.91h0c-1.11,11.5-2.1,21.81-3.04,31.73
			c-4.38-0.01-8.77-0.01-13.15-0.03c-8.6-0.03-16.96-0.07-25.25-0.13C686.56,503.32,689.06,479.83,689.48,474.67z M713.87,473.86
			c-8.27-0.03-16.32-0.07-24.31-0.12c1-12.29,2.08-25.48,3.19-38.87c12.72,0.07,25.4,0.13,38.11,0.17
			c-0.81,10.11-1.97,24.8-3.09,38.85C723.13,473.88,718.5,473.88,713.87,473.86z M717.19,434.06c-8.29-0.03-16.36-0.07-24.36-0.12
			c1.14-13.73,2.3-27.65,3.43-41.01c12.74,0.07,25.43,0.13,38.15,0.17c-0.85,9.61-1.73,19.84-2.69,31.33
			c-0.17,2.05-0.44,5.41-0.78,9.66C726.35,434.08,721.77,434.08,717.19,434.06z M653.9,423.27c-0.19,2.24-0.49,6.05-0.88,10.87
			c-10.97,0.07-23.85,0.14-38.14,0.22c1.13-13.66,2.29-27.54,3.41-40.89c14.22-0.09,27.07-0.17,38.18-0.25
			C655.66,402.46,654.82,412.29,653.9,423.27z M614.41,426.43c-0.15,1.77-0.37,4.5-0.65,7.94c-12.28,0.07-25.59,0.15-39.6,0.23
			c1.12-13.59,2.28-27.47,3.41-40.88c14.06-0.08,27.37-0.16,39.67-0.24C616.35,403.56,615.43,414.29,614.41,426.43z M573.98,423.27
			c-0.19,2.31-0.51,6.29-0.92,11.33c-12.25,0.07-25.03,0.14-38.14,0.21c1.13-13.64,2.28-27.51,3.41-40.87
			c13.18-0.08,25.96-0.15,38.18-0.22C575.71,402.82,574.88,412.49,573.98,423.27z M534.49,426.43c-0.15,1.84-0.39,4.74-0.68,8.39
			c-12.14,0.07-24.55,0.14-37.07,0.2c1.12-13.58,2.28-27.45,3.4-40.86c12.64-0.07,25.05-0.14,37.14-0.21
			C536.4,403.9,535.49,414.48,534.49,426.43z M496.59,423.27c-0.2,2.38-0.53,6.52-0.95,11.76c-12.66,0.07-25.43,0.14-38.14,0.21
			c1.13-13.63,2.28-27.5,3.41-40.86c12.85-0.07,25.62-0.14,38.17-0.21C498.29,403.13,497.47,412.66,496.59,423.27z M457.1,426.43
			c-0.16,1.91-0.41,4.97-0.72,8.82c-12.24,0.07-24.42,0.13-36.39,0.2c1.11-13.52,2.27-27.38,3.4-40.86
			c12.16-0.06,24.34-0.13,36.45-0.2C458.98,404.2,458.08,414.65,457.1,426.43z M420.14,420.11c-0.24,2.9-0.69,8.41-1.24,15.34
			c-13.04,0.07-25.82,0.14-38.15,0.21c1.12-13.57,2.27-27.44,3.4-40.87c12.61-0.07,25.37-0.13,38.16-0.2
			C421.63,402.51,420.91,410.9,420.14,420.11z M380.66,423.27c-0.21,2.47-0.56,6.86-1,12.4c-13.15,0.07-25.77,0.14-37.64,0.21
			c1.12-13.53,2.27-27.41,3.4-40.88c12.32-0.06,24.92-0.13,37.67-0.19C382.32,403.57,381.52,412.91,380.66,423.27z M342.12,421.06
			c-0.24,2.82-0.66,8.13-1.2,14.82c-13.91,0.08-26.76,0.15-38.15,0.21c1.12-13.59,2.28-27.47,3.41-40.9
			c12.31-0.06,25.08-0.12,38.16-0.19C343.63,403.07,342.9,411.64,342.12,421.06z M302.63,424.22c-0.2,2.4-0.54,6.58-0.96,11.88
			c-14.53,0.08-26.63,0.15-35.48,0.2c1.12-13.55,2.27-27.44,3.41-40.93c11.27-0.05,23.16-0.11,35.52-0.17
			C304.33,404.13,303.51,413.64,302.63,424.22z M266.3,421.37c-0.24,2.84-0.67,8.19-1.21,14.92c-7.55,0.04-12.56,0.07-14.43,0.09
			c-7.91,0.06-15.82,0.1-23.72,0.14c1.12-13.62,2.28-27.53,3.41-40.99c11.62-0.05,24.42-0.11,38.16-0.18
			C267.82,403.43,267.09,411.98,266.3,421.37z M226.82,424.53c-0.2,2.41-0.54,6.65-0.97,12c-12.29,0.07-24.58,0.12-36.87,0.16
			c1.12-13.61,2.28-27.52,3.41-40.99c10.11-0.04,22.58-0.09,36.91-0.16C228.51,404.48,227.7,413.97,226.82,424.53z M188.91,423.9
			c-0.21,2.53-0.58,7.07-1.04,12.8c-12.71,0.04-25.42,0.06-38.13,0.06c1.13-13.66,2.29-27.56,3.42-40.98c5.08,0,10.16,0,15.28-0.01
			c4.58-0.01,12.41-0.03,22.88-0.07C190.56,404.41,189.76,413.65,188.91,423.9z M149.43,427.06c-0.17,2.06-0.45,5.44-0.79,9.7
			c-12.69,0-25.37-0.01-38.06-0.05c1.13-13.66,2.29-27.57,3.42-40.99c12.64,0.04,25.32,0.06,38.11,0.06
			C151.26,405.38,150.38,415.59,149.43,427.06z M148.56,437.72c-0.81,10.12-1.97,24.8-3.09,38.84c-12.72,0-25.44-0.01-38.16-0.05
			c0.99-12.21,2.07-25.4,3.18-38.85C123.13,437.7,135.79,437.72,148.56,437.72z M145.4,477.52c-0.54,6.87-1.07,13.55-1.54,19.44
			c-0.57,5.91-1.11,11.57-1.64,17.1c-12.64,0-25.29-0.01-37.93-0.05c0.81-10.17,1.82-22.7,2.95-36.54
			C119.9,477.51,132.6,477.52,145.4,477.52z M177.77,553.8c-12.72,0.04-25.44,0.06-38.16,0.06c1.13-13.35,2.22-26.16,3.23-37.73
			c0.23,0,0.47-0.14,0.49-0.44c0.02-0.22,0.04-0.45,0.05-0.68c4.9,0,9.8,0,14.74-0.01c4.63-0.01,12.57-0.03,23.21-0.07
			C180.11,527.76,178.97,540.12,177.77,553.8z M215.74,553.64c-12.3,0.07-24.61,0.12-36.91,0.16c1.15-13.7,2.28-26.91,3.32-38.87
			c10.17-0.04,22.73-0.09,37.16-0.16C218.09,527.64,216.95,540,215.74,553.64z M254.97,553.4c-7,0.04-11.65,0.07-13.44,0.08
			c-8.24,0.06-16.49,0.1-24.73,0.15c1.16-13.72,2.28-26.93,3.32-38.86c11.68-0.05,24.57-0.11,38.39-0.18
			C257.32,527.31,256.18,539.65,254.97,553.4z M291.57,553.2c-14.66,0.08-26.79,0.15-35.52,0.2c1.15-13.62,2.27-26.81,3.31-38.8
			c11.35-0.05,23.33-0.11,35.77-0.17C293.91,527.25,292.77,539.59,291.57,553.2z M330.79,552.98c-13.94,0.08-26.79,0.15-38.16,0.21
			c1.15-13.69,2.28-26.88,3.32-38.78c12.38-0.06,25.23-0.13,38.39-0.19C333.14,526.92,332,539.26,330.79,552.98z M369.55,552.77
			c-13.17,0.07-25.81,0.14-37.68,0.21c1.14-13.61,2.27-26.78,3.31-38.76c12.41-0.06,25.09-0.13,37.93-0.19
			C371.89,526.82,370.75,539.15,369.55,552.77z M408.77,552.56c-13.05,0.07-25.84,0.14-38.16,0.21c1.15-13.66,2.28-26.84,3.31-38.75
			c12.69-0.07,25.52-0.13,38.39-0.2C411.11,526.49,409.98,538.82,408.77,552.56z M446.31,552.35c-12.27,0.07-24.47,0.13-36.46,0.2
			c1.14-13.59,2.26-26.75,3.3-38.74c12.25-0.07,24.53-0.13,36.73-0.2C448.65,526.57,447.51,538.89,446.31,552.35z M485.53,552.14
			c-12.68,0.07-25.46,0.14-38.18,0.21c1.1-13.03,2.17-25.53,3.16-36.84c0.23,0,0.47-0.14,0.49-0.44c0.04-0.48,0.08-0.97,0.12-1.45
			c12.78-0.07,25.48-0.14,37.97-0.21C487.88,526.23,486.73,538.54,485.53,552.14z M523.74,551.93c-12.17,0.07-24.6,0.14-37.14,0.21
			c1.15-13.67,2.28-26.85,3.31-38.74c12.73-0.07,25.24-0.14,37.41-0.21C526.08,526.16,524.94,538.48,523.74,551.93z M562.97,551.71
			c-12.27,0.07-25.06,0.14-38.18,0.21c1.09-12.87,2.14-25.23,3.12-36.42c0.23,0,0.47-0.14,0.49-0.44c0.05-0.62,0.1-1.25,0.15-1.89
			c13.11-0.08,25.83-0.15,37.98-0.22C565.31,525.81,564.17,538.13,562.97,551.71z M603.7,551.47c-12.32,0.07-25.65,0.15-39.67,0.23
			c1.15-13.69,2.28-26.87,3.32-38.75c14.17-0.08,27.57-0.17,39.94-0.24C606.05,525.72,604.9,538.04,603.7,551.47z M642.93,551.24
			c-11.02,0.07-23.91,0.14-38.18,0.22c1.07-12.71,2.12-24.91,3.08-35.97c0.23,0,0.47-0.14,0.49-0.44c0.06-0.77,0.12-1.56,0.19-2.36
			c14.15-0.09,26.94-0.17,37.99-0.25C645.27,525.34,644.13,537.67,642.93,551.24z M681.41,550.99c-1.88,0.02-5.14,0.04-9.59,0.07
			c-9.19-0.07-18.39-0.14-27.8-0.22c1.15-13.58,2.26-26.64,3.29-38.4c12.73-0.09,23.09-0.17,30.48-0.23
			c2.4,0.02,4.82,0.03,7.21,0.05C683.75,525.33,682.6,537.64,681.41,550.99z M720.59,551.29c-4.27-0.01-8.53-0.01-12.8-0.03
			c-8.62-0.03-16.99-0.07-25.31-0.13c0.01-0.05-0.01-0.1,0.01-0.16c-0.01,0-0.03,0-0.04,0c1.17-13.82,2.3-27.01,3.33-38.72
			c12.82,0.08,25.6,0.13,38.4,0.17C722.94,525.4,721.79,537.75,720.59,551.29z M759.75,551.34c-12.7,0-25.41-0.01-38.11-0.05
			c1.16-13.78,2.29-27,3.33-38.85c12.73,0.04,25.49,0.06,38.37,0.06C762.1,525.45,760.95,537.8,759.75,551.34z M766.47,479.75
			L766.47,479.75c-1.11,11.53-2.11,21.85-3.05,31.79c-12.79,0-25.58-0.01-38.37-0.05c0.79-9.01,3.3-32.38,3.65-36.64
			c12.66,0.04,25.36,0.05,38.16,0.05C766.73,476.53,766.6,478.15,766.47,479.75z M766.93,473.94c-12.72,0-25.44-0.01-38.16-0.05
			c0.99-12.21,2.07-25.4,3.18-38.85c12.63,0.04,25.29,0.05,38.06,0.05C769.21,445.22,768.04,459.9,766.93,473.94z M770.88,424.44
			c-0.17,2.06-0.45,5.44-0.79,9.7c-12.69,0-25.37-0.01-38.06-0.05c1.13-13.66,2.29-27.57,3.42-40.99
			c12.64,0.04,25.32,0.06,38.11,0.06C772.72,402.76,771.84,412.97,770.88,424.44z M738.87,353.31c12.73,0.04,25.49,0.06,38.37,0.06
			c-1.23,12.96-2.38,25.3-3.58,38.84c-12.7,0-25.41-0.01-38.11-0.05C736.7,378.38,737.83,365.16,738.87,353.31z M699.67,353.13
			c12.82,0.08,25.6,0.13,38.4,0.17c-1.23,12.96-2.38,25.31-3.58,38.85c-4.27-0.01-8.53-0.01-12.8-0.03
			c-8.63-0.03-17.03-0.07-25.36-0.13C697.5,378.12,698.64,364.88,699.67,353.13z M660.94,353.41c17.53-0.12,30.57-0.23,37.54-0.3
			c0,0.01,0,0.01,0,0.02c0.14,0,0.28,0,0.41,0c-1.25,13.11-2.4,25.44-3.6,38.82c-4.5,0.05-18.02,0.13-37.68,0.25
			C658.78,378.48,659.91,365.28,660.94,353.41z M621.71,353.67c14.33-0.09,27.27-0.18,38.42-0.25c-1.22,12.89-2.37,25.22-3.57,38.8
			c-11.02,0.07-23.91,0.14-38.18,0.22C619.55,378.65,620.68,365.45,621.71,353.67z M580.98,353.92c14.17-0.08,27.57-0.17,39.94-0.24
			c-1.24,13.01-2.39,25.33-3.58,38.77c-12.32,0.07-25.65,0.15-39.67,0.23C578.82,378.97,579.94,365.79,580.98,353.92z
			 M541.75,354.14c13.27-0.08,26.13-0.15,38.42-0.22c-1.22,12.85-2.36,25.17-3.56,38.75c-12.27,0.07-25.06,0.14-38.18,0.21
			C539.59,379.12,540.72,365.93,541.75,354.14z M503.55,354.36c12.73-0.07,25.24-0.14,37.41-0.21c-1.24,12.98-2.38,25.3-3.58,38.74
			c-12.17,0.07-24.6,0.14-37.14,0.21C501.39,379.42,502.51,366.25,503.55,354.36z M464.32,354.58c12.93-0.07,25.78-0.14,38.41-0.21
			c-1.22,12.83-2.36,25.14-3.56,38.74c-12.68,0.07-25.46,0.14-38.18,0.21C462.16,379.56,463.28,366.38,464.32,354.58z
			 M426.79,354.78c12.25-0.07,24.53-0.13,36.73-0.2c-1.23,12.96-2.38,25.27-3.58,38.74c-12.27,0.07-24.47,0.13-36.46,0.2
			C424.63,379.93,425.75,366.77,426.79,354.78z M387.56,354.98c12.69-0.07,25.52-0.13,38.39-0.2c-1.2,12.67-2.33,25-3.53,38.74
			c-13.05,0.07-25.84,0.14-38.16,0.21C385.4,380.07,386.52,366.89,387.56,354.98z M348.81,355.18c12.41-0.06,25.09-0.13,37.93-0.19
			c-1.21,12.8-2.35,25.13-3.55,38.75c-13.17,0.07-25.81,0.14-37.68,0.21C346.65,380.34,347.77,367.16,348.81,355.18z M309.58,355.38
			c12.38-0.06,25.23-0.13,38.39-0.19c-1.2,12.7-2.33,25.03-3.54,38.76c-13.94,0.08-26.79,0.15-38.16,0.21
			C307.42,380.47,308.55,367.28,309.58,355.38z M272.99,355.56c11.35-0.05,23.33-0.11,35.77-0.17c-1.22,12.84-2.36,25.17-3.56,38.78
			c-14.66,0.08-26.79,0.15-35.52,0.2C270.83,380.74,271.95,367.55,272.99,355.56z M233.77,355.74c11.68-0.05,24.57-0.11,38.39-0.18
			c-1.2,12.71-2.34,25.06-3.54,38.81c-7,0.04-11.65,0.07-13.44,0.08c-8.24,0.06-16.49,0.1-24.73,0.15
			C231.6,380.88,232.73,367.67,233.77,355.74z M195.79,355.9c10.17-0.04,22.73-0.09,37.16-0.16c-1.22,12.86-2.36,25.22-3.57,38.86
			c-12.3,0.07-24.61,0.12-36.91,0.16C193.62,381.07,194.75,367.85,195.79,355.9z M156.57,355.98c5.05,0,10.1,0,15.19-0.01
			c4.63-0.01,12.57-0.03,23.21-0.07c-1.21,12.82-2.36,25.19-3.56,38.87c-12.72,0.04-25.44,0.06-38.16,0.06
			C154.41,381.06,155.54,367.84,156.57,355.98z M117.41,355.93c12.73,0.04,25.49,0.06,38.37,0.06c-1.23,12.96-2.38,25.3-3.58,38.84
			c-12.7,0-25.41-0.01-38.11-0.05C115.24,381,116.37,367.78,117.41,355.93z M78.21,355.75c12.82,0.08,25.6,0.13,38.4,0.17
			c-1.23,12.97-2.38,25.31-3.58,38.85c-4.27-0.01-8.53-0.01-12.8-0.03c-8.63-0.03-17.03-0.07-25.36-0.13
			C76.05,380.75,77.18,367.51,78.21,355.75z M74.79,395.55c12.74,0.07,25.43,0.13,38.15,0.17c-0.85,9.61-1.73,19.84-2.69,31.33
			c-0.17,2.05-0.44,5.41-0.78,9.66c-4.58-0.01-9.16-0.01-13.74-0.03c-8.29-0.03-16.36-0.07-24.36-0.12
			C72.5,422.83,73.66,408.91,74.79,395.55z M71.29,437.49c12.72,0.07,25.4,0.13,38.11,0.17c-0.81,10.11-1.97,24.8-3.09,38.85
			c-4.63-0.01-9.27-0.01-13.9-0.03c-8.27-0.03-16.32-0.07-24.31-0.12C69.1,464.08,70.18,450.89,71.29,437.49z M67.49,483.89
			c0.08-0.58,0.16-1.05,0.24-1.57c-0.04,0-0.07,0-0.11,0c0.13-1.65,0.27-3.32,0.41-5.02c12.75,0.07,25.47,0.13,38.21,0.17
			c-0.54,6.89-1.07,13.59-1.54,19.5c-0.57,5.89-1.11,11.53-1.63,17.05c-4.38-0.01-8.77-0.01-13.15-0.03
			c-8.45-0.03-16.68-0.07-24.84-0.12C65.77,505.17,66.59,494.99,67.49,483.89z M64.18,519.29c0.23,0,0.47-0.14,0.49-0.44
			c0.1-1.31,0.21-2.67,0.32-4.06c12.68,0.07,25.31,0.13,37.97,0.17c-1.23,12.96-2.38,25.31-3.58,38.85
			c-4.27-0.01-8.53-0.01-12.8-0.03c-8.63-0.03-17.03-0.07-25.36-0.13C62.26,541.53,63.26,529.88,64.18,519.29z"/>
	</g>
	<g>
		<path class="st16" d="M102.52,383.48c-2.56,2-4.49,3.53-7.01,5.91s-10.96,5.81-10.13,10.07c0.83,4.26,5.7-5.12,8.19,0.06
			c2.49,5.18-6.05,19.89-2.86,24.81c3.19,4.92,4.59-14.86,8.06-13.04c3.46,1.83-6.72,16.7-1.54,17.79s3.22-16.48,7.66-16.51
			c4.44-0.03-3.17,14.54,1.31,13.88c4.48-0.67,0.75-13.75,4.76-14.47c4.01-0.72-1.23,10.19,3.22,6.05
			c2.98-2.77,3.73-13.53,4.3-18.41c0.58-4.88,0.51-9.83,0.07-14.68C113.22,384.41,107.84,383.98,102.52,383.48z"/>
		<path class="st16" d="M319.56,239.65c5.12-11.55,9.65-20.51,13.29-32.9c1.52-5.17,2.73-11.57,4.5-18.17
			c1.46-5.47,5.12-15.2,5.67-21.29c0.34-3.78-1.25,1.11-2.39-2.25c-1-2.93-4.19-9.24-8.16-7.32c-1.78,0.85-2.73-0.12-3.63,1.39
			c-5.5,9.24-12.27,31.37-17.41,37.87c-9.21,11.65-14.82,28.54-8.62,36.9C309.96,243.53,311.81,236.69,319.56,239.65z"/>
		<path class="st16" d="M231.42,224.97c8.08,0.69,21.92,8.17,25.49,18.63c1.88,5.52,3.41,12.53,3.51,18.96
			c0.11,7.01,0.89,14.28,1.07,21.62c0.18,7.34,0.2,15.27-1.53,22.61c-0.7,2.98-2.47,5.79-2.87,8.81c-0.25,1.89,0.18,4.36,0.18,6.11
			c0.01,11.97,0.26,27.54-0.79,38.34c-0.64,6.53-1.98,12.03-5.4,15.25c-15.17,14.27-75.34,17.32-89.59-0.23
			c-2.08-2.56-5.62-10.73-5.02-17.99c0.9-10.98,1.66-29.38,4.34-41.56c-7.15-24.48-0.96-47.18,1.19-71.74
			c9.54-9.36,20.37-19.41,33.89-20.84C209.41,221.52,216.73,223.71,231.42,224.97z"/>
		<path class="st17" d="M169.39,377.46c0.96,8.22-5.91,18.48,1.24,30.27c6.41,10.56,29.27,17.09,45.82,13.5
			c7.79-1.69,31.37-8.99,30.94-21.68c-0.72-21.1,1.48-33.64-19.86-42.6c-16.89-7.09-34.19-5-51.28,2.91
			C171.85,361.9,168.43,369.24,169.39,377.46z"/>
		<path class="st17" d="M226.7,410.49c23.81,15.38,31.45,59.33,39.38,75.71c13.2,27.26,7.64,18.27,0.23,34.12
			c-7.41,15.85-14.6,3.95-24.02-0.8c-14.88-7.51-37.74-60.42-42.59-68.01C181.62,423.23,221.33,407.02,226.7,410.49z"/>
		<path class="st16" d="M240.48,554.73c2.9,12.99,6.45,24.44,8.81,37.8c1.64,9.29-0.16,18.56,3.78,29.27
			c0.04,0.11,11.59,7.85,12.83-1.35c0.16-1.18,1.83-4.49,2.29-6.32c0.94-3.75,3.1-6.83,3.85-10.81c1.73-9.17,3.95-18.71,4.7-28.13
			c1.5-18.83,2.48-37.88-0.09-56.56c-1.4-10.19-7.58-14.64-17.69-14.62c-8.92,0.02-15.11,5.66-19.74,12.99
			c-0.52,0.83-0.87,1.82-1.14,2.76c-0.53,1.8-0.75,3.71-0.67,5.59c0.45,10.4,1.63,20.61,3.45,30.86c1.75,9.86,5.61,18.83,7.86,28.67
			c2,8.75,2.32,17.56,2.76,26.78c0.18,3.7-0.78,8.98,1.5,12.4c1.88,2.82,5.46,3.45,8.29,2.13c3.86-1.8,5.09-5.57,6.25-9.23
			c2.07-6.57,3.01-12.92,3.97-19.67c0.66-4.58,1.91-9.21,2.36-13.85"/>
		<path class="st16" d="M162.73,406.53c-14.95,24.76,1.78,67.06,3.39,85.28c2.67,30.32,3.23,19.75,17.5,30.18s14.8-3.02,20.54-11.94
			c9.06-14.09,1.81-70.28,2.42-79.19C208.83,397.65,166.1,400.94,162.73,406.53z"/>
		<path class="st16" d="M201.11,514.16c7.41,13.47,5.54,27.75,3.81,42.15c-2.19,18.22-6.58,33.11-10.11,51.74
			c-1.94,10.28-2.74,25.25-17.72,24.09c-6.31-0.49-4-8.42-4.11-12.84c-0.25-9.88-0.56-19.79-1.34-29.72
			c-0.56-7.08-1.56-13.85-2.44-21.11c-0.56-4.6-0.11-8.43-1.05-13.65c-3.55-19.57-8.31-40.33,14.22-48.51
			C191.39,503.02,197.37,507.35,201.11,514.16z"/>
		<path class="st18" d="M250.94,376.05c-29.67,1.14-59.14,2.76-88.76-0.3c-2.78,10.54-4.17,20.7-3.6,31.61
			c16.67,1.26,30.81,6.5,45.36,14.56c1.55-0.03,3.09-0.06,4.64-0.09c14.39-7.86,28.3-14.83,44.6-17.57
			C253.48,394.71,252.46,385.47,250.94,376.05z"/>
		<path class="st19" d="M152.9,433.27c0.25,13.32,3.11,23.72,4.54,36.33c1.43,12.6,2.49,25.43,3.98,38.13
			c0.36,3.09,0.66,6.29,2.87,8.72c2.64,2.9,6.43,3.52,10.16,3.88c7.5,0.73,14.75,1.92,22.25,2.29c2.36,0.11,4.8,0.09,6.98-1.05
			c2.91-1.51,4.45-4.18,5.26-7.27s0.27-6.35,0.34-9.38c0.29-13.47,4.14-25.68,5.48-39.13c0.52-5.17,1.92-10.16,1.46-15.97
			c-0.34-4.39-4.84-10.38-5.97-14.8c-3.34-13.06-9.53-19.26-22.16-23.87c-9.78-3.57-20.36-3.66-29.52,1.51
			c-2.04,1.15-2.92,0.4-3.68,2.69C153.33,420.03,152.82,429.04,152.9,433.27z"/>
		<path class="st19" d="M256.66,375.46c0.46,10.43,4.85,34.14,3.07,42.53c-5.98,28.08-93.71,27.46-102.88,7.3
			c-6.87-15.11,3.11-33.79,2.63-49.39C192.12,375.64,224.14,374.99,256.66,375.46z"/>
		<path class="st19" d="M255.46,415.73c1.96,1.5,2.49,3.49,3.16,5.86c8,28.05,11.94,57.11,17.77,85.74c0.3,1.49,0.68,3.02-0.3,4.49
			c-0.98,1.47-2.84,1.97-4.64,2.27c-10.97,1.81-21.95,3.74-32.97,5.45c-1.51,0.24-3.06,0.64-4.42-0.5
			c-2.42-2.03-2.64-6.16-3.68-8.81c-1.26-3.22-2.67-5.89-4.03-8.78c-3.38-7.18-9.3-11.84-12.44-19.27
			c-4.48-10.64-16.53-18.3-18.47-30.2C191.26,426.32,234.45,399.64,255.46,415.73z"/>
		<g>
			<path class="st16" d="M226.57,251.73c10.99-10.44,21.73-15.3,37.28-20.71c10.27-3.57,24.49-12.29,37.31-11.9
				c12.81,0.39,27.65,1.64,13.15,21.87c-2.51,3.51-36,19.2-49.32,22.55C251.66,266.89,226.24,279.62,226.57,251.73z"/>
		</g>
		<g>
			<g>
				<path class="st20" d="M219.69,247.87c1.12-2.59,2.51-3.86,4.85-5.45c6.77-4.6,8.52-10.21,17.3-13.47
					c9.15-3.39,23.08-4.82,33.11-8.15c0.91-0.3,1.71-0.64,2.61-0.48c0.9,0.16,1.57,0.78,2.2,1.4c2.89,2.9,5.75,5.77,8.6,8.72
					c1.93,2,3.57,4.01,4.32,6.73c0.3,1.07,0.18,2.1,0.52,3.17c0.45,1.41,1.74,2.13,2.25,3.6c1.44,4.14,0.93,7.59-2.34,10.9
					c-3.69,3.74-8.64,7.01-13.38,9.35c-4.1,2.02-9.49,5.08-13.4,6.07c-7.63,1.94-12.3,1.83-20.13,2.7
					c-10.26,1.14-18.86-5.11-24.08-13.9c-1.98-3.33-2.06-6.16-2.57-9.65C219.47,248.81,219.49,248.34,219.69,247.87z"/>
			</g>
		</g>
		<g>
			<path class="st21" d="M154.65,297.34c-0.32,28.21-4.86,56.14-5.35,84.34c-0.01,0.41,0.08,1.09,0.09,1.37
				c0.1,16.6-4.88,33.38,6.25,47.27"/>
		</g>
		<g>
			<g>
				<g>
					<g>
						<path class="st16" d="M230.94,210.41c-0.97,7.49-1.58,14.93-1.77,22.48c-12.97,3.5-24.5,3.86-37.25-0.64
							c1.05-8.64,2.01-17.18,3.68-25.72C207.39,207.77,219.17,208.99,230.94,210.41z"/>
					</g>
				</g>
			</g>
		</g>
		<path class="st22" d="M201.19,219.89c0.34,1.54,1.1,2.78,2.37,3.61c1.54,1.01,3.39,1.3,5.05,1.62c1.67,0.32,3.02,0.44,4.63,0.65
			c0.64,0.08,1.1-0.01,1.79,0c0.69,0.01,1.44,0.34,2.21,0.21c2.09-0.36,4.17-0.85,6.23-1.52c2.42-0.79,4.23-1.87,5.48-4.22
			c0.64-1.21,1.46-3.03,0.45-4.32c-1.42-1.82-3.91-1.9-6.01-1.49c-0.53,0.1-0.84,0.5-1.32,0.64c-0.93,0.27-1.94,0.34-2.87,0.48
			c-1.89,0.28-3.69,0.76-5.56,0.98c-3.14,0.37-6.29,0.17-9.42,0.09c-0.78-0.02-1.61,0.11-2.18,0.54c-0.57,0.43-0.73,1.22-0.84,1.7
			C201.09,219.34,201.12,219.57,201.19,219.89z"/>
		<g>
			<g>
				<path class="st19" d="M356.01,625.19c0.19-0.19,0.37-0.37,0.56-0.56c0.34-0.34-0.19-0.86-0.52-0.52
					c-0.19,0.19-0.37,0.37-0.56,0.56C355.15,625,355.67,625.52,356.01,625.19L356.01,625.19z"/>
			</g>
		</g>
		<g>
			<g>
				<path class="st23" d="M212.04,414.51c0.19,8.62-1.35,16.66-4.77,24.57c-0.16,0.36,0.38,0.68,0.54,0.31
					c3.47-8.02,5.05-16.16,4.86-24.88C212.65,414.11,212.03,414.1,212.04,414.51L212.04,414.51z"/>
			</g>
		</g>
		<g>
			<g>
				<path class="st23" d="M172.8,403.33c-2.23,9.83-6.54,18.31-13.2,25.87c-0.26,0.3,0.17,0.74,0.44,0.44
					c6.74-7.64,11.11-16.21,13.36-26.14C173.49,403.1,172.89,402.93,172.8,403.33L172.8,403.33z"/>
			</g>
		</g>
		<g>
			<g>
				<path class="st23" d="M231.81,403.09c3.6,14.39,10.34,26.98,20.17,38.08c0.27,0.3,0.7-0.14,0.44-0.44
					c-9.77-11.03-16.43-23.51-20.01-37.81C232.32,402.54,231.72,402.7,231.81,403.09L231.81,403.09z"/>
			</g>
		</g>
		<path class="st24" d="M245.12,226.63c-1.76,0.16-2.63-0.37-4.56,1.27c-7.17,6.07-18.33,8.57-27.21,8.5
			c-11.9-0.09-20.85-2.49-28.83-9.92c-2.23-2.08-1.34-1.46-3.01-1.12c-5.63,1.13-8.84,3.64-14.63,4.95
			c-3.97,0.9-10.38,7.68-11.96,10.5c-2.2,3.93,1.2,11.8,1.21,12.97c0.1,10.58-1.31,18.3-2.01,27.42
			c-1.43,18.72-2.36,36.77-3.91,55.34c-0.62,7.4-0.84,14.98-0.8,22.36c0.02,5.17,0.37,10.37,0.26,15.4
			c-0.14,6.01-0.94,12.07-1.36,17.89c-0.7,9.62-1.21,20.3,1.3,29.16c2.1,7.41,6.28,7.81,12.11,10.8c3.03,1.55,6.3,1.6,9.53,1.6
			c4.82,0.01,8.07,0.37,12.9,1.84c2.83,0.86,5.93,2.86,9.41,3.19c14.95,1.42,27.16-5.62,42.52-6.48c8.13-0.45,19.28,5.87,26.28-2.07
			c1.56-1.77,1.48-3.99,1.75-6.19c1.18-9.57,1.95-18.91,1.38-28.59c-0.36-6.05-1.87-11.92-2.19-18.08
			c-0.63-12.21,1.18-24.18,1.45-36.51c0.23-10.14-1.35-20.63-1.54-30.85c-0.2-10.64,1.66-21.32,2.68-31.81
			c0.94-9.63,0.97-19.24-0.08-28.64c-0.62-5.5-0.76-8.38-3.98-13.34c-2.16-3.32-6.15-7.39-10.64-8.8
			C249.51,226.87,247.27,226.44,245.12,226.63z"/>
		<g>
			<g>
				<path class="st23" d="M198.11,508.7c-8.06,5.16-16.42,7.32-25.97,6.84c-0.4-0.02-0.4,0.6,0,0.62
					c9.64,0.48,18.14-1.72,26.28-6.92C198.76,509.02,198.45,508.49,198.11,508.7L198.11,508.7z"/>
			</g>
		</g>
		<g>
			<g>
				<path class="st23" d="M178.44,513.81c-2.77-0.23-5.45-0.77-8.09-1.63c-0.38-0.12-0.54,0.48-0.17,0.6
					c2.7,0.87,5.43,1.42,8.25,1.65C178.84,514.47,178.84,513.84,178.44,513.81L178.44,513.81z"/>
			</g>
		</g>
		<g>
			<g>
				<path class="st25" d="M247.09,259.17c-9.28,7.96-22.02,10.03-32,17.08c-8.98,6.35-16.23,14.71-23.57,22.8
					c-0.27,0.3,0.17,0.74,0.44,0.44c8.02-8.84,15.95-18.02,26.11-24.5c9.41-6,20.89-8.04,29.46-15.39
					C247.83,259.34,247.39,258.91,247.09,259.17L247.09,259.17z"/>
			</g>
		</g>
		<g>
			<g>
				<path class="st25" d="M207.18,288.87c-2.03,1.77-3.82,3.74-5.38,5.94c-0.23,0.33,0.31,0.64,0.54,0.31
					c1.52-2.16,3.29-4.08,5.28-5.82C207.92,289.04,207.48,288.6,207.18,288.87L207.18,288.87z"/>
			</g>
		</g>
		<g>
			<g>
				<path class="st25" d="M211.17,375.18c8.98-0.51,17.92,0.03,26.62,2.42c2.84,0.78,10.86,2.42,12.7,4.71
					c2.49,0.53,2.36,1.79-0.39,3.76c-1.16,0.4-2.33,0.77-3.51,1.1c-2.04,0.59-4.11,1.07-6.19,1.49c-17.59,3.52-35.72,1.7-53.38,4.77
					c-0.39,0.07-0.23,0.67,0.17,0.6c11.99-2.09,24.12-1.98,36.23-2.73c5.15-0.32,10.29-0.8,15.38-1.71
					c2.68-0.48,5.35-1.08,7.97-1.83c1.59-0.45,5.25-0.88,6.35-2.42c2.68-3.74-9.12-6.43-11.18-7.12c-9.98-3.34-20.3-4.26-30.77-3.66
					C210.77,374.58,210.77,375.2,211.17,375.18L211.17,375.18z"/>
			</g>
		</g>
		<g>
			<g>
				<path class="st25" d="M234.85,387.57c-5.01-0.3-9.97-0.13-14.95,0.5c-0.39,0.05-0.4,0.67,0,0.62c4.98-0.63,9.94-0.79,14.95-0.5
					C235.25,388.22,235.25,387.6,234.85,387.57L234.85,387.57z"/>
			</g>
		</g>
		<g>
			<g>
				<path class="st25" d="M250.82,391.83c-6.38,3.42-13,6.01-20.2,6.98c-6.25,0.84-12.57,0.2-18.74,1.71
					c-0.39,0.1-0.22,0.69,0.17,0.6c6.95-1.7,14.16-0.78,21.18-2.08c6.35-1.18,12.24-3.63,17.9-6.67
					C251.49,392.18,251.18,391.64,250.82,391.83L250.82,391.83z"/>
			</g>
		</g>
		<g>
			<g>
				<path class="st25" d="M206.53,411.09c-9.7,3.5-18.9,5.03-29.17,3.18c-7.86-1.42-15.41-3.4-23.47-2.94c-0.4,0.02-0.4,0.64,0,0.62
					c9.53-0.54,18.39,2.52,27.74,3.63c8.69,1.02,16.92-0.95,25.06-3.88C207.07,411.56,206.91,410.95,206.53,411.09L206.53,411.09z"
					/>
			</g>
		</g>
		<g>
			<g>
				<path class="st25" d="M174.6,419.54c-1.86-0.51-3.73-1.01-5.59-1.52c-0.39-0.11-0.55,0.49-0.17,0.6
					c1.86,0.51,3.73,1.01,5.59,1.52C174.82,420.25,174.98,419.65,174.6,419.54L174.6,419.54z"/>
			</g>
		</g>
		<g>
			<g>
				<path class="st25" d="M157.5,324.23c11.95,7.69,24.85,12.19,38.96,13.81c0.4,0.05,0.39-0.58,0-0.62
					c-13.98-1.61-26.8-6.1-38.65-13.72C157.48,323.48,157.17,324.02,157.5,324.23L157.5,324.23z"/>
			</g>
		</g>
		<g>
			<g>
				<path class="st25" d="M170.26,337.83c3.42,0.64,6.49,1.95,9.35,3.94c0.33,0.23,0.64-0.31,0.31-0.54c-2.91-2.02-6.01-3.35-9.5-4
					C170.03,337.16,169.87,337.76,170.26,337.83L170.26,337.83z"/>
			</g>
		</g>
		<g>
			<g>
				<path class="st25" d="M255.95,302.75c-7.75,8.72-22.2,9.82-32.94,12.59c-0.39,0.1-0.22,0.7,0.17,0.6
					c10.93-2.82,25.29-3.82,33.22-12.75C256.66,302.89,256.22,302.45,255.95,302.75L255.95,302.75z"/>
			</g>
		</g>
		<path class="st16" d="M227.79,136.84c-6.81-0.94-13.15-0.88-19.58,1.9c-5,2.16-8.33,6.05-11.4,10.44
			c-1.3,1.86-1.96,4.14-2.85,6.19c-0.38,0.89-0.62,1.95-0.87,2.8c-0.26,0.85-0.02,1.64-0.58,2.27c-0.56,0.64-1.78-1.22-2.01-0.27
			c-0.84,3.41-0.85,7.18-0.13,10.52c0.17,0.79,0.38,0.84,0.5,1.42c0.29,1.32-0.1,2.05-0.21,3.34c-0.88,10.34-6.46,15.9-2.23,27.25
			c3.28,8.8,13.25,17.37,24.2,18.62c3.41,0.39,9.49,0.48,13.42,0.14c15.21-1.3,18.79-12.98,19.93-19.62
			c0.9-5.26,0.43-9.95,1.45-14.95c0.87-4.22,5-7.93,6.23-12.05c0.58-1.94,1.12-4.16,1.04-6.31c-0.11-3.04-1.22-6.02-1.89-8.98
			c-0.39-1.73-0.22-3.28-0.75-5.05c-0.53-1.77-1.13-3.79-2.28-5.39c-2.33-3.24-5.05-6.04-8.64-7.87
			C236.88,139.06,232.54,137.49,227.79,136.84z"/>
		<path class="st12" d="M190.69,156.9c0.53-1.97,1.01-3.89,1.78-5.77c0.97-2.38,1.88-4.89,3.35-6.99c1.77-2.55,3.7-4.78,6.19-6.59
			c2.94-2.14,6.11-3.52,9.63-4.33c4.54-1.05,8.93-0.98,13.53-0.48c1.61,0.17,3.16,0.4,4.73,0.91c5.41,1.77,10.52,3.31,15.14,6.95
			c4.92,3.88,8.12,8.8,9.89,14.9c0.84,2.88,0.53,4.69,0.61,8.24c0.03,1.54,0.18,9.39-2.78,9.99c-0.67,0.14-0.55-0.6-0.6-1.05
			c-0.15-1.39,0.29-2.76,0.37-4.2c0.08-1.44-0.17-2.78-1.24-3.83c-0.59-0.58-1.44-0.61-1.99-1.26c-0.88-1.04-0.88-2.19-0.67-3.51
			c0.2-1.32,0.81-2.36,0.62-3.8c-0.19-1.43-1.08-2.78-2.33-3.64c-1.26-0.86-2.67-1.34-4.14-1.76c-5.59-1.56-11.19-2.79-16.93-3.86
			c-3.83-0.72-7.68-1.67-11.61-1.76c-0.87-0.02-1.75,0.16-2.51,0.58c-0.76,0.42-1.26,1.08-1.73,1.77c-1.11,1.62-1.97,3.31-2.79,5.09
			c-0.25,0.54-0.49,1.04-1.08,1.27c-0.23,0.09-0.42-0.01-0.67-0.02c-2.14-0.1-3.99-1.29-6.05,0.01c-2.06,1.3-2.08,3.41-3.19,5.95
			c-0.08,0.18-2.28,3.1-3.71,1.65c-0.31-0.31-1.83,0.13-2.13-0.87c-0.12-0.39-0.07-1.98,0.07-2.46
			C190.58,157.57,190.59,157.26,190.69,156.9z"/>
		<path class="st12" d="M250.28,172.34c-0.25-1.29-1.64-1.36-2.61-1.8c-0.07-0.03-0.15-0.08-0.24-0.09
			c-5.25-0.73-9.64-0.51-13.88,2.94c-1.15,0.94-1.32,2.76,0.84,2.91c4.69,0.33,11.3,0.41,15.47-1.95
			C251.35,173.5,250.45,173.21,250.28,172.34z"/>
		<path class="st12" d="M220.51,170.11c0.31-1.32-0.93-1.93-1.64-2.75c-0.05-0.06-0.1-0.14-0.18-0.19
			c-4.53-2.74-8.66-4.29-13.91-2.71c-1.43,0.43-2.21,2.12-0.33,3.14c4.1,2.21,10.09,4.95,14.83,4.27
			C220.96,171.63,220.3,171,220.51,170.11z"/>
		<path class="st26" d="M190.8,158.19c-0.21,0.55-0.4,1.1-0.48,1.7c-0.44,3.32-0.51,6.56-0.12,9.88c0.07,0.62,0.23,1.25,0.85,1.49
			c0.62,0.25,1.14-0.15,1.48-0.66c0.33-0.51,0.42-1.13,0.6-1.7c0.32-1.02,0.87-1.95,1.26-2.94c1.06-2.67,1.69-5.43,2.47-8.19
			c0.14-0.5,0.34-0.97,0.14-1.52c-0.2-0.55-0.76-0.94-1.39-0.95c-0.63-0.01-1.21,0.17-1.77,0.5c-1.29,0.75-2.27,1.73-3.17,2.91"/>
		<path class="st26" d="M255.08,170.25c-0.47,2.39-0.89,4.66-2.59,6.53c-0.57-0.69-0.53-1.42-0.35-2.25
			c0.29-1.34,0.59-2.56,0.91-3.9c0.32-1.34,0.72-2.65,1.5-3.82c0.07-0.1,0.18-0.18,0.29-0.16c0.1,0.02,0.15,0.07,0.18,0.16
			C255.44,168.03,255.33,168.97,255.08,170.25z"/>
		<path class="st52" d="M218.28,186.35c-1.27,0.35-2.35,1.19-2.14,2.64c0.21,1.45,1.48,1.81,2.77,1.66
			c0.94,2.37,2.36,3.67,4.92,4.02c0.92,0.12,1.69-0.18,2.44-0.68c0.75-0.51,0.98-1.29,0.96-2.16c1.08,0.19,2.16,0.25,3.07-0.46
			c0.9-0.71,1.36-1.66,0.98-2.78c-0.38-1.12-1.45-1.38-2.52-1.22c0.51-3.6,0.89-7.23,1.41-10.83"/>
		<path class="st16" d="M182.87,182.12c1.15,2.52,5.8,9.4,9.64,5.35c1.97-2.08,0.28-4.67-0.32-6.99c-0.17-0.68-0.48-1.2-0.59-1.82
			c1.18,1.5,3.46,0.79,2.89-1.65c-0.91-3.91-2.52-12.89-8.8-9.63C180.61,170.03,180.27,176.42,182.87,182.12z"/>
		<g>
			<g>
				<path class="st28" d="M186.33,172.73c1.37,2.72,1.7,5.23,1.6,8.24c-0.01,0.31,0.46,0.31,0.47,0c0.05-1.25-0.03-2.94-1.34-3.58
					c-1.08-0.52-1.93,0.18-2.19,1.2c-0.07,0.3,0.38,0.42,0.46,0.13c0.81,0.07,1.61,0.15,2.42,0.22c0.08,0.26,0.14,0.53,0.16,0.8
					c0.05,0.42,0.04,0.8,0.02,1.22c0.16,0,0.32,0,0.47,0c0.1-3.1-0.26-5.69-1.67-8.48C186.6,172.22,186.19,172.46,186.33,172.73
					L186.33,172.73z"/>
			</g>
		</g>
		<path class="st16" d="M158.85,246.42c-11.88-4.09-19.78,14.15-25.75,27.54c-3.4,7.63-17.31,27.21-16.56,41.03
			c0.75,13.82,1.57,32.15,25.43,18.29c4.13-2.4,26.79-43.69,28.28-54.8C171.72,267.37,162.59,256.65,158.85,246.42z"/>
		<g>
			<path class="st20" d="M165.06,232.37c-1.24,0.11-4.14,1.12-5.16,1.73c-5.28,3.14-8.25,6.23-12.06,11.09
				c-4.79,6.1-9.95,13.17-13.94,20.07c-3.99,6.9-7.21,14.08-10.58,21.27c-0.69,1.47-1.34,2.96-1.97,4.46
				c-0.23,0.55-0.6,1.09-0.31,1.7c0.73,1.53,2.31,1.27,3.73,1.83c1.78,0.7,2.64,2.29,4.09,3.56c1.45,1.27,3.35,2.15,5.19,2.85
				c5.17,1.98,10.3,3.93,15.42,6.08c1.59,0.67,2.97,1.5,4.81,1.75c2.51,0.35,4.72-0.91,6.18-2.98c0.54-0.76,0.73-1.65,1.08-2.46
				c2.07-4.78,5.11-8.89,7.41-13.55c2.46-4.98,4.4-10.22,6.07-15.52c0.61-1.95,1.15-3.93,1.49-5.95c0.57-3.35,1.71-7.2,1.36-10.51
				c-0.79-7.59-3.51-13.81-6.62-20.6c-0.8-1.75-1.72-3.27-3.44-4.31C166.95,232.35,166.3,232.26,165.06,232.37z"/>
		</g>
		<path class="st16" d="M122.07,309.72c-0.14,0.1-0.32,0.23-0.44,0.37c-8.04,9.27-11.82,19.61-13.92,31.5
			c-2.77,15.67-3.75,30.79-4.81,46.73c6.38,4.61,7.63,15.18,14.62,1.61c5.22-10.13,9.98-25.41,16.08-37.52
			c3.32-6.6,8.47-15.54,9.72-24.28c0.76-5.3,0.9-13.59-3.66-18.02c-1.69-1.64-3.9-2.01-6.1-2.6c-1.91-0.51-3.73-0.85-5.79-0.57
			C125.69,307.24,123.78,308.48,122.07,309.72z"/>
		<path class="st5" d="M246.51,630.86c-0.75,8.83-1.24,17.01,8.17,20.75c4.78,1.9,10.33-0.11,15.3,0.66
			c5.5,0.86,11.35,2.52,16.7,3.36c7.18,1.13,15.59,2.05,22.29,1.39c8.38-0.83,8.73-5.4,2.37-9.92c-10.9-7.74-24.1-14.32-35.63-21.18
			c-3.57-2.12-5.58-3.21-9.76-3.5c-5.08-0.34-11.02,0.01-15.72,2.22c-2.61,1.23-2.81,2.93-3.61,5.33
			C246.51,630.24,246.53,630.55,246.51,630.86z"/>
		<path class="st5" d="M168.76,631.71c-0.81,9.92-1.42,19.08,9.17,23.29c5.38,2.13,11.52-0.13,17.18,0.74
			c6.27,0.97,12.51,2.82,18.79,3.78c8.42,1.29,16.8,2.21,25.3,1.56c10.64-0.83,10.25-5.66,2.62-10.95
			c-13.07-9.06-26.98-16.07-40.3-23.94c-4.12-2.43-6.21-3.58-10.95-3.92c-5.75-0.41-12.35,0.02-17.65,2.49
			c-2.94,1.37-3.14,3.29-4.05,5.98C168.77,631.02,168.79,631.36,168.76,631.71z"/>
		<g>
			<g>
				<path class="st30" d="M205.74,636.52c0.7-2.09,2.42-3.5,3.91-5.04c0.94-0.97-0.54-2.46-1.49-1.49
					c-1.78,1.83-3.62,3.48-4.45,5.96C203.28,637.25,205.31,637.8,205.74,636.52L205.74,636.52z"/>
			</g>
		</g>
		<g>
			<g>
				<path class="st30" d="M213.45,637.42c0.84-1.24,1.74-2.42,2.75-3.52c0.91-1-0.57-2.49-1.49-1.49c-1.13,1.23-2.14,2.57-3.08,3.95
					C210.87,637.48,212.69,638.54,213.45,637.42L213.45,637.42z"/>
			</g>
		</g>
		<g>
			<g>
				<path class="st30" d="M281.3,635.56c1.66-1.72,3.38-3.37,5.15-4.97c1.01-0.91-0.48-2.39-1.49-1.49c-1.78,1.6-3.5,3.25-5.15,4.97
					C278.88,635.05,280.36,636.54,281.3,635.56L281.3,635.56z"/>
			</g>
		</g>
		<g>
			<g>
				<path class="st30" d="M287.12,638.76c1.23-1.56,2.55-3.06,4.2-4.2c1.1-0.76,0.06-2.59-1.06-1.81c-1.81,1.25-3.27,2.81-4.62,4.53
					C284.81,638.33,286.28,639.83,287.12,638.76L287.12,638.76z"/>
			</g>
		</g>
		<path class="st16" d="M341.48,133.81c3.18-0.91,5.26-0.02,6.93,2.78c2.51-0.51,4.12,0.31,5.3,2.57c1.06-0.27,2.49,0.33,2.95,1.47
			c0.45,1.15,0.12,3.09-0.11,4.29c-0.73,3.78-2.06,6.65-4.36,9.7c-0.4,0.53-0.87,0.72-1.1,1.57c-0.11,0.4-0.22,1.17-0.36,1.81
			c-0.68,3.2-2.23,6.1-4.01,8.86c-0.55,0.85-1.14,1.7-1.99,2.19c-1.25,0.72-2.74,0.96-4.09,0.87c-2.51-0.18-4.58,0.23-6.92-1
			c-4.09-2.16-5.86-5.84-6.29-10.44c-0.33-3.51,0.15-6.81,0.97-10.26s1.34-6.39,2.86-9.91
			C333.07,134.08,336.82,130.47,341.48,133.81z"/>
		<g>
			<path class="st28" d="M338.01,136.87c-0.09-0.18-0.17-0.36-0.29-0.61c-0.13-0.25-0.64-0.37-0.79,0.02
				c-0.78,2.08-1.55,4.13-2.29,6.26c-0.41,1.19-1.11,2.6-0.74,3.86c0.47,1.61,1.93,2.38,3.48,1.78c2.33-0.9,3.08-3.06,3.74-5.29
				c0.86-2.94,1.34-5.59,0.33-8.53c-0.19-0.55-0.87-0.13-0.7,0.4c0.67,2.07,0.53,4.05,0,6.15c-0.53,2.1-0.96,4.36-2.71,5.73
				s-3.15,0.45-3.21-1.69c-0.02-0.79,0.53-1.81,0.82-2.64c0.67-1.89,1.41-3.86,2.1-5.77c-0.28-0.01-0.55-0.02-0.84-0.03
				c0.18,0.37,0.15,0.68,0.54,0.96C337.82,137.75,338.26,137.36,338.01,136.87C338,136.85,338.02,136.88,338.01,136.87z"/>
		</g>
		<g>
			<path class="st28" d="M339.37,145.48c-0.6,1.84-0.99,3.76,0.34,5.35c0.94,1.12,2.27,1.32,3.5,0.43c1.82-1.32,2.83-3.85,3.53-5.85
				c1.08-3.09,1.64-5.81,1.78-8.98c0.02-0.56-0.76-0.58-0.8-0.03c-0.22,3.01-0.75,5.81-1.76,8.69c-0.48,1.37-1.17,2.76-1.91,4.03
				c-0.25,0.43-0.58,0.83-0.91,1.2c-1.15-0.41-2.32-0.77-3.46-1.21c-0.43-0.99,0.16-2.44,0.45-3.26
				C340.4,145.04,339.55,144.93,339.37,145.48C339.34,145.55,339.39,145.42,339.37,145.48z"/>
		</g>
		<g>
			<path class="st28" d="M343.64,151c0.86,1.18,1.84,2.46,3.37,2.51c1.53,0.06,2.18-1.06,2.8-2.28c2.05-4.02,3.51-8.05,3.93-12.54
				c0.06-0.65-0.46-0.14-0.53,0.49c-0.39,3.14-1.44,5.85-2.91,8.97c-0.59,1.25-1.45,4.08-3.35,4.26c-1.19,0.11-1.87-1.4-2.5-2.03
				S343.3,150.52,343.64,151C343.67,151.03,343.61,150.96,343.64,151z"/>
		</g>
		<g>
			<path class="st28" d="M356.73,142.31c-0.16,1.23-0.71,4.67-1.35,6.26c-0.32,0.79-0.85,2.14-1.34,2.99
				c-0.22,0.38-0.44,0.85-0.74,1.27c-0.86,1.17-1.79,1.11-3.05,0.49c-0.16-0.64-1.19-0.32-0.91,0.22c1.06,1.97,2.95,2.14,4.42,0.21
				c3.02-3.95,3.53-8.15,2.94-13.18C356.63,140.04,356.78,141.93,356.73,142.31C356.69,142.77,356.89,141.07,356.73,142.31z"/>
		</g>
		<path class="st16" d="M328.8,136.97c-0.1-0.09-0.2-0.19-0.31-0.25c-1.21-0.71-2.39-1.52-3.86-1.25c-1.47,0.27-2.64,1.04-2.58,2.73
			c0.06,1.69,1.68,2.75,2.22,4.43c0.34,1.05,0.01,1.9,0.01,3.26c0,6.48,2.04,13.64,5.59,18.89c1.55,2.3,1.63-0.51,3.4,0.33
			c2.47,1.17,3.01-1.35,2.55-3.33c-0.8-3.43-1.31-6.89-2.4-10.26c-1.09-3.37-2.47-6.57-2.86-10.14c-0.09-0.79,0.02-1.56-0.25-2.36
			C330.03,138.22,329.44,137.54,328.8,136.97z"/>
		<path class="st28" d="M217.13,198.29c3.57,0.82,5.66,2.34,6.62,5.84c0.23,0.82-0.16,1.65-0.84,2.2s-1.68,0.53-2.51,0.25
			c-0.83-0.28-1.51-0.86-2.33-1.2c-1.16-0.47-2.38-0.74-3.64-0.53c-1.75,0.28-3.44,1.07-5.18,1.26c-0.71,0.08-1.47-0.14-1.97-0.46
			c-0.5-0.32-0.74-0.64-0.88-1.1c-0.46-1.51-0.38-3.21,0.8-4.32C210.08,197.55,213.55,197.48,217.13,198.29z"/>
		<g>
			<path class="st12" d="M233.05,184.24c0.66-1.07,1.47-2.01,2.82-2.08c0.84-0.04,1.65,0.27,2.19,0.96
				c0.28,0.36,0.28,1.26,0.68,0.89c-0.66,0.62,0.34,1.62,0.99,0.99c0.63-0.6,0.13-1.41-0.18-2.07c-0.48-0.99-1.31-1.71-2.37-2.03
				c-2.32-0.69-4.19,0.77-5.34,2.63C231.36,184.3,232.57,185,233.05,184.24L233.05,184.24z"/>
		</g>
		<g>
			<path class="st12" d="M217.16,182.36c-0.37-2.39-1.6-4.57-3.88-5.63c-2.74-1.28-4.7,1.18-6.13,3.18
				c-0.53,0.74,0.69,1.44,1.21,0.71c0.66-0.92,1.33-1.95,2.36-2.48c1.2-0.62,2.25-0.13,3.22,0.72c1.16,1.01,1.63,2.4,1.86,3.88
				C215.94,183.62,217.3,183.24,217.16,182.36L217.16,182.36z"/>
		</g>
		<g>
			<g>
				<path class="st28" d="M201.43,179.45c1.11,1.01,2.32,1.12,3.76,1.2c0.45,0.02,0.45-0.68,0-0.7c-1.24-0.07-2.3-0.12-3.26-0.99
					C201.6,178.65,201.1,179.15,201.43,179.45L201.43,179.45z"/>
			</g>
		</g>
		<g>
			<g>
				<path class="st28" d="M200.99,181.08c0.65,0.38,1.33,0.63,2.07,0.75c0.44,0.07,0.63-0.6,0.19-0.68c-0.68-0.11-1.3-0.33-1.9-0.68
					C200.96,180.24,200.6,180.85,200.99,181.08L200.99,181.08z"/>
			</g>
		</g>
		<g>
			<g>
				<path class="st28" d="M241.39,186.45c1.32,0.23,2.63-0.48,3.82-0.99c0.41-0.18,0.06-0.78-0.35-0.61
					c-0.95,0.41-2.21,1.11-3.28,0.92C241.13,185.7,240.94,186.38,241.39,186.45L241.39,186.45z"/>
			</g>
		</g>
		<g>
			<g>
				<path class="st28" d="M241.03,187.93c0.64,0.01,1.28,0.02,1.92,0.03c0.45,0.01,0.45-0.7,0-0.7c-0.64-0.01-1.28-0.02-1.92-0.03
					C240.58,187.22,240.58,187.92,241.03,187.93L241.03,187.93z"/>
			</g>
		</g>
	</g>
	<g>
		<g class="st47">
			<g>
				<g>
					<path class="st1" d="M306.51,140.51c-2.12,3.31-4.28,8.64-8.06,9.84c-3.3,1.04-5.91-1.24-9.37-1.05
						c-2.02,0.11-4.07,0.8-5.69,2.03c-1.55,1.17-6.53,9.21-8.66,6.4c-1.03-1.37-3.38-0.02-2.33,1.36c1.56,2.05,3.79,2.62,6.22,1.51
						c4.15-1.9,4.45-7.5,9.47-8.46c4.26-0.82,8.32,3.58,12.34,1.57c3.7-1.86,6.28-8.49,8.4-11.82
						C309.77,140.4,307.44,139.05,306.51,140.51L306.51,140.51z"/>
				</g>
			</g>
			<g>
				<g>
					<path class="st1" d="M177.23,158.12c-2.81-1.53-5.19-4.46-8.56-4.73c-2.72-0.22-4.49,1.48-6.82,2.51
						c-5.5,2.43-9.34-2.24-14.14-4.01c-3.26-1.2-6.49-1.31-9.89-0.85c-1.71,0.23-0.98,2.83,0.72,2.6c5.09-0.69,8.77,0.86,13.04,3.3
						c2.17,1.24,4.52,2.57,7.1,2.59c2.21,0.01,3.74-1.08,5.67-1.95c5.72-2.58,6.94,0.37,11.54,2.87
						C177.39,161.27,178.75,158.95,177.23,158.12L177.23,158.12z"/>
				</g>
			</g>
			<g>
				<g>
					<path class="st1" d="M226.91,114.06c-1.3-2.91-1.34-6.74-3.96-8.93c-3.04-2.54-7.53-0.91-10.44-3.68
						c-2.68-2.56-3.18-6.88-5.09-9.98c-1.79-2.91-4.32-5.05-7.25-6.73c-1.51-0.86-2.87,1.47-1.36,2.33
						c4.35,2.48,6.52,5.88,8.41,10.33c0.89,2.09,1.72,4.34,3.39,5.96c1.67,1.62,3.52,2.09,5.78,2.51c3.31,0.61,5.34,1.84,6.73,5.28
						c0.57,1.41,0.85,2.87,1.47,4.27C225.29,117,227.62,115.63,226.91,114.06L226.91,114.06z"/>
				</g>
			</g>
			<g>
				<g>
					<path class="st1" d="M258.7,88.22c0.53,3.9-0.7,7.85-3.49,10.67c-2.12,2.14-4.95,2.48-7.27,4.17
						c-3.77,2.74-1.34,8.18-4.62,10.9c-1.37,1.14,0.6,3.09,1.96,1.96c1.89-1.56,2.21-3.49,2.52-5.83c0.5-3.71,1.03-4.45,4.44-5.99
						c1.34-0.6,2.54-1.22,3.68-2.15c4.41-3.55,6.19-8.97,5.45-14.46C261.13,85.72,258.46,86.47,258.7,88.22L258.7,88.22z"/>
				</g>
			</g>
			<g>
				<g>
					<path class="st1" d="M273.21,191.66c5.74-0.21,8.27,8.44,5.6,12.69c-1.74,2.77-5.44,2.61-8.03,1.24
						c-1.02-0.54-2.27-1.39-2.77-2.5c-1.81-4.05,3.63-5.7,5.36-2.24c0.78,1.55,3.1,0.19,2.33-1.36c-2.23-4.45-8.67-4.56-10.43,0.38
						c-1.8,5.07,4.07,8.98,8.44,9.37c12.52,1.11,10.91-20.69-0.49-20.27C271.48,189.03,271.47,191.72,273.21,191.66L273.21,191.66z"
						/>
				</g>
			</g>
			<g>
				<g>
					<path class="st1" d="M164.89,183.09c-11.87,3.35-22.96,8.82-34.02,14.18c-1.56,0.76-0.2,3.08,1.36,2.33
						c10.86-5.25,21.73-10.62,33.38-13.9C167.28,185.22,166.57,182.62,164.89,183.09L164.89,183.09z"/>
				</g>
			</g>
			<g>
				<g>
					<path class="st1" d="M165.42,192.23c-9.32,4.64-18.47,9.63-27.79,14.27c-1.55,0.77-0.19,3.1,1.36,2.33
						c9.32-4.64,18.47-9.63,27.79-14.27C168.33,193.79,166.97,191.46,165.42,192.23L165.42,192.23z"/>
				</g>
			</g>
			<g>
				<g>
					<path class="st1" d="M162.39,206.17c-4.98-9.33-10.06-18.62-14.79-28.08c-0.78-1.55-3.1-0.19-2.33,1.36
						c4.73,9.46,9.81,18.75,14.79,28.08C160.88,209.06,163.21,207.7,162.39,206.17L162.39,206.17z"/>
				</g>
			</g>
			<g>
				<g>
					<path class="st1" d="M131.51,183.95c6.12,9.19,12.14,18.44,18.22,27.65c0.95,1.44,3.29,0.09,2.33-1.36
						c-6.08-9.22-12.1-18.47-18.22-27.65C132.88,181.15,130.55,182.5,131.51,183.95L131.51,183.95z"/>
				</g>
			</g>
			<g>
				<g>
					<path class="st1" d="M233.97,85.15c1.73,0,1.74-2.7,0-2.7C232.24,82.45,232.23,85.15,233.97,85.15L233.97,85.15z"/>
				</g>
			</g>
			<g>
				<g>
					<path class="st1" d="M234.3,93.8c1.73,0,1.74-2.7,0-2.7C232.57,91.1,232.57,93.8,234.3,93.8L234.3,93.8z"/>
				</g>
			</g>
			<g>
				<g>
					<path class="st1" d="M234.64,101.11c1.73,0,1.74-2.7,0-2.7C232.9,98.42,232.9,101.11,234.64,101.11L234.64,101.11z"/>
				</g>
			</g>
			<g>
				<g>
					<path class="st1" d="M235.63,108.43c1.73,0,1.74-2.7,0-2.7C233.9,105.73,233.9,108.43,235.63,108.43L235.63,108.43z"/>
				</g>
			</g>
		</g>
		<polygon class="st48" points="166.02,86.07 163.08,117.52 123.98,95.24 173.69,140.62 177.7,115.76 202.05,132.44 		"/>
		<polygon class="st48" points="292.99,120.65 274.9,114.66 293.3,94.69 259.87,117.76 273.95,123.49 260.83,135.54 		"/>
	</g>
	<path class="st30" d="M169.2,650.32c0.83,1.65,2.5,3.41,4.38,4.37c7.56,3.83,19.15,4.15,27.46,5.65
		c9.07,1.64,18.16,3.12,27.28,4.45c3.43,0.5,7.57,1.04,10.95,0.25c4.64-1.08,10.32-5.82,6.89-8.43c-4.76,3.35-8.45,3.19-10.71,3.56
		c-13.64,2.2-31.54-6.36-34.27-8.1c-2.72-1.73-4.96-4.82-10.28-4.35c-6.51,0.56-10.99,0.75-17.46-0.91
		C168.62,645.57,167.94,647.81,169.2,650.32z"/>
	<path class="st30" d="M245.3,647.59c0.76,1.51,2.29,3.12,4.01,3.99c6.91,3.5,17.49,3.79,25.09,5.16c8.28,1.5,16.59,2.85,24.92,4.06
		c3.14,0.46,6.92,0.95,10,0.23c4.24-0.99,9.43-5.31,6.3-7.7c-4.35,3.06-7.72,2.92-9.79,3.25c-12.46,2.01-28.82-5.81-31.31-7.4
		c-2.49-1.58-4.53-4.41-9.39-3.98c-5.95,0.51-10.04,0.68-15.96-0.83C244.77,643.25,244.15,645.3,245.3,647.59z"/>
	<g>
		<g>
			<g>
				<path class="st6" d="M427.14,288.87c-3.19,1.15-6.15,2.55-8.63,4.93c-1.67,1.61-2.77,3.57-2.12,5.89
					c0.65,2.32,2.9,3.36,4.27,5.21c0.72,0.97,0.97,1.96,1.91,2.91c0.93,0.95,2.2,2.11,3.53,2.7c1.33,0.59,2.91,1.55,4.37,1.49
					c5.73-0.23,9.12-0.82,13.94-4.5c3.88-2.96,7.38-5.01,11.55-9.06c6.47-6.27,14.31-14.71,19.68-22.56
					c11.05-16.15,9.17-20-4.7-32.4c-2.89-2.59-3.22-1.27-5.29,1.21c-1.27,1.54-1.77,4.73-2.74,6.84
					c-2.75,5.99-5.17,12.71-8.65,18.33c-5.37,8.68-12.31,15.34-19.57,22.33c-0.15,0.14-0.34,0.23-0.53,0.25
					c-0.19,0.02-0.31-0.07-0.44-0.17c-1.48-1.07-2.73-2.39-4.38-3.22C428.65,288.72,427.93,288.59,427.14,288.87z"/>
				<path class="st6" d="M399.83,270.96c0.43,1.41,1.34,2.74,2.16,3.99c-1.79-1.05-3.41-1.77-5.51-1.43
					c-0.59,0.1-0.67,0.84-0.36,1.22c5.38,6.55,11.62,12.04,17.87,17.73c-2.53-1.93-4.82-3.65-7.48-5.52
					c-3.07-2.16-6.24-4.29-10.09-4.88c-0.8-0.12-1.07,0.85-0.59,1.4c3.33,3.85,7.27,6.95,11.33,9.97c2.42,1.8,4.75,3.56,7.15,5.36
					c-1.57-1.02-2.96-1.89-4.55-2.96c-3.2-2.14-6.16-4.14-10.18-4.43c-0.68-0.05-1.11,0.97-0.48,1.52
					c9.94,8.86,19.46,17.65,33.08,19.19c7.33,0.83,5.79-6.95,4.95-11.7c-0.21-1.21-0.72-2.6-1.18-3.71
					c-2.01-4.83-5.14-8.52-8.43-12.53c-3.29-4-5.96-7.71-11.16-9.17c-0.74-0.21-0.82,0.75-0.55,1.28c1.7,3.33,3.69,6.53,5.78,9.64
					c0.02,0.03-0.24-0.18-0.28-0.21c-2.89-2.06-7.83-6.95-9.91-8.8c-4.13-3.68-6.39-4.82-10.58-7.14
					C400,269.35,399.61,270.25,399.83,270.96z"/>
				<g>
					<g>
						<path class="st6" d="M603.04,151.62c24.45,24.51,31.81,64.83,38.15,96.64s-9.69,19.18-29.05,8.14
							c-5.44-3.1-16.07-49.54-17.97-51.9C584.12,191.96,594.46,143.02,603.04,151.62z"/>
					</g>
				</g>
				<path class="st6" d="M534.83,564.02c-1.53,18.07-4.22,48.8-5.07,69.67c-0.03,0.82-0.15,1.8-0.02,2.33
					c0.29,1.23-0.83,2.34-0.56,3.53c0.96,4.2-12.19,9.34-12.57,5.7c-3.74-35.93-11.63-71.53-6.67-107.83
					C513.99,507.73,536.36,545.95,534.83,564.02z"/>
				<path class="st7" d="M530.69,642.91c-0.32-2.43-0.21-3.62-2.29-3.75c-6.72-0.44-12.85,0.27-19.21,2.44
					c-6.83,2.32-12.36,5.41-19.26,8.53c-5.11,2.31-11.15,5.72-13.42,11.6c-1.17,3.03-0.32,6.1,2.59,7.88
					c4.81,2.93,11.59,1.81,16.55,0.85c8.85-1.7,17.43-0.71,25.52-3.96C535.22,660.84,532.34,655.46,530.69,642.91z"/>
				<path class="st6" d="M614.09,546.76c4.18,17.51,13.63,46.13,24.53,63.68c0.48,0.77,0.63,1.64,1.03,2.05
					c0.92,0.93,0.51,2.37,1.3,3.3c2.79,3.28-6.37,13.74-8.38,10.61c-19.79-30.86-43.2-59.72-49.76-96.96
					C577.44,498.97,609.91,529.25,614.09,546.76z"/>
				<path class="st7" d="M644,616.61c-0.54-0.66-1.13-1.26-1.81-1.78c-0.18-0.14-0.35-0.33-0.6-0.3c-0.72,0.07-0.97,0.57-1.37,1.1
					c-2.59,3.47-5.53,5.57-9.65,6.79c-1.23,0.37-2.36,0.23-3.41,0.92c-1.05,0.69-1.63,1.37-2.42,2.32
					c-4.75,5.69-8.58,9.81-13.67,15.94c-3.77,4.54-9.35,11.3-9.05,18.18c0.15,3.55,1.85,5.58,5.58,5.86
					c6.17,0.45,12.73-5.1,17.09-8.16c7.78-5.45,14.24-9.47,21.45-14.82c0.96-0.71,1.54-1.42,2.36-2.18c0.82-0.76,1.59-1.46,2.14-2.4
					c1.08-1.84,1.61-3.78,1.87-5.86c0.1-0.79-0.18-1.58-0.37-2.25c-0.19-0.67-0.58-1.17-0.87-1.69c-0.57-1-1.47-1.95-1.98-2.84
					c-1.17-2.03-1.42-3.4-3.13-5.38c-0.22-0.26-2.06-2.43-2.03-3.28C644.12,616.75,644.02,616.64,644,616.61z"/>
				<path class="st7" d="M504.04,506.89c-2.15-15.05-1.95-24.25-2.86-37.15c-1.24-17.59-2.33-41.36-2.97-57.18
					c-1.72-42.95-3.32-82.16-6.46-124.13c2.89-24.97,8.21-50.45,13.29-75.01c1.18-5.72-5.62-8.6-7.47-2.82
					c-6.68,20.76-9.54,42.76-13.32,64.27c-0.35,0.32-0.87,0.48-1.2,0.83c-3.89,4.26-7.03,8.82-9.74,13.91
					c-1.19-0.44-2.33-0.61-3.6-0.54c0.4-3.48,0.79-6.95,1.24-10.43c0.03-0.26,0.2-0.49,0.27-0.77c1.35-5.48,2.4-11.03,3.45-16.59
					c1.24-6.59,5.23-12.52,6.13-19.14c0.82-6.03-4.85-5.51-8.13-2.12c-0.49,0.51-0.81,1.71-1.22,2.35
					c-2.15,0.55-4.12,0.98-4.58,3.51c-7.01,38.62-10.88,77.8-12.52,116.97c-0.92,21.94-1.06,43.3,0.53,65.29
					c1.75,24.18,5.45,48.66,8.67,72.75c0.58,4.3,1.13,8.82,3.87,12.11c5.13,6.16,11.9,8.28,18.18,13.37
					c1.77,1.44,5.39,5.36,7.69,5.92C514.2,537.43,505.19,514.95,504.04,506.89z M478.75,310.57c-0.45-0.41-0.92-0.74-1.45-1.03
					c1.27-6.27,2.89-12.35,5.13-18.35c-0.55,5.8-1.05,11.59-1.48,17.4C480.04,309.11,479.36,309.73,478.75,310.57z"/>
				<path class="st7" d="M578.52,494.39c-0.5-4.57-0.78-9.09-2.41-13.4c-1.48-3.94-4.33-6.49-7.32-9.3
					c-0.81-1.38-1.46-2.52-3.13-2.91c-2.07-0.48-4.13-0.45-6.35-0.62c-7.1-5.88-17.25-4.88-24.75-2.33
					c-7.06,2.4-6.34,4.77-9.45,10.07c-0.86,1.47-1.71,2.64-1.99,4.4c-0.38,2.41,1.01,4.05,3.05,5.22c0.03,0.01,0.09,0.02,0.09,0.05
					c0.03,0.43,0.08,0.98,0.16,1.37c0.07,0.39,0.2,0.61,0.25,0.98c-1.84,1.97-3.61,3.79-3.52,6.66c0.09,2.87,1.96,4.25,4.04,5.88
					c0,0.92,0.09,1.81,0.31,2.71c-2.63,1.68-5.09,3.27-6.45,6.16c-0.96,2.05-0.11,3.63,0.8,5.48c-0.42,0.37-0.97,0.44-1.38,0.86
					c-1.47,1.51-1.98,3.09-1.75,5.18c0.07,0.64,0.48,1.02,0.61,1.66c-0.44,1.33-1.17,3.61-0.78,4.88c0.89,2.92,3.01,4.31,5.63,4.87
					c3.23,0.69,6.22-0.55,9.17-0.84c4.96-0.48,9.21-0.55,14.04,0.3c4.83,0.85,9.1,2.64,14.2,2.09c3.44-0.37,7.41-2.87,9.89-5.12
					c4.58-4.17,8.74-8.4,9.66-14.41c0.92-6.01-2.13-10.87-2.46-16.62C578.63,496.52,578.64,495.47,578.52,494.39z"/>
				<path class="st8" d="M628.39,583.03c-2.41-8.29-4.84-16.42-7.09-24.79c-3.24-12.11-6.48-24.04-7.46-36.66
					c-1.11-14.27-2.7-28.74-4.22-42.97c-1.58-14.84-2.16-29.38-3.32-44.28c-3.28-42.2-5.89-84.72-20.99-124.73
					c-2.28-6.04-9.67-4.24-10.98,1.87c-0.92,4.28-0.95,10.06-1.4,14.6c-4.3-1.44-7.15-1.43-9.43,3.01
					c-1.29,2.51-1.14,5.91-2.08,8.61c-0.43,1.24-1.11,2.12-1.21,3.5c-0.11,1.37-0.07,2.93-0.25,4.33c-3.61-0.48-7.23,0.14-8.7,3.81
					c-3.04,7.56-3.42,15.26-4.32,23.22c-0.74-4.56-1.48-9.27-2.29-13.78c-0.28-1.56-1.07-2.31-1.92-3.52
					c-0.29-0.42-0.02-1.02-0.35-1.42c-3.66-4.4-6.95-4.33-11.28-0.8c-0.57-0.69-0.7-1.75-1.42-2.32c-3.69-2.94-6.47-2.67-10.18,0.05
					c-0.85-0.83-1.08-2.04-2.15-2.69c-3.36-2.04-6.5-1.69-9.07,1.28c-1.58,1.82-1.71,4.05-2.92,6.01c-1.32,1.44-2.28,2.78-2.7,4.75
					c-0.27,1.26-0.21,2.8-0.47,4.04c-0.26,1.24-0.7,2.28-0.95,3.44c-0.35-4.23,0.62-9.51-0.37-13.51
					c-1.68-6.71-10.31-7.5-10.81,0.23c-2.15,33.58-0.07,67.38,0.82,101.13c0.44,16.87,1.54,34.12,2.26,51.04
					c0.69,16.19,1.4,32.3,3.64,48.37c2.85,20.39,5.65,40.77,7.82,61.28c0.45,4.29,1,8.53,3.15,12.42c2.14,3.89,5.58,5.94,10,6.23
					c2.55,0.17,4.78-1.3,7.22-1.7c1.55-0.26,3.26,0.35,4.59-0.67c3.98-3.06,4.24-7.15,4.39-11.84c0.35-11.1,2.08-21.81,2.97-32.85
					c0.65-8.07,0.18-16.07,0.01-24.24c-0.55-25.52-0.78-51.31,0.6-76.8c1.24-22.86,3.46-45.41,5.45-68.16
					c0.04-0.43,0.11-0.82,0.13-1.25c6.08,28.6,12.89,57.01,21.04,85.09c2.09,7.18,4.3,14.08,6.39,21.33
					c1.82,6.31,3.53,12.63,5.16,19.15c2.1,8.39,3.28,17.15,6.91,25.23c3.84,8.56,9.99,15.99,14.84,24.05
					c3.37,5.6,6.16,11.65,9.37,17.35c0.89,1.58,2.02,3.03,3.7,3.71s3.35,0.2,4.97-0.23c2.8-0.74,5.56-1.58,8.24-2.55
					c4.27-1.54,7.73-3.22,9.64-7.49c0.86-1.93-0.2-3.68-0.7-5.54C631.35,592.54,629.79,587.82,628.39,583.03z"/>
				<path class="st7" d="M544.87,147.81c-0.11-1.97-1.2-2.96-1.86-4.73c1.64-3.12,1.34-8.39-3.84-7.03
					c-10.89,2.87-14.91,0.44-27.6,7.87c-4.13,2.42-16.19,11.95-20.27,23.59c-3.73,10.65-20.02,35.65-25.21,47.48
					c-5.19,11.83-6.44,18.42-5.69,29.76c0.35,5.26,4.73,5.42,7.48,8.83c-0.09,11.38-0.65,22.32,0.64,33.82
					c1.17,10.4,3.45,20.32,5.6,31c1.41,6.99,2.15,17.25,9.26,21.13c6.68,3.65,10.97-1.76,12.65-7.71
					c3.07-10.88,3.21-21.82,6.03-32.79c5.47-21.23,13.25-41.7,21.16-62.26c3.71-9.64,7.64-19.25,10.34-29.42
					c2.7-10.17,3.96-21.09,5.8-31.52c1.08-6.11,2.4-12.16,3.92-18.16C544.11,154.42,545.07,151.12,544.87,147.81z"/>
				<path class="st4" d="M614.16,435.88c0.35-3.65,0.46-7.21-0.3-10.81c-1.25-5.87-4.66-10.92-5.9-16.82
					c-2.28-10.89-0.95-21.93-1.85-33c-0.96-11.82-4.19-23.37-5.45-35.21c-0.78-7.27,0.6-14.8-0.77-22.04
					c-3.14-16.51-10.16-31.83-11.81-48.67c-1.77-18.04-1.97-35.21-4.54-53.55c-2.48-17.69-4.51-36.99-7.58-54.92
					c-0.78-4.54-3.09-8.42-5.22-12.41c0.03,0.07,0.26-0.04,0.33-0.08c5.22-3.34,7.3-8.46-1-9.52c-9.36-1.19-20.48-0.4-30.25-0.67
					c-3.46-0.1-5.49,2.46-7.07,5.26c-3.08,5.47-5.36,11.23-7.93,17.01c-3.18,7.15-6.6,14.74-9.33,22.08
					c-23.09,62.08-30.15,128.1-37.21,193.48c-0.6,5.52-0.98,10.72-0.65,16.19c0.49,8.3,2.73,16.2,3.07,24.51
					c0.45,10.97-2.6,21.69-1.8,32.75c0.79,11.06,5.1,20.07,15.45,24.84c6.67,3.07,13.69-0.65,20.49,0.27
					c10.81,1.47,20.61,5.96,31.6,6.06c5.89,0.05,10.88-3.61,16.48-5.3c7.67-2.31,15.7-3.3,23.51-5.5c7.8-2.2,14.88-5.39,20.37-11.58
					c3.84-4.34,4.55-9.96,6.19-15.31C613.66,440.67,613.93,438.24,614.16,435.88z"/>
				<path class="st7" d="M641.08,433.33c-2.42-5.58-5.54-10.8-6.75-16.82c-1.94-9.65-0.6-19.47-2.08-29.19
					c-2.1-13.86-8.22-26.38-11.53-40.04c-3.23-13.32-3.14-27.42-3.69-41.04c-0.71-17.82-3.47-29.15-6.52-46.59
					c7.3-4.14,7.66-0.98,16.6-6.29c6.77-4.02,16.85,4.18,15.59-19.11c-1.42-26.21-17.71-79.99-45.43-95.02
					c-0.11-0.06-21.6-10.84-24.83-4.86c-2.97,5.5-1.74,4.58-2,11.4c-0.32,8.31-2.71,18.39-4.32,27.79
					c-7.21,42.12-8.58,85.04-0.52,127.26c1.77,9.26,4.02,17.98,4.97,27.25c0.79,7.75,0.15,15.44,0.91,23.15
					c0.88,8.96,2.45,17.64,4.55,26.41c4.85,20.29,9.58,40.5,11.92,61.26c4.51,22.65,9.65,44.86,15.93,67.18
					c2.38,8.46,6.58,15.49,13.7,21c1,0.77,2.41,0.92,3.74,0.54c1.33-0.38,2.49-1.41,3.45-2.53c5.93-6.97,12.36-13.74,18.12-20.87
					c4.4-5.44,8.73-10.76,9.53-17.83c0.81-7.07-2.66-13.23-3.74-20.01c-0.86-5.35-0.51-10.74-1.46-16.05
					C646.14,444.28,643.5,438.91,641.08,433.33z"/>
				<path class="st6" d="M555.41,151.87C555.41,153.11,555.41,153.09,555.41,151.87c-9.98,0.08-14.26-5.56-15.96-15.52
					c-1.4-12.14-0.83-23.26,0.02-33.86c11.56-0.04,21.91-0.01,33.48,0.33c-1.3,10.26-0.09,22.57-0.35,33.09
					C570.98,145.72,565.39,151.79,555.41,151.87z"/>
				<path class="st9" d="M572.47,118.92c-4.58-0.82-11.33-1.1-15.53-0.81c-7.1,0.48-12.02,1.65-18.48,3.28
					c-0.1,0.03-0.08,0.1-0.2,0.11c0.26,4.35,0.73,8.56,0.93,12.92c7.64,4.5,13.42,7.15,22.78,6.09c2.73-0.31,7.94-3.26,10.64-4.74
					C572.94,130,572.36,124.67,572.47,118.92z"/>
				<g>
					<g>
						<path class="st7" d="M542.4,342.8c-6.79,22.26-8.99,45.91-18.13,67.45c-4.24,9.97-9.84,19.32-16.76,27.67
							c-6.42,7.73-15.37,12.51-21.9,20.08c-0.27,0.31,0.19,0.77,0.46,0.46c6.9-7.99,16.27-13.07,22.95-21.37
							c6.32-7.85,11.51-16.55,15.51-25.79c9.42-21.77,11.62-45.75,18.49-68.31C543.15,342.57,542.52,342.4,542.4,342.8L542.4,342.8z
							"/>
					</g>
				</g>
				<g>
					<g>
						<path class="st7" d="M515.22,438.73c-3.37,2.79-6.74,5.58-10.11,8.38c-0.32,0.27,0.14,0.72,0.46,0.46
							c3.37-2.79,6.74-5.59,10.11-8.38C516,438.92,515.54,438.46,515.22,438.73L515.22,438.73z"/>
					</g>
				</g>
				<g>
					<g>
						<path class="st7" d="M560.6,373.64c3.91,7.78,9.19,14.22,16.05,19.59c0.32,0.25,0.79-0.2,0.46-0.46
							c-6.79-5.32-12.07-11.74-15.94-19.45C560.97,372.94,560.41,373.27,560.6,373.64L560.6,373.64z"/>
					</g>
				</g>
				<g>
					<g>
						<path class="st7" d="M564.03,387.28c-0.62-0.65-1.25-1.3-1.87-1.94c-0.26-0.27-0.69,0.07-0.51,0.39
							c2.63,4.57,5.88,8.61,9.79,12.15c0.31,0.28,0.77-0.18,0.46-0.46c-3.86-3.5-7.09-7.5-9.69-12.02
							c-0.17,0.13-0.34,0.26-0.51,0.39c0.62,0.65,1.25,1.3,1.87,1.94C563.86,388.04,564.32,387.58,564.03,387.28L564.03,387.28z"/>
					</g>
				</g>
				<g>
					<g>
						<path class="st7" d="M533.55,158.55c3.11,11.41,6.23,23.86,6.87,35.71c0.16,2.94-1.98,10.99,2.05,12.23
							c5.05,1.56,10.11-7.05,11.55-10.52c3.08-7.44,3.51-15.64,5.97-23.26c0.13-0.4-0.5-0.57-0.62-0.17
							c-1.96,6.07-2.65,12.46-4.39,18.59c-1.04,3.66-2.41,7.38-4.87,10.34c-2.09,2.5-8.32,7.2-9.15,1.39
							c-0.35-2.46,0.21-4.97,0.16-7.44c-0.06-3.28-0.76-6.61-1.27-9.84c-1.43-9.16-3.23-18.26-5.67-27.2
							C534.07,157.97,533.44,158.14,533.55,158.55L533.55,158.55z"/>
					</g>
				</g>
				<g>
					<g>
						<path class="st7" d="M528.06,189.11c0.64,1.87,1.28,3.74,1.92,5.61c0.14,0.39,0.76,0.22,0.63-0.17
							c-0.65-1.87-1.29-3.74-1.92-5.61C528.55,188.55,527.93,188.71,528.06,189.11L528.06,189.11z"/>
					</g>
				</g>
				<g>
					<g>
						<path class="st7" d="M484.63,325.95c3.84-0.06,7.67,0.09,11.49,0.45c0.42,0.04,0.41-0.61,0-0.65
							c-3.82-0.36-7.65-0.51-11.49-0.45C484.22,325.31,484.22,325.95,484.63,325.95L484.63,325.95z"/>
					</g>
				</g>
				<g>
					<g>
						<path class="st7" d="M543.75,316.63c7.64-0.15,15.26-0.53,22.88-1.1c0.41-0.03,0.42-0.68,0-0.65
							c-7.62,0.57-15.24,0.95-22.88,1.1C543.33,315.99,543.33,316.64,543.75,316.63L543.75,316.63z"/>
					</g>
				</g>
				<g>
					<g>
						<path class="st7" d="M555.96,320.35c3.73-0.06,7.44-0.32,11.14-0.79c0.41-0.05,0.41-0.7,0-0.65
							c-3.7,0.47-7.41,0.73-11.14,0.79C555.54,319.7,555.54,320.35,555.96,320.35L555.96,320.35z"/>
					</g>
				</g>
				<g>
					<g>
						<path class="st7" d="M540.33,466.54c6.16-0.75,10.82,3.37,16.78,4.19c6.58,0.91,13.25,0.74,19.87,0.99
							c0.42,0.02,0.42-0.63,0-0.65c-7.11-0.27-14.58,0.21-21.58-1.25c-5.62-1.17-9.03-4.66-15.07-3.93
							C539.92,465.94,539.92,466.59,540.33,466.54L540.33,466.54z"/>
					</g>
				</g>
				<g>
					<g>
						<path class="st10" d="M603.34,209.59c1.25,6.75,2.48,13.5,3.79,20.24c1.06,5.44,1.65,10.97,4.77,15.66
							c0.23,0.35,0.79,0.02,0.56-0.33c-3.37-5.07-3.93-11.48-5.06-17.34c-1.18-6.13-2.3-12.27-3.43-18.4
							C603.89,209.01,603.26,209.18,603.34,209.59L603.34,209.59z"/>
					</g>
				</g>
				<g>
					<g>
						<path class="st10" d="M611.23,234.41c1.16,5.07,3.5,9.28,7.18,12.95c0.3,0.29,0.75-0.16,0.46-0.46
							c-3.61-3.6-5.88-7.69-7.01-12.66C611.76,233.83,611.14,234,611.23,234.41L611.23,234.41z"/>
					</g>
				</g>
				<g>
					<g>
						<path class="st10" d="M596.23,327.01c2.7,11.03,7.9,21.12,11.46,31.86c4.02,12.12,5.15,24.89,6.82,37.48
							c0.05,0.41,0.7,0.41,0.65,0c-1.59-12-2.67-24.2-6.26-35.82c-3.53-11.43-9.2-22.04-12.05-33.7
							C596.75,326.44,596.13,326.61,596.23,327.01L596.23,327.01z"/>
					</g>
				</g>
				<g>
					<g>
						<path class="st10" d="M600.51,354.91c3.09,7.34,5.65,14.85,7.66,22.56c0.11,0.4,0.73,0.23,0.62-0.17
							c-2.01-7.71-4.57-15.21-7.66-22.56C600.98,354.36,600.35,354.52,600.51,354.91L600.51,354.91z"/>
					</g>
				</g>
				<g>
					<g>
						<path class="st10" d="M490.87,191.21c-4.02,12.47-7.07,25.18-9.23,38.11c-0.07,0.41,0.56,0.58,0.63,0.17
							c2.15-12.93,5.21-25.63,9.23-38.11C491.62,190.99,491,190.82,490.87,191.21L490.87,191.21z"/>
					</g>
				</g>
				<g>
					<g>
						<path class="st10" d="M492.57,196.83c-2.51,7.45-4.48,15.02-5.9,22.76c-0.07,0.41,0.55,0.58,0.63,0.17
							c1.42-7.74,3.39-15.31,5.9-22.76C493.33,196.61,492.71,196.44,492.57,196.83L492.57,196.83z"/>
					</g>
				</g>
				<path class="st11" d="M537.13,87.16c2.66-1.21,5.44-1.72,8.32-0.86c1.51,0.45,0.31,2.06-1.07,1.96
					c-2.04-0.14-4.43,0.27-6.48,0.81C536.49,89.43,535.73,87.79,537.13,87.16z"/>
				<path class="st12" d="M615.64,49.56c1.99,0.2,5.35,0.84,6.02-1.83c0.99-3.98-2.91-5.03-5.75-6.22
					c-0.39-0.16-0.81-0.36-1.18-0.53c1.29-0.69,2.72-1.25,4.01-1.94c1.9-1.02,3.71-1.99,3.95-4.39c0.18-1.82-1.04-2.96-2.74-3.11
					c-2.42-0.21-4.54,1.01-6.71,2.02c-0.49,0.23-2.23,0.85-2.71,1.05c2.71-1.57,3.9-2.68,3.38-4.19c-0.89-2.58-3.73-2.39-6.74-3.24
					c2.09,0.1,6.07-0.88,5.68-3.59c-0.9-6.14-7.81-4.12-11.3-3.23c-4.52,1.14-7.01,1.97-11.06,3.2c2.77-1.98,5.64-4.14,8.13-6.35
					c2.02-1.79,4.8-4.96,3.5-7.53c-3.6-7.14-9.43,0.71-12.57,3.06c-5,3.74-8.87,3.73-13.92,6.2c2.65-2.25,4.23-4.07,7.48-5.75
					c3.25-1.68,11.1-5.36,5.58-9.76c-5.14-4.1-12.19,3.28-15.57,6.72s-4.95,5.55-7.42,9.24c1.06-3.3,1.68-6.26,3.11-9.49
					c1.43-3.23,4.16-8.56-0.87-9.8c-4.42-1.09-5.34,5.46-6.37,8.61c-1.25,3.8-3.61,6.35-5.16,9.88c-0.55,1.24-0.74,2.68-1,4.06
					c-0.23-4.32-0.25-7.93-0.02-12.47c0.14-2.88,0.5-9.03-3.75-8.9c-4.25,0.13-2.81,5.91-2.68,8.72c0.19,4.09-0.54,7.58-0.35,11.55
					c0.01,0.23,0.11,0.59,0.16,0.86c-1.54-2.12-3.19-3.71-4.41-6.2c-1.22-2.5-2.83-8.19-6.5-5.91c-3.66,2.27-0.65,7.1,1.2,9.72
					c0.58,0.83,1,1.39,1.6,2.12c-0.52-0.16-0.59-0.26-1.2-0.4c-4.52-1.1-8.82-2.14-11,3.2c-0.52,1.28,0.91,2.14,2.07,2.55
					c1.16,0.42,2.89,0.24,4.2,0.43c1.9,0.27,3.75,0.96,5.5,1.69c-4.4,0.26-8.55,1.12-10.63,5.53c-1.43,3.03,0.37,5.23,3.41,5.27
					c2.66,0.04,5.14-1.81,7.91-2.13c1.9-0.22,4.28-0.05,6.25-0.32c1.56,1.74,2.93,2.81,5.27,2.55c0.66-0.07,0.71-0.85,0.82-1.3
					c0.1-0.45-0.11-0.84-0.1-1.15c0.01-0.31,0.1-0.25,0.16-0.43c0.06-0.19-0.04-0.01,0.07-0.05c0.11-0.04,0.21-0.01,0.34-0.03
					s0.11-0.12,0.31-0.08c0.2,0.04,0.56,0.03,0.8,0c0.24-0.03,0.39,0.04,0.66,0.03c0.26-0.01,0.53-0.02,0.84-0.1
					c0.31-0.08,0.42-0.42,0.84-0.24s1.05,0.32,1.45-0.03c0.4-0.35,0.67-0.74,1.04-1.09c0.11-0.1,0.22-0.18,0.35-0.09
					c0.63,0.47,0.84,0.93,1.72,0.59s1.82-1.08,2.64-1.62c1.21-0.12,2.43-0.23,3.64-0.22c2.09,0.02,4.13,0.01,6.21-0.25
					c0.05,0.81,0.31,1.27,0.99,1.66c-0.01,0.46-0.16,0.79-0.07,1.28c0.09,0.49,0.33,1.07,0.89,1.18c1.35,0.27,2.68,0.17,4.05,0
					c1.81,1.22,3.64,2.38,5.54,3.45c0.4,0.48,0.77,0.68,1.39,0.67c0.03,0,0.07-0.03,0.1-0.02c0.67,0.23,1.34,0.44,2.02,0.64
					c0.33,0.91,0.51,1.54,1.62,1.3c1.11-0.23,2.32-0.86,3.44-1.17c-0.55,2-0.57,3.32,1.02,4.74c0.3,0.27,0.78,0.08,1.13-0.03
					c-0.08,0.28-0.07,0.37-0.19,0.7c-0.12,0.33-0.26,0.69-0.2,1.15c0.07,0.46-0.25,1.18-0.01,1.66c0.7,1.39,1.75,1.42,2.44-0.02
					c0.15-0.32-0.01-0.77,0.1-1.1c5.48-0.32,8.95,1.64,12.82,5.53c1.66,1.67,3.18,3.75,5.54,4.02c2.92,0.34,4.63-1.27,3.68-4.37
					C619.8,53.27,617.16,51.5,615.64,49.56z"/>
				<path class="st6" d="M561.71,44.63c-16.9-10.71-31.65,19.38-32.08,21.43c-4.65,22.4-5.9,31.37,1.92,48.92
					c4.85,10.89,8.3,20.16,24.64,17.65c24.98-3.84,30.84-30.12,32.54-54.21C590.87,48.21,579.92,56.18,561.71,44.63z"/>
				<path class="st6" d="M592.43,90.94c-5.32-4.06-8,2.92-9.5,6.71c-0.93,2.36,0.67,2.79,2.32,2.07c-0.19,0.54-0.55,1.02-0.82,1.57
					c-0.92,1.89-3.01,3.98-1.52,6.03c2.91,4,8.16-0.75,9.69-2.85C596.05,99.69,596.74,94.23,592.43,90.94z"/>
				<path class="st6" d="M520.63,103.28c1.33,2.06,5.84,6.13,8.58,2.55c1.41-1.84,0.02-3.74-0.81-5.56
					c-0.24-0.53-0.54-0.95-0.71-1.46c1.55,0.64,2.97,0.21,2.21-1.98c-1.22-3.52-3.42-9.93-8.41-6.26
					C517.45,93.55,517.6,98.61,520.63,103.28z"/>
				<path class="st12" d="M531.56,70.51c-0.13-0.91-1.26-0.93-1.8-0.35c-1.69,1.81-2.51,4.07-3.33,6.33c-1.05,2.89-1.96,5.66-3,8.53
					c-0.82-0.32-1.98-0.11-1.86,1c0.29,2.82,1.89,5.45,4.49,2.22c2.01-2.48,2.66-6.6,3.91-9.79C530.93,76,531.94,73.26,531.56,70.51
					z"/>
				<path class="st12" d="M589.13,76.31c-0.01-0.87-0.63-1.04-1.31-1.31c-0.64-2.45-1.01-5.08-2.46-7.18
					c-0.9-1.3-2.36-0.42-2.07,1.04c1.35,6.69,1.54,13.6,3.1,20.28c0.24,1.01,1.89,0.78,2.05-0.27
					C589.06,84.74,589.18,80.5,589.13,76.31z"/>
				<path class="st5" d="M605.03,51.63c-3.4-7.93-9.1-14.66-16.88-18.96c-10.07-5.58-19.36-4.85-30.31-2.93
					c-1.27,0.22-4.07,1.04-5.33,1.39c-13.77,3.82-20.47,8.92-27.02,21.55c-0.4,0.62-1.04,1.05-1.37,1.73
					c-3.12,6.45-5.98,14.76-4.55,22.04c0.24,1.23,0.97,1.86,1.32,2.84c0.41,1.17,0.08,2.26-0.01,3.67
					c-0.09,1.43-0.19,4.72,1.01,5.83c1.34,1.25,2.77,0.26,3.36-1.12c3.07-7.16,4.81-14.74,10.94-20.11
					c5.82-5.11,12.56-7.76,20.37-8.33c7.81-0.57,14.62,0.48,21.09,5.29c7.76,5.78,9.91,13.1,9.86,22.62c0,0.32,0.45,2.63,1.46,2.08
					c4.81-2.61,7.65-5.31,9.49-10.58c1.85-5.26,2.19-11.19,2.7-16.78C603.92,58.56,607.09,56.42,605.03,51.63z"/>
				<g>
					<g>
						<path class="st13" d="M529.79,61.46c12.71-6.83,25.86-9.33,40.21-8.15c0.41,0.03,0.41-0.61,0-0.65
							c-14.48-1.2-27.72,1.34-40.53,8.23C529.09,61.1,529.42,61.66,529.79,61.46L529.79,61.46z"/>
					</g>
				</g>
				<g>
					<g>
						<path class="st13" d="M567.37,48.47c5.96,1.73,12.66,2.61,17.35,7.05c3.54,3.35,5.98,7.73,9.08,11.46
							c0.27,0.32,0.72-0.14,0.46-0.46c-3.26-3.92-5.85-8.74-9.78-12.09c-4.74-4.04-11.16-4.91-16.94-6.58
							C567.14,47.73,566.97,48.35,567.37,48.47L567.37,48.47z"/>
					</g>
				</g>
				<g>
					<g>
						<path class="st13" d="M592.29,59.72c1.28,2.11,2.57,4.21,3.87,6.32c0.22,0.35,0.78,0.03,0.56-0.33
							c-1.3-2.1-2.59-4.21-3.87-6.32C592.64,59.04,592.08,59.36,592.29,59.72L592.29,59.72z"/>
					</g>
				</g>
				<g>
					<g>
						<path class="st13" d="M530.14,46.85c2.96-2.32,5.94-4.61,9.59-5.73c3.45-1.06,6.77-0.82,10.31-0.78
							c6.73,0.07,12.97-2.78,19.72-2.95c0.41-0.01,0.42-0.66,0-0.65c-4.09,0.11-7.89,1.01-11.86,1.95
							c-4.14,0.97-7.91,0.87-12.1,0.93c-6.42,0.09-11.18,2.92-16.11,6.79C529.35,46.65,529.81,47.11,530.14,46.85L530.14,46.85z"/>
					</g>
				</g>
				<g>
					<g>
						<path class="st13" d="M564.72,34.23c2.32-0.15,4.53,0.13,6.74,0.86c0.4,0.13,0.57-0.49,0.17-0.62
							c-2.27-0.75-4.53-1.04-6.91-0.88C564.31,33.61,564.31,34.26,564.72,34.23L564.72,34.23z"/>
					</g>
				</g>
				<g>
					<g>
						<path class="st13" d="M589.99,44.16c4.04,3.88,7.87,7.96,11.48,12.25c0.27,0.32,0.72-0.14,0.46-0.46
							c-3.61-4.29-7.44-8.36-11.48-12.25C590.15,43.42,589.69,43.87,589.99,44.16L589.99,44.16z"/>
					</g>
				</g>
				<path class="st53" d="M550.66,83.51c0.44,5.56-0.27,10.69-2.72,15.63c-0.6,1.2-1.5,1.76-1.84,2.83c-0.58,1.81,0,3.43,1.69,4.06
					c2.08,0.78,4.06-0.25,6.08-0.43c2.02-0.18,3.34-0.39,4.53-2.15c0.68-1.01,0.17-2.33-0.8-2.99"/>
				<g>
					<g>
						<path class="st6" d="M539.06,88.84c-1.22,1.14-2.24,2.63-1.27,4.3c0.79,1.36,2.24,1.67,3.4,0.5c1.08-1.09,1.11-3.71,0.06-4.85
							c-1.24-1.35-2.77,0.39-3.41,1.4c-0.22,0.35,0.33,0.68,0.56,0.33c0.25-0.39,0.51-0.88,0.88-1.17c0.81-0.63,1.6-0.19,1.88,0.67
							c0.36,1.1,0.27,2.81-0.83,3.47c-1.21,0.72-2.23-0.59-2.26-1.71c-0.03-1.11,0.71-1.79,1.45-2.48
							C539.82,89.01,539.36,88.56,539.06,88.84L539.06,88.84z"/>
					</g>
				</g>
				<g>
					<g>
						<path class="st9" d="M560.12,105c0.4,1.48,0.94,2.75,2.2,3.7c1.67,1.24,3.79,1.6,5.4,2.94c0.29,0.24,0.71-0.17,0.42-0.42
							c-1.17-0.98-2.54-1.44-3.91-2.09c-1.95-0.93-2.98-2.22-3.54-4.28C560.59,104.47,560.02,104.63,560.12,105L560.12,105z"/>
					</g>
				</g>
				<g>
					<g>
						<path class="st9" d="M561.64,96.4c3.09,0.53,6,0.1,8.96-0.86c0.36-0.12,0.21-0.69-0.16-0.57c-2.85,0.92-5.67,1.36-8.64,0.86
							C561.42,95.77,561.26,96.34,561.64,96.4L561.64,96.4z"/>
					</g>
				</g>
				<g>
					<g>
						<path class="st9" d="M535.97,94.86c2.49,0.9,5.06,1.16,7.69,1.03c0.38-0.02,0.38-0.61,0-0.59c-2.58,0.13-5.1-0.12-7.54-1
							C535.77,94.17,535.62,94.73,535.97,94.86L535.97,94.86z"/>
					</g>
				</g>
				<g>
					<g>
						<path class="st9" d="M522.05,95.36c1.41,1.73,2.59,3.6,3.59,5.6c0.15,0.3,0.64,0.09,0.54-0.23c-0.41-1.2-1.04-2.24-2.5-2.04
							c-1.32,0.18-1.24,1.47-1.14,2.52c0.03,0.37,0.62,0.38,0.59,0c-0.06-0.66-0.36-1.74,0.74-1.96c1.03-0.2,1.49,0.87,1.75,1.63
							c0.18-0.08,0.36-0.15,0.54-0.23c-1.02-2.04-2.23-3.95-3.68-5.72C522.22,94.65,521.81,95.07,522.05,95.36L522.05,95.36z"/>
					</g>
				</g>
				<g>
					<g>
						<path class="st9" d="M591.63,95.48c-3.14,1.03-5.03,5.29-6.35,8.06c-0.16,0.34,0.31,0.63,0.51,0.3
							c0.41-0.71,0.88-1.38,1.51-1.91c0.13-0.11,0.78-0.71,0.98-0.67c0.81,0.16,0.32,1.2,0.19,1.57c-0.12,0.36,0.44,0.51,0.57,0.16
							c0.25-0.73,0.87-2.62-0.55-2.47c-1.33,0.14-2.61,2.01-3.21,3.03c0.17,0.1,0.34,0.2,0.51,0.3c1.23-2.6,3.08-6.84,6-7.79
							C592.14,95.93,591.99,95.36,591.63,95.48L591.63,95.48z"/>
					</g>
				</g>
				<path class="st14" d="M548.79,78.64c-0.15-0.3-0.17-0.42-0.47-0.61c-0.3-0.19-0.57-0.43-1.01-0.41
					c-6.05,0.28-10.19,2.32-14.66,6.38c-0.15,0.13-0.25,0.23-0.4,0.5c-0.14,0.27-0.52,0.78-0.56,1.17
					c-0.05,0.39-0.13,0.67,0.28,0.95c0.41,0.28,0.66,0.45,1.26,0.19c2.1-0.91,4.13-2.26,6.3-3.15c2.63-1.08,5.45-1.46,8.19-2.23
					c0.29-0.08,0.58-0.18,0.84-0.46c0.26-0.28,0.47-0.93,0.44-1.32C548.97,79.27,548.95,78.95,548.79,78.64z"/>
				<path class="st14" d="M559.12,81.14c2.7,0.25,6.04,0.28,8.91,1.12c2.09,0.61,4.45,1.83,6.56,2.46c0.6,0.18,0.95-0.03,1.33-0.35
					c0.38-0.32,0.33-0.61,0.26-1.01c-0.07-0.4-0.47-0.88-0.63-1.15c-0.16-0.27-0.29-0.36-0.46-0.48c-5.51-3.98-10.71-6.14-17.2-3.51
					C555.37,79.23,556.96,80.94,559.12,81.14z"/>
				<path class="st14" d="M543.78,88.39c0.92,1.44,0.05,3.36-1.38,3.59c-2.32,0.38-2.73-1.51-4.31-2.64
					c-0.2-0.14-0.58,0.02-0.82-0.11c-0.25-0.13-0.24-0.38,0-0.58c0.6-0.51,1.92-1.1,2.54-1.35
					C541.6,86.57,542.87,86.95,543.78,88.39z"/>
				<path class="st14" d="M562.78,88.91c-1.14,1.44-0.51,3.63,1.07,3.9c2.56,0.44,3.27-1.68,5.15-2.82c0.24-0.14,0.65,0,0.94-0.11
					c0.28-0.12,0.33-0.39,0.07-0.62c-0.64-0.58-2.01-1.2-2.7-1.48C565.35,86.95,563.92,87.47,562.78,88.91z"/>
				<g>
					<g>
						<path class="st9" d="M534.47,91.41c-1.53,0.35-2.96,0.88-4.3,1.71c-0.19,0.12-0.02,0.43,0.18,0.31
							c1.31-0.82,2.71-1.33,4.21-1.67C534.79,91.71,534.7,91.36,534.47,91.41L534.47,91.41z"/>
					</g>
				</g>
				<g>
					<g>
						<path class="st9" d="M533.81,92.45c-1.18,0.46-2.2,1.12-3.09,2.03c-0.16,0.16,0.09,0.42,0.25,0.25
							c0.84-0.86,1.81-1.5,2.93-1.93C534.11,92.72,534.02,92.37,533.81,92.45L533.81,92.45z"/>
					</g>
				</g>
				<g>
					<g>
						<path class="st9" d="M573.65,91.65c1.5,0.4,2.89,0.98,4.19,1.85c0.19,0.13,0.37-0.18,0.18-0.31
							c-1.32-0.89-2.74-1.48-4.27-1.88C573.52,91.25,573.42,91.59,573.65,91.65L573.65,91.65z"/>
					</g>
				</g>
				<g>
					<g>
						<path class="st9" d="M574.16,92.68c1.11,0.48,2.05,1.16,2.85,2.06c0.15,0.17,0.41-0.08,0.25-0.25
							c-0.82-0.93-1.79-1.63-2.93-2.12C574.13,92.28,573.95,92.59,574.16,92.68L574.16,92.68z"/>
					</g>
				</g>
				<g>
					<g>
						<path class="st9" d="M578.19,80.53c0.18-2.04-0.14-3.8-1.34-5.48c-0.13-0.19-0.44-0.01-0.31,0.18
							c1.17,1.64,1.47,3.33,1.29,5.3C577.82,80.76,578.17,80.76,578.19,80.53L578.19,80.53z"/>
					</g>
				</g>
				<g>
					<g>
						<path class="st9" d="M531.76,81.01c0.22-1.26,0.61-2.43,1.29-3.52c0.12-0.2-0.19-0.37-0.31-0.18c-0.7,1.11-1.1,2.31-1.33,3.6
							C531.38,81.14,531.72,81.23,531.76,81.01L531.76,81.01z"/>
					</g>
				</g>
			</g>
			<path class="st9" d="M547.94,115.2c2.85-2.68,7.06-3.46,9.9,0.49c0.47,0.66,1.09,3.54-0.17,3.84c-0.88,0.21-4.08-1.81-4.59-1.92
				c-2.56-0.56-2.99,0.21-5.22,0.46C546.5,118.22,546.06,116.97,547.94,115.2z"/>
		</g>
		<path class="st54" d="M640.11,277.9c-7.99-11-22.72-22.03-34.59-31.26c-8.81-6.85-19.97-14.18-29.3-20.82
			c-0.16-0.12-0.19-0.27-0.2-0.35c-0.14-1.39-0.29-2.84-0.59-4.16c-1.29-5.68-4.01-10.17-6.83-15.23
			c-2.82-5.06-4.89-9.87-10.54-12.29c-0.81-0.35-1.06,0.8-0.86,1.47c1.24,4.17,2.81,8.27,4.61,12.25c0.02,0.04-0.24-0.24-0.28-0.28
			c-2.92-2.85-7.46-9.42-9.4-11.95c-3.85-5.03-6.11-6.76-10.38-10.23c-0.83-0.67-1.44,0.35-1.34,1.21c0.2,1.69,0.93,3.46,1.6,5.05
			c-1.81-1.54-3.45-2.68-5.9-2.67c-0.69,0-0.93,0.86-0.65,1.36c4.66,8.64,10.61,16.17,16.58,23.93c-2.49-2.69-4.74-5.11-7.38-7.77
			c-3.05-3.07-6.17-6.16-10.44-7.58c-0.89-0.3-1.38,0.8-0.96,1.52c2.94,5.06,6.75,9.4,10.78,13.6c2.4,2.5,4.71,4.88,7.13,7.33
			c-1.61-1.42-3.05-2.62-4.65-4.12c-3.2-3.01-6.19-5.84-10.64-6.93c-0.75-0.18-1.47,0.77-0.89,1.51
			c9.38,12.02,19.71,20.9,32.74,29.5c10.61,10.92,29.88,29.22,38.14,39.09c10.08,12.04,17.22,18.35,29.38,15.47
			C641.74,291.1,648.09,288.9,640.11,277.9z"/>
		<g>
			<g>
				<path class="st6" d="M640.86,278.16c-6.89-11.02-22.01-23.01-32.76-32.11c-10.75-9.1-22.09-16.8-33.09-25.9
					c-14.68,13.7-16.85,0.72-1.79,21.79c2.4,3.35,28.5,32.35,34.71,40.27c6.21,7.92,18.06,19.24,27.39,14.7
					C646.1,291.67,647.75,289.19,640.86,278.16z"/>
			</g>
		</g>
		<path class="st6" d="M544.52,182.56c0.17,1.69,0.83,3.5,1.46,5.11c-1.76-1.61-3.35-2.81-5.82-2.84c-0.7-0.01-0.95,0.85-0.69,1.36
			c4.38,8.79,9.99,16.56,15.69,24.52c-2.39-2.78-4.56-5.25-7.08-8.02c-2.91-3.19-5.91-6.37-10.12-7.93c-0.88-0.33-1.4,0.76-1,1.5
			c2.76,5.2,6.47,9.68,10.34,14.07c2.3,2.61,4.48,5.12,6.8,7.69c-1.55-1.5-2.94-2.78-4.47-4.36c-3.07-3.17-5.92-6.12-10.35-7.37
			c-0.75-0.21-1.48,0.76-0.95,1.5c8.62,12.17,18.54,21.69,31.04,29.9c0.6,0.4,1.01-0.21,1.55-0.41c1.66-0.6,3.25-0.23,4.42-1.88
			c2.57-3.64,3.18-7.87,3.32-12.21c0.05-1.64-0.1-2.88-0.39-4.39c-1.11-5.7-3.73-10.36-6.34-15.54c-2.6-5.18-4.48-10.06-10.04-12.68
			c-0.8-0.38-1.09,0.77-0.92,1.45c1.08,4.22,2.49,8.37,4.15,12.42c0.02,0.04-0.23-0.25-0.27-0.29c-2.81-2.94-7.09-9.65-8.95-12.24
			c-3.68-5.14-5.86-6.94-10.02-10.54C545.07,180.68,544.44,181.69,544.52,182.56z"/>
	</g>
	<path class="st6" d="M643.59,297.07c-3.35,2.28-8.06,2.35-11.96,1.74c-3.64-0.57-7.4-2.34-10.15-4.79
		c-1.63-1.45-2.97-3.02-4.33-4.71c-0.69-0.86-1.21-1.95-1.94-2.82c-0.54-3.75-1.16-7.41-1.84-11.19c0.92,0.26,1.88,0.45,2.91,0.55
		c4.53,0.42,7.66-3.04,8.37-7.4c0.41-2.56-1.67-5.3-2.51-7.62c-0.46-1.26-0.92-2.58-1.2-3.91c-0.01-0.05,0.01-0.28,0.07-0.65
		c1.54-0.5,3.45-1.33,6.11-2.91c4.48-2.66,10.39,0.02,13.53-4.58c2.22,6.13,4.59,14.77,7.07,26.66c0.54,2.57,0.95,5.21,1.09,7.84
		C649.09,288.31,647.97,294.08,643.59,297.07z"/>
</g>
</svg>
