{
  "id": "m1",
  "title": "Connect",
  "desc": "‘Connect’ is about empowering you to change your behaviour so you can positively influence your teenager. We’ll talk about ways to build your relationship and communication with your teenager. Connect is the foundational module of the program, so we encourage you to complete it if it’s recommended for you.",
  "cover": "./m1.png"
}
