{
  "id": "f3-k6",
  "title": "Your mental wellbeing",
  "cover": "s3.png",
  "tint": "#AE6AEF",
  "scope": "followup",
  "sections": [
    {
      "key": "s1",
      "title": "Your mental wellbeing",
      "options": [
        "None of the time",
        "A little of the time",
        "Some of the time",
        "Most of the time",
        "All of the time"
      ],
      "type": "radio",
      "required": true,
      "questions": [
        {
          "key": "intro1",
          "type": "paragraph",
          "content": "The next questions ask about how you have been feeling lately."
        },
        {
          "key": "intro2",
          "type": "paragraph",
          "content": "During the past 30 days, about how often did you feel ..."
        },
        {
          "key": "q1",
          "label": "...nervous?"
        },
        {
          "key": "q2",
          "label": "...hopeless?"
        },
        {
          "key": "q3",
          "label": "...restless or fidgety?"
        },
        {
          "key": "q4",
          "label": "...so depressed that nothing could cheer you up?"
        },
        {
          "key": "q5",
          "label": "...that everything was an effort?"
        },
        {
          "key": "q6",
          "label": "...worthless?"
        }
      ]
    },
    {
      "key": "s2",
      "title": "Support",
      "options": ["Strongly disagree", "Disagree", "Neutral", "Agree", "Strongly agree"],
      "type": "radio",
      "required": true,
      "questions": [
        {
          "key": "intro1",
          "type": "paragraph",
          "content": "The next few questions ask about how you are coping and how supported you've felt lately."
        },
        {
          "key": "q1",
          "type": "rating",
          "scales": ["1", "2", "3", "4", "5", "6", "7", "8", "9", "10"],
          "label": "On a scale of 1 to 10, how well are you coping with the stress of parenting during the pandemic at the moment?"
        },
        {
          "key": "q2",
          "label": "As a parent, I feel supported by other parents."
        },
        {
          "key": "q3",
          "label": "I get information about parenting from other parents sharing their knowledge and advice."
        },
        {
          "key": "q4",
          "label": "I feel supported emotionally by other parents (e.g. empathy, validation, positive regard)."
        },
        {
          "key": "q5",
          "label": "I get encouragement from other parents about my parenting efforts (e.g. complimenting my abilities or skills)."
        },
        {
          "key": "q6",
          "label": "I feel connected to other parents who share similar situations to me."
        }
      ]
    }
  ]
}
