{
  "id": "f4-rcads",
  "title": "${childName}'s mental wellbeing",
  "cover": "s4.png",
  "tint": "#EF6A6E",
  "scope": "followup",
  "sections": [
    {
      "key": "s1",
      "title": "${childName}'s mental wellbeing",
      "options": ["Never", "Sometimes", "Often", "Always"],
      "type": "radio",
      "required": true,
      "questions": [
        {
          "key": "intro",
          "type": "paragraph",
          "content": "Please select the word that shows how often each of these things happens for ${childName}."
        },
        {
          "key": "q1",
          "label": "${childName} feels sad or empty."
        },
        {
          "key": "q2",
          "label": "${childName} worries when ${they} ${think} ${they} ${have} done poorly at something."
        },
        {
          "key": "q3",
          "label": "${childName} feels afraid of being alone at home."
        },
        {
          "key": "q4",
          "label": "Nothing is much fun for ${childName} anymore."
        },
        {
          "key": "q5",
          "label": "${childName} worries that something awful will happen to someone in the family."
        },
        {
          "key": "q6",
          "label": "${childName} is afraid of being in crowded places (like shopping centers, the movies, buses, busy playgrounds)."
        },
        {
          "key": "q7",
          "label": "${childName} worries what other people think of ${them}."
        },
        {
          "key": "q8",
          "label": "${childName} has trouble sleeping."
        },
        {
          "key": "q9",
          "label": "${childName} feels scared to sleep on ${their} own."
        },
        {
          "key": "q10",
          "label": "${childName} has problems with ${their} appetite."
        },
        {
          "key": "q11",
          "label": "${childName} suddenly becomes dizzy or faint when there is no reason for this."
        },
        {
          "key": "q12",
          "label": "${childName} has to do some things over and over again (like washing hands, cleaning, or putting things in a certain order)."
        },
        {
          "key": "q13",
          "label": "${childName} has no energy for things."
        },
        {
          "key": "q14",
          "label": "${childName} suddenly starts to tremble or shake when there is no reason for this."
        },
        {
          "key": "q15",
          "label": "${childName} cannot think clearly."
        },
        {
          "key": "q16",
          "label": "${childName} feels worthless."
        },
        {
          "key": "q17",
          "label": "${childName} has to think of special thoughts (like numbers or words) to stop bad things from happening."
        },
        {
          "key": "q18",
          "label": "${childName} thinks about death."
        },
        {
          "key": "q19",
          "label": "${childName} feels like ${they} ${dont} want to move."
        },
        {
          "key": "q20",
          "label": "${childName} worries that ${they} will suddenly get a scared feeling when there is nothing to be afraid of."
        },
        {
          "key": "q21",
          "label": "${childName} is tired a lot."
        },
        {
          "key": "q22",
          "label": "${childName} feels afraid that ${they} will make a fool of ${themselves} in front of people."
        },
        {
          "key": "q23",
          "label": "${childName} has to do some things in just the right way to stop bad things from happening."
        },
        {
          "key": "q24",
          "label": "${childName} feels restless."
        },
        {
          "key": "q25",
          "label": "${childName} worries that something bad will happen to ${them}."
        }
      ]
    }
  ]
}
