<?xml version="1.0" encoding="utf-8"?>
<!-- Generator: Adobe Illustrator 23.0.2, SVG Export Plug-In . SVG Version: 6.00 Build 0)  -->
<svg version="1.1" id="Layer_1" xmlns="http://www.w3.org/2000/svg" xmlns:xlink="http://www.w3.org/1999/xlink" x="0px" y="0px"
	 viewBox="0 0 770.05 740.72" style="enable-background:new 0 0 770.05 740.72;" xml:space="preserve">
<style type="text/css">
	.st0{opacity:0.1;}
	.st1{fill-rule:evenodd;clip-rule:evenodd;fill:#007CC7;}
	.st2{fill:none;}
	.st3{enable-background:new    ;}
	.st4{fill:#73A0BE;}
</style>
<g class="st0">
	<path class="st1" d="M637.87,682.85c0,30.4-26.1,55-58.3,55s-58.3-24.6-58.3-55s26.1-55,58.3-55S637.87,652.45,637.87,682.85z"/>
	<path class="st1" d="M543.27,684.25c0,14.3-12.3,26-27.5,26c-15.2,0-27.5-11.6-27.5-26c0-14.3,12.3-26,27.5-26
		C530.97,658.25,543.27,669.85,543.27,684.25z"/>
	<ellipse class="st1" cx="530.67" cy="626.55" rx="78.4" ry="74"/>
	<path class="st1" d="M596.37,704.85c-20.8-34.2-8.2-77.7,27.9-97.3c36.2-19.6,82.4-7.8,103.1,26.4c20.8,34.2,8.2,77.7-27.9,97.3
		C663.27,750.85,617.07,739.05,596.37,704.85z"/>
	<path class="st1" d="M515.57,631.25c-20.4-33.7-8.1-76.6,27.5-95.9c35.6-19.3,81.1-7.7,101.5,26s8.1,76.6-27.5,95.9
		C581.47,676.45,535.97,664.85,515.57,631.25z"/>
	<path class="st1" d="M643.67,633.95c-16-26.3-6.3-59.9,21.5-75c27.9-15.1,63.4-6,79.4,20.3s6.3,59.9-21.5,75
		C695.17,669.35,659.67,660.25,643.67,633.95z"/>
	<path class="st1" d="M687.37,669.15c-12.2-20-4.8-45.5,16.4-57s48.2-4.6,60.4,15.4s4.8,45.5-16.4,57S699.47,689.15,687.37,669.15z"
		/>
	<path class="st1" d="M611.17,590.05c-11-18.2-4.4-41.4,14.9-51.8c19.3-10.4,43.8-4.1,54.9,14c11,18.2,4.4,41.4-14.9,51.8
		S622.17,608.15,611.17,590.05z"/>
</g>
<g>
	<g class="st0">
		<path class="st1" d="M308.37,144.75c5.5-73.5,69.5-128.7,143.1-123.2c73.5,5.5,128.7,69.5,123.2,143.1
			c-5.5,73.5-69.5,128.7-143.1,123.2C358.07,282.35,302.97,218.25,308.37,144.75z"/>
		<path class="st1" d="M524.87,157.55c2.6-34.7,32.8-60.8,67.6-58.2c34.7,2.6,60.8,32.8,58.2,67.6c-2.6,34.7-32.8,60.8-67.6,58.2
			C548.27,222.55,522.27,192.25,524.87,157.55z"/>
		<ellipse class="st1" cx="543.17" cy="299.25" rx="179.6" ry="179.6"/>
		<path class="st1" d="M407.37,98.45c41.3,86.3,4.8,189.7-81.5,231s-189.7,4.8-231-81.5s-4.8-189.7,81.5-231
			C262.67-24.25,366.07,12.25,407.37,98.45z"/>
		<path class="st1" d="M578.67,290.65c40.6,85,4.7,186.8-80.2,227.4s-186.8,4.8-227.4-80.2s-4.7-186.8,80.2-227.4
			C436.27,169.85,538.07,205.75,578.67,290.65z"/>
		<path class="st1" d="M286.37,262.15c31.8,66.4,3.7,146.1-62.7,177.9s-146.1,3.7-177.9-62.7s-3.7-146.1,62.7-177.9
			C174.97,167.65,254.57,195.75,286.37,262.15z"/>
		<path class="st1" d="M192.87,169.45c24.2,50.5,2.8,111.1-47.7,135.2c-50.5,24.2-111.1,2.8-135.2-47.7
			c-24.2-50.5-2.8-111.1,47.7-135.2C108.17,97.55,168.67,118.95,192.87,169.45z"/>
		<path class="st1" d="M352.67,374.15c22,45.9,2.6,101-43.4,123c-45.9,22-101,2.6-123-43.4c-22-45.9-2.6-101,43.4-123
			C275.67,308.85,330.77,328.25,352.67,374.15z"/>
	</g>
	
		<rect x="66.07" y="141.15" transform="matrix(1 -6.811076e-03 6.811076e-03 1 -2.4245 2.5085)" class="st2" width="602.01" height="432.11"/>
	<g class="st3">
		<path class="st4" d="M222.47,164.95c-2.8,0-4.5-0.5-5.6-1c-1.2-6.1-2-7.4-5-8.3c-1.3,4.4-1.8,14.4-1.7,17.6
			c0.1,9.5,1.9,12,14.6,11.9c0.7,0,3.4-0.1,4.6-0.1c0.5,0.8,0.8,2.6,0.9,3.4c0,6.5-5,10.7-14.6,10.8c-14.2,0.1-22.5-5-22.6-23
			c-0.1-15.7,2.8-26,12.3-28.8c4.2-3.4,8.8-5.2,14-5.3c8-0.1,11.6,4.2,11.7,10.5C230.87,160.55,227.87,164.85,222.47,164.95z"/>
		<path class="st4" d="M258.97,141.85c10.7-0.1,18.6,7.6,18.7,23.9c0.1,18.7-6.3,33.4-22.9,33.5c-12.8,0.1-20.4-5.3-20.6-24.9
			c-0.1-13.4,3.1-20.3,9.1-24.2C246.47,144.05,252.87,141.95,258.97,141.85z M252.07,155.65c-0.8,4.1-0.9,12.1-0.8,15.1
			c0.1,12.9,2,15,8.5,16.2c1.3-6.3,1.6-13.2,1.5-16.3C261.27,160.85,258.27,157.55,252.07,155.65z"/>
		<path class="st4" d="M283.57,155.05c-0.5-2.4-0.9-4.2-0.9-6.2c0-4.1,4.5-7.2,12.5-7.2c5.3,0,6.1,2.3,6.1,5.3
			c0,5.4-0.6,13.5-0.6,22.5c0.1,12.9,1.8,14.8,7.9,16c0-6.6,0.2-30.9,0.2-34.5c0-5.4,0.2-9.2,7.9-9.3c3.8,0,7.4,1,8.7,2.6
			c0,7.1-0.3,27.5-0.2,43.1c0,6.7-4,8.2-13.5,8.8c-2.6,1.6-6.4,2.5-11.3,2.6c-13.7,0.1-17.4-9-17.5-27.8
			C282.87,163.65,283.17,161.25,283.57,155.05z"/>
		<path class="st4" d="M362.37,182.05c1.1,0.9,1.8,3.1,1.8,5c0.1,7.9-4.2,10.1-8.8,10.4c-2.9,0.3-6.6,0.5-10.5,0.5
			c-5.7,0-12.2-3.2-12.3-7c-0.1-19.7,0.2-21.5,0.1-36.4c-0.5-2.2-0.9-4.2-0.9-6.2c0-4.1,4.5-7.1,12.5-7.1c5.8,0,6.5,1.6,6.6,4.3
			c0,7.1-0.4,21.2-0.8,36.8C353.47,182.35,360.47,182.15,362.37,182.05z"/>
		<path class="st4" d="M380.47,142.95c3.2-1.2,6.8-1.9,9.1-1.9c15.7-0.1,21.9,8.1,22,22.8c0.1,21.1-9.3,33.9-23.8,34
			c-9.5,0.1-19.1-1.7-19.1-7.8c0-5.2,0.2-13.7,0.2-20.9c0.1-4.2,0.1-8.6,0.2-13.1c-0.8-2-1.4-4.1-1.4-7.4
			C367.57,144.55,371.77,143.25,380.47,142.95z M394.97,168.75c-0.1-8-2.9-12.3-9.5-14.2c0.1,8.1-0.2,19.3-0.6,30.4
			c0.9,0.5,2.1,0.7,2.9,0.7C390.67,185.55,395.07,184.45,394.97,168.75z"/>
		<path class="st4" d="M459.87,143.65c2.2,3,4.9,8.7,7.1,13.4c1.3,2.9,2.5,5.9,3.7,9c1.5-3.3,3-6.3,4.3-9.1c2.5-4.9,4.9-10.1,6-12.1
			c1.9-3.3,3.9-4.6,6.6-4.6c9.6-0.1,10.5,2.1,10.5,4.6c0.1,9.4-0.1,32.1-0.5,41.7c-0.3,7.8-3.1,10.7-9.2,10.7
			c-2.8,0-5.5-0.8-6.6-2.4l-0.4-27.9c-1,2.7-3.2,6.9-5.6,10.7c-0.3,7-2.3,13.5-8.6,13.5c-3.4,0-5.5-1.3-6-2.7
			c-0.4-4.9-1.4-8.8-2.7-12l-3.6-8.9c0.1,7.6,0,17.3-0.8,23c-0.5,4.5-3.3,6.8-8.3,6.8c-2.4,0-4.1-0.7-4.9-2.3
			c0-6.9-0.3-25.4-0.4-39.4c-0.8-2.5-1.6-5.4-1.6-7.4c0-4,5.9-7.7,13.3-7.8C456.27,140.55,457.97,141.25,459.87,143.65z"/>
		<path class="st4" d="M537.77,139.95c5.7,0,8.6,2.6,9.2,6.5l-13.8,29.5v12.9c0,4-2.8,8.2-12.9,8.3c-4.8,0-6.1-1.3-6.2-7.5
			c0-2.6,0.1-5.9,0-8.3c0.1-1.6,0.1-3,0.2-4.6l-9.1-23c-2.2-1.6-3.2-4.1-3.3-6.1c0-4.8,7.4-7.5,12.9-7.5c3.8,0,6,1.5,7.5,5.7
			l4.6,13.1l4.4-13.4C532.67,141.45,533.87,140.05,537.77,139.95z"/>
	</g>
	<g class="st3">
		<path class="st4" d="M145.37,224.15c0.8,1.1,1.7,3.6,1.7,5.5c0.1,8.6-3.2,10.9-9.9,11.3c0,3.3-0.2,11.6-0.5,18.6
			c-0.1,4.2-0.3,8.7-0.4,13.6c-0.3,5.1-4.5,7-10.6,7c-6.7,0-7-1.6-7-10.9c0-5.3,0.1-12,0.1-17.6l0.2-9.9c-8.1,0.1-9.6-1-9.7-4
			c-0.1-8,2.9-12.9,6.2-13.4c2.9-0.3,5.7-0.5,13.5-0.5C137.27,223.65,141.57,223.85,145.37,224.15z"/>
		<path class="st4" d="M181.37,278.45c-2.9,0.6-6.8,0.9-14,0.9c-2.9,0-4.8,0-6.7-0.3c-4.6-0.5-9.7-3.7-9.7-7.3
			c0-5.2,0-13.6,0.3-20.6c0.1-4.1,0.1-8.4,0.2-12.8c-1.2-2.9-1.5-4.9-1.5-7.9c0-4.6,2.4-6.9,12.4-6.9c5.6,0,20.9,0.2,24.6,0.1
			c1.1,1.1,1.8,3.9,1.8,5.9c0,5.8-2.5,8.2-7.4,8.5c-2.2,0.3-8.5,0.5-13.4,0.5l-0.2,9.6c4.5-0.4,13.9-0.5,15.3-0.5
			c0.7,0.9,1.2,2.3,1.2,3.8c0,5.3-2.1,8-5.4,8.3c-1.4,0.3-5.9,0.1-11.2,0.5l-0.1,5.8h18c0.8,1.1,1.2,2.2,1.2,3.7
			C186.77,274.95,184.57,277.95,181.37,278.45z"/>
		<path class="st4" d="M224.27,278.15c-2.9,0.6-6.8,0.9-14,0.9c-2.9,0-4.8,0-6.7-0.3c-4.6-0.5-9.7-3.7-9.7-7.3
			c0-5.2,0-13.6,0.3-20.6c0.1-4.1,0.1-8.4,0.2-12.8c-1.2-2.9-1.5-4.9-1.5-7.9c0-4.6,2.4-6.9,12.4-6.9c5.6,0,20.9,0.2,24.6,0.1
			c1.1,1.1,1.8,3.9,1.8,5.9c0,5.8-2.5,8.2-7.4,8.5c-2.2,0.3-8.5,0.5-13.4,0.5l-0.2,9.6c4.5-0.4,13.9-0.5,15.3-0.5
			c0.7,0.9,1.2,2.3,1.2,3.8c0,5.3-2.1,8-5.4,8.3c-1.4,0.3-5.9,0.1-11.2,0.5l-0.1,5.8h18c0.8,1.1,1.2,2.2,1.2,3.7
			C229.67,274.75,227.47,277.65,224.27,278.15z"/>
		<path class="st4" d="M265.47,224.35c2-1.4,3.7-1.9,6.5-1.9c5,0,8.2,1.9,8.2,6.7c0.1,8.9,0.2,35.6-1.4,43.9
			c-0.7,4.5-3.5,6.1-8.8,6.2c-5.2,0-5.6-2.7-6.2-10c-4.1-6.9-8-13.7-12.2-20.3c0.1,7.5-0.1,17.9-0.9,23.6c-0.5,4.5-3.3,6.8-8.3,6.8
			c-2.4,0-4.2-0.7-4.8-2.3c0-7-0.4-25.7-0.5-39.8c-0.8-2.5-1.5-5.5-1.5-7.4c0-4,4.5-7.1,12.5-7.1c3.8,0,5.7,0.8,6.7,2.3
			c2.3,3.1,7.9,13.3,10.5,18.1C265.47,236.75,265.47,227.05,265.47,224.35z"/>
		<path class="st4" d="M297.37,225.15c3.6-2,8.9-3.3,14.6-3.3c6.6,0,9.7,2.7,10.2,6.9c1.3,10.3,3.9,26.6,6.9,36.9
			c2.3,1.7,3.2,2.9,3.2,5.1c0,5.7-7.2,8.1-14.7,8.2c-4.4,0-5.6-2.6-7-10.5c-2.5,0.3-6.4,0.4-10.6,0.4c-0.4,1.6-1.2,8-1.2,9.1
			c-0.7,0.7-2.3,1.3-4.7,1.3c-3.7,0-9.2-1.3-9.3-6.6C284.97,269.85,290.27,244.15,297.37,225.15z M306.17,238.15
			c-1.2,4.5-3.2,13.7-4.4,20.2c1.6,0,5.6-0.1,7.5-0.5C308.37,253.85,307.07,243.85,306.17,238.15z"/>
		<path class="st4" d="M359.67,253.85c2-1.4,4.6-2.1,8.1-2.1c5.8,0,7.2,1.9,7.2,6.6c0,4.1-0.2,9.6-0.7,13.7
			c-0.5,4.7-7.8,6.6-16.8,6.6c-14.1,0.1-22.5-5.8-22.7-25.4c-0.1-16.7,5-24.3,13-26.5c4.1-3.7,7.5-5.1,14.9-5.2
			c7,0,10.7,3.1,10.7,9.2c0,3.4-1.6,6.6-4.5,8.6c-4.4-1.6-7.9-2.6-14.5-2.6c-1.4,4.3-2.3,10.5-2.3,13.7c0.1,10.7,1.8,14.6,7.6,16.7
			L359.67,253.85z"/>
		<path class="st4" d="M411.47,276.85c-2.9,0.6-6.8,0.9-14,0.9c-2.9,0-4.8,0-6.7-0.3c-4.6-0.5-9.7-3.7-9.7-7.3
			c0-5.2,0-13.6,0.3-20.6c0.1-4.1,0.1-8.4,0.2-12.8c-1.2-2.9-1.5-4.9-1.5-7.9c0-4.6,2.4-6.9,12.4-6.9c5.6,0,20.9,0.2,24.5,0.1
			c1.1,1.1,1.8,3.9,1.8,5.9c0,5.8-2.5,8.2-7.4,8.5c-2.2,0.3-8.5,0.5-13.4,0.5l-0.2,9.6c4.5-0.4,13.9-0.5,15.3-0.5
			c0.7,0.9,1.2,2.3,1.2,3.8c0,5.3-2.1,8-5.4,8.3c-1.4,0.3-5.9,0.1-11.2,0.5l-0.1,5.8h18c0.8,1.1,1.2,2.2,1.2,3.7
			C416.77,273.45,414.67,276.35,411.47,276.85z"/>
		<path class="st4" d="M454.37,257.35c4.6,5.8,5.3,6,9.3,6.4c0.5,0.9,0.8,2.3,0.9,3.4c0,6.1-4,11.1-10.7,11.2c-4.7,0-6-1.5-8.2-5.6
			c-2.8-5-4.3-7.3-6.3-8.5l-0.5,6.7c-0.5,5.5-2.2,7-8.3,7c-6.8,0-7.3-1.6-7.3-10.9c0-5.3,0-12.7,0.3-19.1c0.1-3.7,0.2-7.6,0.2-11.4
			c-0.5-2.2-0.8-4.2-0.8-6.2c0-4.1,2.3-5.9,12.2-6.8c4.2-1.7,7.6-2.5,12.6-2.6c11.1-0.1,15.6,6.5,15.6,15.8
			C463.47,245.35,460.77,250.05,454.37,257.35z M439.67,251.95c1.5,0,5,0.6,6.2,1.1c1.5-3.7,2.3-7.2,2.3-10.5c0-5.1-1.9-7.5-7.8-8
			L439.67,251.95z"/>
		<path class="st4" d="M533.67,259.15c0.1,9.8-5,18.4-21.1,18.5c-6.7,0-12.4-1-15.3-1.8c-4.6-1.6-5-3.9-5.1-12.1
			c0-5.3,0-12,0.3-17.8c0.1-3.2,0.2-6.5,0.2-9.9c-0.7-2.2-0.8-4.2-0.8-6.2c0-4.1,2.3-5.9,12.2-6.8c4.2-1.7,7.6-2.5,12.6-2.6
			c11.3-0.1,15.6,6.4,15.6,13.9c0,5.6-2.5,9.5-5.8,14.4C531.97,251.85,533.27,254.35,533.67,259.15z M507.87,265.05
			c1.9,0.8,4.7,1.4,6.6,1.4c2.1,0,4.1-0.2,4.1-4.6c0-2.8-1-4.7-10.4-5.9L507.87,265.05z M508.57,245.85c1.2,0,5.9-0.1,7.6,0.2
			c0.8-2.9,0.9-4.4,0.9-6.3c0-3.5-1.8-5.7-7.7-6.2L508.57,245.85z"/>
		<path class="st4" d="M539.17,233.65c-0.5-2.4-0.9-4.2-0.9-6.2c0-4.1,4.5-7.2,12.5-7.2c5.3,0,6.1,2.3,6.1,5.3
			c0,5.4-0.6,13.5-0.6,22.5c0.1,12.9,1.8,14.8,7.9,16c0-6.6,0.2-30.9,0.2-34.5c0-5.4,0.2-9.2,7.9-9.3c3.8,0,7.4,1,8.7,2.6
			c0,7.1-0.3,27.4-0.2,43.1c0,6.7-4,8.2-13.5,8.8c-2.6,1.6-6.4,2.5-11.3,2.6c-13.7,0.1-17.4-9-17.5-27.8
			C538.47,242.25,538.77,239.85,539.17,233.65z"/>
		<path class="st4" d="M620.67,219.75c5.7,0,8.6,2.6,9.2,6.5l-13.8,29.5v12.9c0,4-2.8,8.2-12.9,8.3c-4.8,0-6.1-1.3-6.2-7.5
			c0-2.6,0.1-5.9,0-8.3c0.1-1.6,0.1-3,0.2-4.6l-9.1-23c-2.2-1.6-3.2-4.1-3.3-6.1c0-4.8,7.4-7.5,12.9-7.5c3.8,0,6,1.5,7.5,5.7
			l4.6,13.1l4.4-13.4C615.67,221.25,616.87,219.75,620.67,219.75z"/>
	</g>
	<g class="st3">
		<path class="st4" d="M122.57,326.25c-2.8,0-4.5-0.5-5.6-1c-1.2-6.1-2-7.4-5-8.3c-1.3,4.4-1.8,14.4-1.7,17.6
			c0.1,9.5,1.9,12,14.6,11.9c0.7,0,3.4-0.1,4.6-0.1c0.5,0.8,0.8,2.6,0.9,3.4c0,6.5-5,10.7-14.6,10.8c-14.2,0.1-22.5-5-22.6-23
			c-0.1-15.7,2.8-26,12.3-28.8c4.2-3.4,8.8-5.2,14-5.3c8-0.1,11.6,4.2,11.7,10.5C130.97,321.85,128.07,326.25,122.57,326.25z"/>
		<path class="st4" d="M165.47,344.05c1.1,0.9,1.8,3.1,1.8,5c0.1,7.9-4.2,10.1-8.8,10.4c-2.9,0.3-6.6,0.5-10.5,0.5
			c-5.7,0-12.2-3.2-12.3-7c-0.1-19.7,0.2-21.5,0.1-36.4c-0.5-2.2-0.9-4.2-0.9-6.2c0-4.1,4.5-7.1,12.5-7.1c5.8,0,6.5,1.6,6.6,4.3
			c0,7.1-0.4,21.2-0.8,36.8C156.57,344.35,163.57,344.05,165.47,344.05z"/>
		<path class="st4" d="M194.87,302.95c10.7-0.1,18.6,7.6,18.7,23.9c0.1,18.7-6.3,33.4-22.9,33.5c-12.8,0.1-20.4-5.4-20.6-24.9
			c-0.1-13.4,3.1-20.3,9.1-24.2C182.47,305.15,188.77,303.05,194.87,302.95z M188.07,316.65c-0.8,4.1-0.9,12.1-0.8,15.1
			c0.1,12.9,2,15,8.5,16.2c1.3-6.3,1.6-13.2,1.5-16.3C197.17,321.85,194.27,318.65,188.07,316.65z"/>
		<path class="st4" d="M252.57,303.75c0.8,1.1,1.7,3.6,1.7,5.5c0.1,8.6-3.2,10.9-9.9,11.3c0,3.3-0.2,11.6-0.5,18.6
			c-0.1,4.2-0.3,8.7-0.4,13.6c-0.3,5.1-4.5,7-10.6,7c-6.7,0-7-1.6-7-10.9c0-5.3,0.1-12,0.1-17.6l0.2-9.9c-8.1,0.1-9.6-1-9.7-4
			c-0.1-8,2.9-12.9,6.2-13.4c2.9-0.3,5.7-0.5,13.5-0.5C244.37,303.25,248.77,303.45,252.57,303.75z"/>
		<path class="st4" d="M283.07,304.85c2.2-1.4,5-2.4,9.1-2.4c6.6,0,8.3,2.1,8.3,7.6c0,7.1-0.2,18.6-0.9,40.3
			c-0.3,5.5-2.9,8.6-9.1,8.7c-6.4,0-7.3-1.6-7.3-10.9l-0.1-8.7c-2,0.3-5.7,0.7-8.4,0.7l-0.4,12.3c-0.3,4.6-4.4,7.1-10.8,7.1
			c-2.9,0-5-0.7-5.8-2.4c0-5.3-0.1-15.4,0.1-24.4c0.1-5.3,0-10.8,0.1-16.6c-0.5-2.2-0.8-4.2-0.8-6.2c0-4,4.5-7.1,12.5-7.1
			c3.3,0,5.9,1.2,5.9,4.8c0,3.4,0,8.2-0.5,20.6l8.1-0.9L283.07,304.85z"/>
		<path class="st4" d="M338.17,357.75c-2.9,0.6-6.8,0.9-14,0.9c-2.9,0-4.8,0-6.7-0.3c-4.6-0.5-9.7-3.7-9.7-7.3
			c0-5.2,0-13.6,0.3-20.6c0.1-4.1,0.1-8.4,0.2-12.8c-1.2-2.9-1.5-4.9-1.5-7.9c0-4.6,2.4-6.9,12.4-6.9c5.6,0,20.9,0.2,24.5,0.1
			c1.1,1.1,1.8,3.9,1.8,5.9c0,5.8-2.5,8.2-7.4,8.5c-2.2,0.3-8.5,0.5-13.4,0.5l-0.2,9.6c4.5-0.4,13.9-0.5,15.3-0.5
			c0.7,0.9,1.2,2.3,1.2,3.8c0,5.3-2.1,8-5.4,8.3c-1.4,0.3-5.9,0.1-11.2,0.5l-0.1,5.8h18c0.8,1.1,1.2,2.2,1.2,3.7
			C343.57,354.25,341.37,357.15,338.17,357.75z"/>
		<path class="st4" d="M368.67,301.75c11-0.1,16.2,5.5,16.2,11.1c0,6.6-3.8,9.3-8.4,9.4c-1.6,0-2.5-0.2-3.6-0.5
			c-0.9-3.8-2.6-5.7-7.6-7.3c-0.4,0.9-0.6,2.4-0.6,3.6c0,2.7,0.5,3.3,12.2,10.7c6.6,4,8.9,7.1,8.9,13.1c0.1,8.8-6.5,17-19.9,17.1
			c-10.9,0.1-18.3-3.2-18.3-11.9c0-5.3,3.2-8.7,7.6-8.8c0.7,0,1.6,0,2.4,0.3c4.2,7.4,6.6,9.2,9.6,9.2c2.1,0,2.9-1.2,2.9-2.4
			c0-1.3-1.6-2.8-12.4-10.2c-5.8-4.1-7.8-7.9-7.9-13.6c0-5,1.9-10.1,6-13.1C358.57,303.75,361.67,301.85,368.67,301.75z"/>
		<path class="st4" d="M437.67,301.35c10.7-0.1,18.6,7.6,18.7,23.9c0.1,18.7-6.3,33.4-22.9,33.5c-12.8,0.1-20.4-5.4-20.6-24.9
			c-0.1-13.4,3.1-20.3,9.1-24.2C425.27,303.45,431.57,301.35,437.67,301.35z M430.77,315.05c-0.8,4.1-0.9,12.1-0.8,15.1
			c0.1,12.9,2,15,8.5,16.2c1.3-6.3,1.6-13.2,1.5-16.3C439.97,320.25,437.07,316.95,430.77,315.05z"/>
		<path class="st4" d="M491.07,303.15c2-1.4,3.7-1.9,6.5-1.9c5,0,8.2,1.9,8.2,6.7c0.1,8.9,0.2,35.6-1.4,43.9
			c-0.7,4.5-3.5,6.1-8.8,6.2c-5.2,0-5.6-2.7-6.2-10c-4.1-6.9-8-13.7-12.2-20.3c0.1,7.5-0.1,17.9-0.9,23.6c-0.5,4.5-3.3,6.8-8.3,6.8
			c-2.4,0-4.3-0.7-4.8-2.3c0-7-0.4-25.7-0.5-39.8c-0.8-2.5-1.5-5.5-1.5-7.4c0-4,4.5-7.1,12.5-7.1c3.8,0,5.7,0.8,6.7,2.3
			c2.3,3.1,7.9,13.3,10.5,18.1C491.07,315.55,491.17,305.85,491.07,303.15z"/>
		<path class="st4" d="M560.77,302.95c2.2-1.4,5-2.4,9.1-2.4c6.6,0,8.3,2.1,8.3,7.6c0,7.1-0.2,18.6-0.9,40.3
			c-0.3,5.5-2.9,8.6-9.1,8.7c-6.4,0-7.3-1.6-7.3-10.9l-0.1-8.7c-2,0.3-5.7,0.7-8.4,0.7l-0.4,12.3c-0.3,4.6-4.4,7.1-10.8,7.1
			c-2.9,0-5-0.7-5.8-2.4c0-5.3-0.1-15.4,0.1-24.4c0.1-5.3,0-10.8,0.1-16.6c-0.5-2.2-0.8-4.2-0.8-6.2c0-4,4.5-7.1,12.5-7.1
			c3.3,0,5.9,1.2,5.9,4.8c0,3.4,0,8.2-0.5,20.6l8.1-0.9L560.77,302.95z"/>
		<path class="st4" d="M586.17,314.45c-0.7-2.5-1.2-5.1-1.2-7c0-4.1,4.5-7.2,12.5-7.2c5.9,0,6.4,1.6,6.5,4.3l-0.3,37.7
			c2,1.1,3,2.4,3,4.1c0,7-5.3,10.9-12.6,11c-6.8,0-8.1-1.6-8.2-10.9c0-5.2,0.1-13.3,0.1-19.8
			C586.07,322.65,586.07,318.65,586.17,314.45z"/>
		<path class="st4" d="M629.67,299.95c11-0.1,16.2,5.5,16.2,11.1c0,6.6-3.8,9.3-8.4,9.4c-1.6,0-2.5-0.2-3.6-0.5
			c-0.9-3.8-2.6-5.7-7.6-7.3c-0.4,0.9-0.6,2.4-0.6,3.6c0,2.7,0.5,3.3,12.2,10.7c6.6,4,8.9,7.1,8.9,13.1c0.1,8.8-6.5,17-19.9,17.1
			c-10.9,0.1-18.3-3.2-18.3-11.9c0-5.3,3.2-8.7,7.6-8.8c0.7,0,1.6,0,2.4,0.3c4.2,7.4,6.6,9.2,9.6,9.2c2.1,0,2.9-1.2,2.9-2.4
			c0-1.3-1.6-2.8-12.4-10.2c-5.8-4.1-7.8-7.9-7.9-13.6c0-5,1.9-10.1,6-13.1C619.57,301.95,622.67,300.05,629.67,299.95z"/>
	</g>
	<g class="st3">
		<path class="st4" d="M294.47,382.55c10.7-0.1,18.6,7.6,18.7,23.9c0.1,18.7-6.3,33.4-22.9,33.5c-12.8,0.1-20.4-5.4-20.6-24.9
			c-0.1-13.4,3.1-20.3,9.1-24.2C282.07,384.75,288.37,382.65,294.47,382.55z M287.57,396.35c-0.8,4.1-0.9,12.1-0.8,15.1
			c0.1,12.9,2,15,8.5,16.2c1.3-6.3,1.6-13.2,1.5-16.3C296.77,401.55,293.87,398.25,287.57,396.35z"/>
		<path class="st4" d="M370.17,384.15c1.1-0.8,3.2-1.9,5.4-1.9c5.8,0,9.1,1.8,9.2,9.7c0,4.5-2.7,19.6-9.2,37.4
			c-1.6,4.2-3.2,6-10.3,7.7c-2.5,1.6-4.9,2.1-8.1,2.1c-2.9,0-4.6-0.7-5.7-6c-0.4-2.2-2.1-10.8-2.6-13.1c-1.9,7.2-4.1,13.3-5.7,15.5
			c-1.8,2.4-6.6,3.9-11.3,3.9c-6.4,0-7.7-3.2-8.9-10.1c-1.7-10.5-2.6-21-4.9-31.8c-1.8-2.1-2.6-4.1-2.6-6.6c0-6.1,5.7-8.5,13.1-8.6
			c3.7,0,5.6,1.5,6.8,8.4c0.3,2,1,9.8,1.9,17.1c0.4,4.2,0.9,9,1.3,14.1l5.7-20.3c-1.4-6.1-1.7-7.9-1.7-10.8c0-5.1,4.6-8.3,11-8.4
			c4.2,0,5.1,3.1,6.5,10.8c0.5,4.2,4,22.7,4.6,28.5C368.77,404.95,369.87,390.15,370.17,384.15z"/>
		<path class="st4" d="M418.57,383.95c2-1.4,3.7-1.9,6.5-1.9c5,0,8.2,1.9,8.2,6.7c0.1,8.9,0.2,35.6-1.4,43.9
			c-0.7,4.5-3.5,6.1-8.8,6.2c-5.2,0-5.6-2.7-6.2-10c-4.1-6.9-8-13.7-12.2-20.3c0.1,7.5-0.1,17.9-0.9,23.6c-0.5,4.5-3.3,6.8-8.3,6.8
			c-2.4,0-4.3-0.7-4.8-2.3c0-7-0.4-25.7-0.5-39.8c-0.8-2.5-1.5-5.5-1.5-7.4c0-4,4.5-7.1,12.5-7.1c3.8,0,5.7,0.8,6.7,2.3
			c2.3,3.1,7.9,13.3,10.5,18.1C418.47,396.35,418.57,386.65,418.57,383.95z"/>
		<path class="st4" d="M472.07,394.65c0.1,8.3-3.7,11.3-16.1,16.8c-0.5,1.6-1,3.5-1.4,5.5c-1.1,0.5-2.2,0.7-3.5,0.7
			c-4.5,0-7.9-5.1-7.9-9.7c0-2.5,1.6-4.2,5.3-5.5c6.7-2.8,7.8-3.2,7.8-4.5c0-2.3-3.8-5-12.6-6.1c-1.3-1.3-1.8-3.2-1.8-5.2
			c0-4.6,3.8-8.4,11.7-8.5C464.37,378.15,471.97,386.75,472.07,394.65z M442.37,430.15c0-6.1,2.9-9.1,8.4-9.2c5.4,0,9.2,3.9,9.3,8.4
			c0,3.3-1.2,5.9-3.4,8.5c-1.1,0.3-3.5,0.7-5.8,0.8C443.97,438.75,442.37,434.15,442.37,430.15z"/>
	</g>
</g>
</svg>
