<?xml version="1.0" encoding="utf-8"?>
<!-- Generator: Adobe Illustrator 23.0.2, SVG Export Plug-In . SVG Version: 6.00 Build 0)  -->
<svg version="1.1" id="Layer_1" xmlns="http://www.w3.org/2000/svg" xmlns:xlink="http://www.w3.org/1999/xlink" x="0px" y="0px"
	 viewBox="0 0 912 709" style="enable-background:new 0 0 912 709;" xml:space="preserve">
<style type="text/css">
	.st0{opacity:0.1;fill:#007CC7;}
	.st1{fill:#AFC7D7;}
	.st2{opacity:0.48;fill:#99AFBC;}
	.st3{fill:#99AFBC;}
	.st4{opacity:0.22;}
	.st5{opacity:0.72;}
	.st6{opacity:0.73;}
	.st7{opacity:0.22;fill:#99AFBC;}
	.st8{opacity:0.08;fill:#99AFBC;}
	.st9{fill:#DDD466;}
	.st10{fill:#FBD5AF;}
	.st11{fill:#108C85;}
	.st12{fill:#FFF88E;}
	.st13{opacity:0.63;fill:#FFFFFF;}
	.st14{fill:#422645;}
	.st15{opacity:0.52;fill:#BF79A4;}
	.st16{opacity:0.52;fill:#007CC7;}
	.st17{opacity:0.52;fill:#FFCC4D;}
	.st18{clip-path:url(#XMLID_6_);}
	.st19{fill:#FFCC4D;}
	.st20{fill:#EDA292;}
	.st21{clip-path:url(#XMLID_7_);}
	.st22{fill:#FFFFFF;}
	.st23{fill:#FFEBD4;}
	.st24{fill:#C7725A;}
	.st25{opacity:0.59;fill:#8B4C3F;}
	.st26{fill:#F5B98F;}
	.st27{fill:#FE7064;}
	.st28{fill:#32373C;}
	.st29{fill:#33383D;}
	.st30{fill:#A50E0E;}
	.st31{fill:#F29542;}
	.st32{clip-path:url(#XMLID_8_);}
	.st33{fill:#6E439D;}
	.st34{fill:none;stroke:#D6B6B0;stroke-width:0.9977;stroke-miterlimit:10;}
	.st35{fill:#8B4C3F;}
	.st36{clip-path:url(#XMLID_9_);fill:#808080;}
	.st37{fill:#072439;}
</style>
<path class="st0" d="M910.57,306.48c-4.86,43.52-21.51,67.73-41.65,84.13c-34.23,27.88-78.51,33.19-92.05,72.4
	c-21.51,62.29,31.06,73.06,36.98,98.75c0.62,2.69,1.01,5.3,1.18,7.81c0.01,0.06,0.01,0.12,0.02,0.19c0.02,0.41,0.04,0.82,0.06,1.21
	v0.38c0.01,0.27,0.02,0.53,0.02,0.79c0,0.19,0,0.37-0.01,0.55c0.01,0.09,0.01,0.19,0,0.27c0,0.29-0.01,0.56-0.02,0.83
	c0,0.11-0.01,0.22-0.02,0.33c0,0.14-0.01,0.29-0.02,0.43c-0.01,0.25-0.03,0.51-0.05,0.76c-8.75,115.45-530.77,30.3-709.55-2.31
	C17.95,557.04-26.91,458.44,19.03,382.27c0.69-1.14,1.39-2.29,2.11-3.45c72.37-115.37,158-81.28,195.45-210.17
	C254.05,39.77,435.01,1.01,614.93,0.66c179.91-0.36,140.47,111.35,136.5,168C747.46,225.29,923.67,188.99,910.57,306.48z"/>
<g>
	<path class="st1" d="M177.5,598.98c3.83,0.94,7.1,1.68,9.27,2.25c12.86,3.36,23.83,5.8,37.13,5.12c8.77-0.45,16.41-0.45,24.91-2.48
		c3.45-0.82,6.36-3.47,9.96-2.64c1.14,0.26,1.06,3.79,2.19,4.1c3.64,0.99,42.07,9.72,41.66,11.08c0,0,0.33-1.11,0.33-1.11
		c7.02,1.94,3.33,1.87,4.23,2.66c1.45-0.01,1.5-0.62,2.65-0.77c1.14-0.13,3.43,0.1,9.26,2.07c-1.32,0.75,1.23,1.71,3.95,2.77
		c2.72,1.05,5.65,2.2,5.07,3.1c5.43,1.97,8.35,1.89,13.93,4.33c2.91,1.77,0.47,1.59-3.1,0.74c-3.56-0.85-8.21-2.33-9.8-3.14
		c-7.76-2.95,1.4-0.49-1.71-1.68c-2.55-0.76-5.09-1.52-7.63-2.23c3.93,1.9,11.82,5.57,10.45,6.06c7.75,2.57-5.7-3.31,2.83-0.54
		l4.82,2.47c8.65,2.79-1.17-2.15,10,1.85c-3.92-0.95-0.91,0.21,2.95,1.72c3.86,1.52,8.68,3.3,8.07,3.89
		c0.57-0.81,5.72,0.9,11.29,2.47c5.55,1.59,11.53,2.97,12.98,2.43c-2.12-0.54-4.21-1.21-6.29-1.85l1.2,1.15
		c-6.96-1.63-12.76-2.88-19.48-5.51c5.61,1.15-1.27-2.09,5.18-0.62c6.07,1.34,6.81,1.75,6.2,2c-0.61,0.25-2.54,0.21-1.7,0.46
		c1.63,0.32,3.29,0.59,4.93,0.89c1.66,0.25,3.3,0.53,4.97,0.75c-2.12-0.8-4.22-1.61-6.28-2.49c7.47,1.82,17.86,3.94,28.42,5.21
		c3.87,0.75,5.71,1.01,6.42,1.25c0.72,0.22,0.33,0.32-0.21,0.41c-1.06,0.18-2.71,0.31,2.93,1.25c2.55-0.01,3.52-0.27,4.75-0.36
		c0.61-0.05,1.29-0.09,2.27-0.09c0.97,0.02,2.24,0.04,4.03,0.07c-1.93-0.24-3.65-0.27-5.23-0.2c-1.58,0.06-3.03,0.19-4.38,0.1
		c-0.85-0.37-0.46-0.51,0.57-0.59c1.04-0.09,2.73-0.1,4.51-0.11c0.89-0.01,1.8-0.01,2.65-0.02c0.86-0.04,1.66-0.09,2.35-0.14
		c1.37-0.12,2.24-0.29,2.06-0.57c2.92,0.45,2.38,0.93,0.06,1.42c6.03-0.23,11.9-0.63,16.85-0.8c4.94-0.24,8.98-0.2,11.3,0.23
		l4.93-2.08c10.13-1.25,6.75-0.41,2.94,0.55c-1.9,0.49-3.91,0.97-4.37,1.23c-0.46,0.26,0.65,0.41,4.96-0.03
		c7.1-0.87,13.96-2.29,16.87-3.48c-2.02,0.38-4.02,0.78-6.04,1.13c2.24-0.82,3.22-1.38,4.57-1.95c1.34-0.58,3.04-1.17,6.61-2.24
		c5.21-0.99,2.68,0.58,8.71-1.69c12.69-2.54,8.55-0.42,5.27,1.54c1.18-0.34,2.44-0.68,3.69-1.03c4.25-1.19,8.44-2.51,8.99-3.17
		c0.14,0.21-0.12,0.71-1.28,1.41c-0.49,0.29-1.14,0.62-1.98,0.98c-5.55,0.78-6.5,1.35-6.67,1.78c-0.16,0.43,0.52,0.64-1.91,0.43
		c-0.78,0.19-1.56,0.37-2.34,0.55c-0.2,0.14-0.38,0.28-0.52,0.41c4.64-0.89,4.8-0.42,3.79,0.31c1.34-0.58,2.69-1.18,4.03-1.77
		l3.6,0.45c4.12-0.99,6.43-2.95,8.93-2.9c3.24-0.44,1.18,0.72,0.17,1.44c-0.5,0.36-0.73,0.61,0.11,0.49
		c0.85-0.13,2.77-0.57,6.61-1.81c4.1-1.37,7.08-2.64,9.39-3.81c1.15-0.59,2.14-1.12,3.02-1.65c0.88-0.54,1.65-1.04,2.38-1.52
		c2.91-2.01,5.15-3.6,10.51-6.92c-0.66,0.18-1.64,0.71-2.87,1.44c-1.24,0.66-2.73,1.58-4.43,2.44c3.15-2.45-3.16,0.56,2.36-3.16
		c1.96-0.42,5.73-2.41,9.85-5.49c2.06-1.53,4.18-3.37,6.17-5.38c2.01-2,3.87-4.17,5.39-6.19c-1.05,2.51,3.44-2.34,1.84,0.44
		c3-4.29,4.96-8.06,5.45-9.93c-2.55,3.75-3.49,4.76-3.27,4.15c0.2-0.59,1.38-2.71,2.48-4.83c1.11-2.14,2.15-4.21,2.48-5.14
		c0.32-0.9-0.06-0.77-2.01,1.88c1.7-2.83,3.04-4.84,4.25-6.42c0.6-0.79,1.16-1.46,1.69-2.06c0.55-0.59,1.1-1.09,1.61-1.58
		c0.52-0.48,1.01-0.94,1.49-1.4c0.49-0.45,0.94-0.91,1.52-1.32c1.1-0.84,2.24-1.74,3.54-2.88c-0.01,0.3-2.09,2.72-3.22,4.21
		c-0.49,0.79-0.78,1.34-0.56,1.24c0.24-0.09,0.9-0.88,2.73-2.48c0.84-1.1,1.42-1.94,1.83-2.56c0.46-0.58,0.7-0.97,0.79-1.22
		c0.19-0.5-0.23-0.45-0.72-0.34c-0.97,0.2-2.26,0.66,0.67-2.94l-2.98,2.3l-2.74,2.5c-0.47-0.09-0.16-0.73,0.59-1.67
		c0.38-0.47,0.84-1.03,1.41-1.6c0.61-0.54,1.28-1.13,1.98-1.72c0.7-0.59,1.42-1.19,2.12-1.78c0.73-0.55,1.48-1.05,2.13-1.52
		c1.31-0.93,2.33-1.69,2.67-2.05c1.07-0.58,1.27-0.61,1.04-0.37c-0.24,0.23-0.9,0.75-1.49,1.34c-1.21,1.15-2.36,2.35-0.19,1.4
		c0.74-0.48,1.37-0.99,2.03-1.4c0.67-0.41,1.28-0.82,1.86-1.21c1.17-0.77,2.14-1.55,3.14-2.19c1.01-0.63,1.95-1.21,2.91-1.75
		c0.96-0.53,1.91-1.05,3.05-1.4c-0.91,0.7-1.38,1.19-1.7,1.51c-0.31,0.33-0.47,0.49-0.65,0.67c-0.34,0.36-0.76,0.75-2.7,2.36
		c1.82-1,3.17-1.74,4.18-2.26c0.99-0.54,1.73-0.76,2.15-0.92c0.88-0.28,0.75-0.02,0.53,0.3c-0.46,0.65-1.28,1.58,4.57-0.84
		c1.84-0.86,2.06-1.26,2.6-1.73c0.27-0.23,0.62-0.49,1.29-0.82c0.33-0.17,0.75-0.36,1.27-0.58c0.54-0.2,1.19-0.41,1.99-0.67
		c-2.06,0.1-2.99,0.09-4.66,0.53c-0.84,0.22-1.87,0.55-3.31,1.08c-1.42,0.56-3.19,1.42-5.61,2.55c1.31-1.49,4.48-3.08,8.35-4.37
		c0.96-0.34,1.92-0.72,2.93-1.04c1.02-0.31,2.04-0.64,3.05-0.98c1.01-0.34,1.99-0.71,2.96-1.08c0.98-0.34,1.92-0.7,2.81-1.1
		c-1.49,0.42-2.36,0.64-2.92,0.78c-0.56,0.15-0.8,0.22-1.07,0.29c-0.53,0.15-1.1,0.37-4.19,1.59c-1.35-0.98-3.84-0.32,1.52-3.59
		c-1.68,0.72-3.13,1.33-4.4,2.08c-1.28,0.74-2.48,1.44-3.78,2.18c-1.32,0.69-2.61,1.58-4.23,2.43c-0.8,0.44-1.68,0.87-2.63,1.35
		c-0.92,0.52-1.93,1.06-3.06,1.62c-0.79,0.03-0.55-0.38,0.25-1.05c0.82-0.65,2.13-1.65,3.67-2.51c1.51-0.9,3.1-1.87,4.29-2.7
		c1.22-0.77,2.02-1.45,1.86-1.88c0.56-0.35,1.23-0.73,2-1.12c0.77-0.39,1.62-0.81,2.59-1.15c1.91-0.71,4.05-1.5,6.28-2.11
		c2.25-0.58,4.5-1.17,6.59-1.58c2.1-0.38,4-0.68,5.46-0.88c2.45-0.87,5.1-1.61,7.79-2.37c1.36-0.32,2.73-0.65,4.1-0.97
		c1.37-0.32,2.73-0.66,4.09-0.9c2.72-0.52,5.35-1.14,7.83-1.58c2.47-0.48,4.76-1.06,6.76-1.55c3.83,0,10.52-0.6,18.14-0.83
		c7.61-0.25,16.14-0.2,23.44,0.47c2.09,0.87,16.69,1.74,9.83,1.99c3.17,0.02,12.12,0.57,9.4-0.3c-1.28,0.16-2.64-0.17-5.27-0.35
		l2.44-0.81c7.03,0.99,15.1,0.46,21.86,1.67c2.14,1-12.84-0.63-8.36,0.72c3.35-0.46,11.71-0.22,20.32,0.24
		c8.61,0.47,17.47,1,21.73,1.55c2.88,0.23,4.47,0.66,5.65,1.07c0.59,0.2,1.07,0.4,1.57,0.56c0.51,0.15,1.04,0.26,1.67,0.31
		c3.42,0,6.81-0.22,10.13-0.57c1.21,0.28,1.43,0.76,3.34,1.04c4.96-0.33,8.1-1.3,10.96-1.97c6.23-0.57,7.62-0.25,6.84,0.31
		c-0.8,0.57-3.86,1.5-6.97,2.42c-2.35,0.23-4.77,0.47-7.22,0.67c-2.61,0.67-5.96,1.13-8.06,1.46c-2.11,0.32-2.95,0.61-0.52,0.99
		c3.91-0.46,3.7-0.96,5.01-1.37c1.5,0.05,2.97,0.06,4.45,0.07c2.14-0.55,6.08-1.38,9.2-2.11c3.13-0.73,5.51-1.33,4.87-1.69
		c2.03-0.11,4.1-0.29,6.14-0.42l1.48-0.1c0.38-0.02,0.79-0.03,1.22-0.04l2.06,0.02c0.84,0.01,1.67,0.01,2.5-0.03
		c3.29-0.12,6.49-1.06,9.08-2.73c2.4-1.5,4.43-3.34,6.14-5.26c-0.98,1.04-1.53,1.4-1.72,1.46c-0.23,0.05-0.03-0.33,0.26-0.84
		c0.58-1.03,1.37-2.59,0.45-1.96c-1.27,1.62-2.77,3.06-4.42,4.3c-1.65,1.23-3.51,2.21-5.51,2.77c2.38-0.76,4.71-2.32,6.71-4.29
		c2.02-1.98,3.72-4.4,4.91-7.01c1.19-2.61,1.87-5.39,2-8.05c0.08-1.33,0-2.63-0.18-3.85c-0.1-0.61-0.2-1.21-0.3-1.8
		c-0.1-0.59-0.25-1.09-0.36-1.61c0.44,0.41,0.73,0.71,0.82,0.34c0.07-0.35,0.03-1.44-0.6-3.54c0.79,3-0.85-0.73-2.7-3.05
		c-0.89-1.2-1.78-2.07-1.97-2.05c-0.23,0.04,0.33,0.9,1.66,3.68c1.27,1.91,2.21,3.95,2.9,6.39c0.71,2.52,0.94,5.39,0.24,8.57
		c-0.55,0.98-0.82,1.05-0.92,0.59c-0.1-0.47-0.01-1.48-0.03-2.78c-0.01-1.3-0.14-2.88-0.56-4.4c-0.23-0.75-0.43-1.53-0.71-2.21
		c-0.29-0.67-0.56-1.31-0.86-1.87c-0.65-1.4-1.48-3.13-2.71-4.81c-1.21-1.7-2.69-3.44-4.39-4.99c-3.37-3.15-7.41-5.71-10.81-7.49
		c-1.99-1.36-3.17-2.44-4.79-3.58c-0.82-0.57-1.73-1.18-2.95-1.79c-1.23-0.59-2.73-1.25-4.7-1.9c2.26,1.33,2.74,1.89,2.2,1.9
		c-0.55,0.03-2.13-0.48-4.12-1.03c-3.7-1.16-8.82-2.52-10.64-2.57c-0.94-0.33-1.89-0.67-2.84-0.98c-0.54-0.19-1.08-0.36-1.6-0.52
		c-4.08-1.32-8.21-2.52-12.39-3.59c1.89,0.36,4.66,1.01,7.41,1.71c1.84,0.46,3.68,0.91,5.24,1.3c1.57,0.37,2.89,0.62,3.69,0.68
		c0.36-0.33-0.07-1.08,0.85-1.3c0.91-0.21,3.21,0.03,8.92,2.08c-3.33-1.45-5.52-2.3-7.04-2.76c-1.51-0.48-2.33-0.65-2.92-0.71
		c-1.19-0.09-1.49,0.21-4.71-0.65l4.74,1.42c-2.25-0.39,1.53,1.54-2.62,0.21c-7.96-2.74-12.7-4.19-16.74-5.62
		c-4.06-1.35-7.46-2.65-12.96-4.25c2.37,1.09-2.87,0.65-5.52,0.24c-10.65-2.63,0.5-1.77-5.91-4.16c-3.92,0.15-11.25-1.19-8.86-0.2
		c-4.29-0.62-2.01-0.62-5.03-1.31c-2.89,0.33-6.16,0.22-12.11-0.56c0.59-0.29,1.52-0.78,7.19,0.25c-6.34-1.24-8.51-2.75-5.62-3.12
		c3.46,0.61,6.91,1.3,10.36,1.94c4.89-0.18-9.67-1.77-9.14-2.54c4.64,0.44,8.03,1.49,11,1.67c-2.79-1.33-11.97-1.77-17.29-2.31
		c-8.36-1.24-5.16-1.73-5.23-2.23c-7.25-0.11-3.16,0.75,1.02,1.69c4.18,0.95,8.48,1.9,1.75,1.73c-2.58,0.18-7.04-0.11-11.97-0.55
		c-4.93-0.47-10.35-0.98-14.83-1.34c3.77,0.99,3.5,1.39,1.15,1.48c-1.18,0.04-2.88,0.01-4.87-0.07c-1.99-0.06-4.26-0.15-6.57-0.25
		c6,0.54,6.73,0.97,7.73,1.32c1,0.35,2.27,0.62,9.35,0.95l0.16,0.98c-2.99-0.31-6.25-0.76-9.51-1.2c-3.26-0.44-6.52-0.81-9.52-1.1
		c1.28-0.15-0.09-0.49,1.89-0.47c-5.97-0.42-11.95-0.71-17.92-1.02l1.87-0.5c-5.51-0.5-11.65-1.05-17.24-1.55
		c-5.59-0.44-10.63-0.78-13.94-0.76c5.33,0.17,9.89,1.35,4.29,1.35c-3.25,0.23-9.14,0.5-14.17,0.21c-2.6-1.25-21.67-1.63-9.58-2.47
		c-7.79,0.07-10.24,0.28-12.62,0.45c-1.19,0.09-2.35,0.18-4.15,0.28c-1.8,0.09-4.23,0.21-7.94,0.39c3.32-0.11,6.64-0.18,9.95-0.23
		c0.99,0.72-4.14,1.75-1.28,2.48c-5.34-0.05-10.68-0.07-16.02-0.05c2.49-0.34,6.32-0.61,6.07-0.79c-7.7-0.05,0.14,0.48-7.12,0.73
		c-0.26,0.02-0.5,0.04-0.74,0.06c-2.56,0.02-5.12,0.06-7.69,0.1c-0.72-0.09-1.33-0.2-1.92-0.32c-1.96-0.4-3.86-0.84-9.94-0.36
		c2.66-0.11,7.4,0.05,4.21,0.55c-5.64,0.13-8.47,0.31-10.24,0.51c-4.87,0.15-9.74,0.33-14.61,0.54c-2.28-0.79-2.97-1.51-10.7-1.35
		l5.99-0.28c-4.22-0.45-8.99-0.51-13.34-0.21c-11.17,1.24-21.35,2.9-31.44,5.16c-3.08,0.7-6.16,1.46-9.25,2.28
		c-5.39,1.05-10.74,2.31-16.01,3.87c-2.87,0.85-5.76,1.86-8.61,2.64c0.71-0.55,1.36-1.21,2.06-1.76
		c-12.75,2.89-19.63,2.46-32.2,0.93c-16.48-2.01-33.93-1.21-50.54-1.41c-58.95-0.69-117.87,11.47-176.46,6.7
		c-14.94-1.22-29.57-4.33-44.62-4.47c-20.2-0.19-43.15,4.63-62.52,10.13c2.84,0.22,5.79,0.06,8.67,0.23
		c-2.6,1.73-5.98,3.78-8.32,5.8c1.49-0.31,3.15-0.3,4.62-0.64c-11.19,3.58-31.03,14.17-28.42,28.64c0.75-0.16,1.67-0.05,2.49-0.27
		c-1.8,4.04,1.53,5.76,5.18,5.07c-0.25,0.33-0.41,0.7-0.48,1.1c3.09,0.4,6.32,0.11,9.36-0.53c-0.58,1.86-0.39,3.52-1.78,5.2
		c0.53,7.75,13.52,8.4,19.23,10.47c-1.88,6.95-18.42,12.26-15.25,20.53c3.48,9.08,36.12,10.94,44.1,13.15
		C139.06,588.76,162.57,595.33,177.5,598.98z"/>
	<path class="st1" d="M210.5,588.64c3.15,0.24,3.71,0.08,3.29-0.25C213.21,588.53,212.24,588.62,210.5,588.64z"/>
	<path class="st1" d="M286.31,603.27c-0.58-0.1-1.14-0.18-1.65-0.23C285.82,603.27,286.63,603.39,286.31,603.27z"/>
	<path class="st1" d="M243.96,588.93c-0.07-0.15-0.24-0.29-0.51-0.43C243.14,588.53,243.24,588.67,243.96,588.93z"/>
	<path class="st1" d="M563.39,604.84c1.73-1.8,2.94-3.26,3.76-4.36c0.83-1.1,1.32-1.85,1.61-2.37c-1.63,2.33-3.6,4.77-5.57,6.9
		L563.39,604.84z"/>
	<path class="st1" d="M620.71,544.88c-0.1,0.06-0.2,0.12-0.29,0.17c0.18-0.08,0.31-0.13,0.49-0.21L620.71,544.88z"/>
	<path class="st1" d="M557.27,611.26c-0.38,0.44-0.81,0.91-0.98,1.23C557.74,611.29,557.73,611.12,557.27,611.26z"/>
	<path class="st1" d="M620.19,543.91c-1.77,0.59-3.99,1.39-5.19,2.06l1.41-0.32l1.44-0.26l2.86-0.51c0.66-0.4,1.34-0.81,2.25-1.32
		C623.34,543.04,621.97,543.32,620.19,543.91z"/>
	<path class="st1" d="M558.6,608.63c-0.38,0.33-0.73,0.62-1.04,0.89c-0.62,0.53-1.08,0.95-1.43,1.28c-0.69,0.66-0.89,0.95-0.81,1.04
		c0.16,0.21,1.41-0.43,1.95-0.58c1.3-1.47,3.47-3.55,5.91-6.25c-1.08,0.9-2.22,1.68-3.34,2.47
		C559.39,607.9,558.98,608.28,558.6,608.63z"/>
	<path class="st1" d="M849.41,528.83c-0.14,0.17-0.31,0.33-0.45,0.5C849.1,529.17,849.25,529.01,849.41,528.83z"/>
	<path class="st1" d="M716.34,534.01c0.36-0.01,0.67-0.02,0.96-0.03C716.84,533.98,716.5,533.99,716.34,534.01z"/>
	<path class="st1" d="M412.39,493.86c0.46-0.22,0.93-0.45,1.44-0.69C413.28,493.42,412.81,493.65,412.39,493.86z"/>
	<path class="st1" d="M306.83,608.41l-0.08,0.25C306.83,608.6,306.85,608.51,306.83,608.41z"/>
	<path class="st1" d="M224.27,585.89c0.42,0.08,0.91,0.17,1.5,0.26C225.32,586.07,224.81,585.98,224.27,585.89z"/>
	<path class="st1" d="M497.63,630.98c-1.75,0.5-3.08,0.94-3.55,1.26c1.46-0.32,2.92-0.65,4.37-0.98c0.42-0.3,0.95-0.62,1.5-0.96
		C499.13,630.54,498.34,630.77,497.63,630.98z"/>
	<path class="st1" d="M500.46,633.26l-1.19,0.12C498.14,633.96,497.7,634.2,500.46,633.26z"/>
	<path class="st1" d="M499.26,633.38c0.76-0.39,1.83-0.94,2.45-1.39c-1.15,0.5-2.3,1-3.45,1.49L499.26,633.38z"/>
	<path class="st1" d="M389.72,506.1c0.42-0.13,0.81-0.26,1.3-0.41C390.52,505.82,390.11,505.96,389.72,506.1z"/>
	<path class="st1" d="M799.77,477.09l-3.95-1.08C797.52,476.51,798.76,476.83,799.77,477.09z"/>
	<path class="st1" d="M629.53,544.31c2.69-0.74,4.88-1.29,6.64-1.83c1.77-0.5,3.17-0.86,4.27-1.24c2.21-0.74,3.35-1.33,4.52-1.85
		c1.17-0.55,2.37-1.09,4.74-1.74c1.19-0.31,2.68-0.58,4.61-0.91c0.96-0.15,2.03-0.34,3.24-0.48c1.21-0.12,2.54-0.25,4.02-0.39
		c-4.04,0.07-8.06,0.35-12.09,0.64c0.84,1.18-7.38,3.03-16.13,5.4l-2.95-0.2c1.44-0.65,3-1.27,4.64-1.89
		c-3.37,0.77-2.57,1.24-6.64,2.11C629.96,542.2,623.24,545.58,629.53,544.31z"/>
	<path class="st1" d="M635.88,539.65c-0.17,0.02-0.39,0.05-0.56,0.08c-0.08,0.03-0.18,0.07-0.28,0.1
		C635.32,539.77,635.55,539.72,635.88,539.65z"/>
</g>
<g>
	<polygon class="st2" points="491.03,128.85 491.03,180.04 229.09,180.04 229.09,126.42 231.71,126.42 231.71,132.5 240.53,132.5 
		240.53,126.72 250.87,126.72 250.87,114.56 259.08,104.22 273.37,104.22 280.06,115.17 280.06,153.48 300.13,153.48 300.13,126.72 
		335.4,126.72 335.4,134.02 345.13,134.02 345.13,127.33 370.98,127.33 370.98,133.11 382.84,133.11 382.84,126.42 385.88,126.42 
		385.88,97.84 391.35,97.84 391.35,93.88 396.22,89.63 407.78,89.63 411.73,93.88 411.73,97.53 416.29,97.53 416.29,126.72 
		419.03,126.72 419.03,140.71 426.02,140.71 426.02,113.04 448.52,113.04 448.52,129.77 456.43,129.77 456.43,106.96 466.16,106.96 
		466.16,116.08 468.53,116.08 468.53,123.38 481.06,123.38 481.06,128.85 	"/>
	<g>
		<path class="st1" d="M494.1,184.22H227.22V19.92H494.1V184.22z M231.97,179.98h257.37V24.17H231.97V179.98z"/>
	</g>
	<path class="st0" d="M398.03,59.34c-1-3.32,1.63-8.41,16.36-7.68c14.73,0.73,18.33-11.82,32.08-12s11.25,11.14,25.32,8.93
		c14.07-2.2,22.38,12.38,6.26,17.17c-16.12,4.79-19.39-2.29-54.18,1.18C402.77,69.03,399.16,63.08,398.03,59.34z"/>
	<path class="st0" d="M315.11,108.92c-1.2-3.98,1.95-10.07,19.59-9.2c17.64,0.87,21.94-14.15,38.41-14.37
		c16.46-0.22,13.47,13.33,30.31,10.69c16.85-2.64,26.79,14.82,7.5,20.56c-19.29,5.73-23.22-2.74-64.86,1.41
		C320.79,120.53,316.46,113.4,315.11,108.92z"/>
	<g>
		<path class="st3" d="M301.91,66.99c0-4.27-10.85-7.74-24.23-7.74c-13.21,0-23.95,3.38-24.23,7.58c0,3.38,0,6.75,0,10.13
			c0,8.24,0,16.48,0,24.72c0,10.29,0,20.57,0,30.86c0,9.52,0,19.03,0,28.55c0,5.92,0,11.85,0,17.77c0,3.09,6.17,2.92,8.74,3.27
			c3.98,0.54,7.99,0.82,12.01,0.94c8.07,0.24,16.15-0.2,24.21-0.65c1.07-0.06,2.23-0.15,3.04-0.86c1.25-1.1,0.43-4.48,0.43-5.98
			c0-7.79,0-15.57,0-23.36c0-9.94,0-19.89,0-29.83c0-9.63,0-19.27,0-28.9c0-6.86,0-13.73,0-20.59c0-1.85,0-3.69,0-5.54
			C301.9,67.24,301.91,67.12,301.91,66.99z"/>
		<path class="st3" d="M301.91,66.99c0,0.13-0.01,0.25-0.03,0.37v6.53c-3.21-2.77-10.14-8.51-22.34-8.08
			c-15.78,0.55-23.77,4.69-26.09,6.87v-5.85h0.01c0.27-4.2,11.01-7.58,24.22-7.58C291.07,59.26,301.91,62.72,301.91,66.99z"/>
		<g class="st4">
			<path class="st3" d="M258.07,97.92v4.05c-0.72,0.22-1.43,0.46-2.13,0.71c-0.41,0.15-0.82,0.31-1.23,0.47
				c-0.18,0.07-0.35,0.14-0.53,0.21c-0.01,0-0.01,0.01-0.02,0.01c0,0-0.01,0-0.01,0c0,0,0,0,0,0c0,0,0,0,0,0c0,0,0,0-0.01,0
				c0,0,0,0,0,0c0,0-0.01,0-0.01,0.01c-0.01,0.01-0.04,0.02-0.06,0.03c-0.01,0-0.01,0-0.02,0.01c0,0,0,0-0.01,0c0,0,0,0,0,0
				c-0.01,0-0.01,0-0.02,0.01c0,0-0.01,0-0.01,0c0,0-0.01,0-0.01,0c-0.11,0.05-0.21,0.1-0.32,0.14v-4.16
				C255.1,98.85,256.57,98.36,258.07,97.92z"/>
			<path class="st3" d="M262.85,96.74v3.98c-0.6,0.13-1.19,0.27-1.78,0.41c-0.88,0.22-1.76,0.46-2.63,0.72v-4.04
				C259.9,97.39,261.37,97.04,262.85,96.74z"/>
			<path class="st3" d="M272.43,95.48v3.89c-0.63,0.05-1.26,0.1-1.89,0.16c-0.6,0.06-1.21,0.12-1.81,0.2
				c-0.35,0.04-0.53,0.06-0.7,0.09V95.9C269.48,95.71,270.96,95.57,272.43,95.48z"/>
			<path class="st3" d="M277.21,95.29v3.87c-0.96,0.01-1.92,0.04-2.88,0.09c-0.51,0.03-1.02,0.06-1.53,0.09v-3.88
				c1.13-0.07,2.27-0.12,3.4-0.15C276.54,95.3,276.88,95.29,277.21,95.29z"/>
			<path class="st3" d="M282,95.38v3.88c-0.11-0.01-0.21-0.01-0.32-0.02c-1.36-0.07-2.73-0.1-4.09-0.09v-3.87
				C279.06,95.27,280.53,95.31,282,95.38z"/>
			<path class="st3" d="M291.57,96.58v3.96c-0.98-0.21-1.97-0.4-2.97-0.56c-0.32-0.05-0.64-0.1-0.96-0.15
				c-0.04-0.01-0.33-0.05-0.49-0.07v-3.9C288.64,96.04,290.11,96.28,291.57,96.58z"/>
			<path class="st3" d="M296.36,97.75v4.04c-0.02,0-0.03-0.01-0.05-0.02c-1.44-0.45-2.89-0.83-4.36-1.15v-3.97
				C293.43,96.96,294.91,97.33,296.36,97.75z"/>
		</g>
		<g class="st5">
			<path class="st3" d="M258.07,103.71v4.05c-0.72,0.22-1.43,0.46-2.13,0.71c-0.41,0.15-0.82,0.31-1.23,0.47
				c-0.18,0.07-0.35,0.14-0.53,0.21c-0.01,0-0.01,0.01-0.02,0.01c0,0-0.01,0-0.01,0c0,0,0,0,0,0c0,0,0,0,0,0c0,0,0,0-0.01,0
				c0,0,0,0,0,0c0,0-0.01,0-0.01,0.01c-0.01,0.01-0.04,0.02-0.06,0.03c-0.01,0-0.01,0-0.02,0.01c0,0,0,0-0.01,0c0,0,0,0,0,0
				c-0.01,0-0.01,0-0.02,0.01c0,0-0.01,0-0.01,0c0,0-0.01,0-0.01,0c-0.11,0.05-0.21,0.1-0.32,0.14v-4.16
				C255.1,104.65,256.57,104.15,258.07,103.71z"/>
			<path class="st3" d="M262.85,102.53v3.98c-0.6,0.13-1.19,0.27-1.78,0.41c-0.88,0.22-1.76,0.46-2.63,0.72v-4.04
				C259.9,103.19,261.37,102.83,262.85,102.53z"/>
			<path class="st3" d="M267.64,101.74v3.91c-0.07,0.01-0.15,0.02-0.25,0.04c-1.39,0.2-2.78,0.45-4.16,0.74v-3.97
				C264.69,102.17,266.16,101.93,267.64,101.74z"/>
			<path class="st3" d="M272.43,101.27v3.89c-0.63,0.05-1.26,0.1-1.89,0.16c-0.6,0.06-1.21,0.12-1.81,0.2
				c-0.35,0.04-0.53,0.06-0.7,0.09v-3.91C269.48,101.51,270.96,101.37,272.43,101.27z"/>
			<path class="st3" d="M277.21,101.08v3.87c-0.96,0.01-1.92,0.04-2.88,0.09c-0.51,0.03-1.02,0.06-1.53,0.09v-3.88
				c1.13-0.07,2.27-0.12,3.4-0.15C276.54,101.09,276.88,101.08,277.21,101.08z"/>
			<path class="st3" d="M286.79,101.6v3.9c-0.5-0.07-1.01-0.12-1.52-0.18c-0.96-0.1-1.93-0.18-2.89-0.24v-3.89
				C283.85,101.28,285.32,101.41,286.79,101.6z"/>
			<path class="st3" d="M296.36,103.54v4.04c-0.02,0-0.03-0.01-0.05-0.02c-1.44-0.45-2.89-0.83-4.36-1.15v-3.97
				C293.43,102.75,294.91,103.12,296.36,103.54z"/>
			<path class="st3" d="M301.15,105.18v4.17c-1.41-0.62-2.81-1.14-4.41-1.65v-4.05C298.23,104.1,299.7,104.61,301.15,105.18z"/>
		</g>
		<g class="st4">
			<path class="st3" d="M258.07,132.75v4.05c-0.72,0.22-1.43,0.46-2.13,0.71c-0.41,0.15-0.82,0.31-1.23,0.47
				c-0.18,0.07-0.35,0.14-0.53,0.21c-0.01,0-0.01,0.01-0.02,0.01c0,0-0.01,0-0.01,0c0,0,0,0,0,0c0,0,0,0,0,0c0,0,0,0-0.01,0
				c0,0,0,0,0,0c0,0-0.01,0-0.01,0.01c-0.01,0.01-0.04,0.02-0.06,0.03c-0.01,0-0.01,0-0.02,0.01c0,0,0,0-0.01,0c0,0,0,0,0,0
				c-0.01,0-0.01,0-0.02,0.01c0,0-0.01,0-0.01,0c0,0-0.01,0-0.01,0c-0.11,0.05-0.21,0.1-0.32,0.14v-4.16
				C255.1,133.69,256.57,133.19,258.07,132.75z"/>
			<path class="st3" d="M262.85,131.57v3.98c-0.6,0.13-1.19,0.27-1.78,0.41c-0.88,0.22-1.76,0.46-2.63,0.72v-4.04
				C259.9,132.23,261.37,131.87,262.85,131.57z"/>
			<path class="st3" d="M272.43,130.31v3.89c-0.63,0.05-1.26,0.1-1.89,0.16c-0.6,0.06-1.21,0.12-1.81,0.2
				c-0.35,0.04-0.53,0.06-0.7,0.09v-3.91C269.48,130.55,270.96,130.41,272.43,130.31z"/>
			<path class="st3" d="M277.21,130.12v3.87c-0.96,0.01-1.92,0.04-2.88,0.09c-0.51,0.03-1.02,0.06-1.53,0.09v-3.88
				c1.13-0.07,2.27-0.12,3.4-0.15C276.54,130.13,276.88,130.12,277.21,130.12z"/>
			<path class="st3" d="M286.79,130.64v3.9c-0.5-0.07-1.01-0.12-1.52-0.18c-0.96-0.1-1.93-0.18-2.89-0.24v-3.89
				C283.85,130.32,285.32,130.45,286.79,130.64z"/>
			<path class="st3" d="M301.15,134.22v4.17c-1.41-0.62-2.81-1.14-4.41-1.65v-4.05C298.23,133.14,299.7,133.65,301.15,134.22z"/>
		</g>
		<g class="st4">
			<path class="st3" d="M258.07,109.5v4.05c-0.72,0.22-1.43,0.46-2.13,0.71c-0.41,0.15-0.82,0.31-1.23,0.47
				c-0.18,0.07-0.35,0.14-0.53,0.21c-0.01,0-0.01,0.01-0.02,0.01c0,0-0.01,0-0.01,0c0,0,0,0,0,0c0,0,0,0,0,0c0,0,0,0-0.01,0
				c0,0,0,0,0,0c0,0-0.01,0-0.01,0.01c-0.01,0.01-0.04,0.02-0.06,0.03c-0.01,0-0.01,0-0.02,0.01c0,0,0,0-0.01,0c0,0,0,0,0,0
				c-0.01,0-0.01,0-0.02,0.01c0,0-0.01,0-0.01,0c0,0-0.01,0-0.01,0c-0.11,0.05-0.21,0.1-0.32,0.14v-4.16
				C255.1,110.44,256.57,109.94,258.07,109.5z"/>
			<path class="st3" d="M267.64,107.53v3.91c-0.07,0.01-0.15,0.02-0.25,0.04c-1.39,0.2-2.78,0.45-4.16,0.74v-3.97
				C264.69,107.96,266.16,107.72,267.64,107.53z"/>
			<path class="st3" d="M272.43,107.06v3.89c-0.63,0.05-1.26,0.1-1.89,0.16c-0.6,0.06-1.21,0.12-1.81,0.2
				c-0.35,0.04-0.53,0.06-0.7,0.09v-3.91C269.48,107.3,270.96,107.16,272.43,107.06z"/>
			<path class="st3" d="M277.21,106.87v3.87c-0.96,0.01-1.92,0.04-2.88,0.09c-0.51,0.03-1.02,0.06-1.53,0.09v-3.88
				c1.13-0.07,2.27-0.12,3.4-0.15C276.54,106.88,276.88,106.87,277.21,106.87z"/>
			<path class="st3" d="M282,106.97v3.88c-0.11-0.01-0.21-0.01-0.32-0.02c-1.36-0.07-2.73-0.1-4.09-0.09v-3.87
				C279.06,106.86,280.53,106.89,282,106.97z"/>
			<path class="st3" d="M286.79,107.39v3.9c-0.5-0.07-1.01-0.12-1.52-0.18c-0.96-0.1-1.93-0.18-2.89-0.24v-3.89
				C283.85,107.07,285.32,107.21,286.79,107.39z"/>
			<path class="st3" d="M291.57,108.16v3.96c-0.98-0.21-1.97-0.4-2.97-0.56c-0.32-0.05-0.64-0.1-0.96-0.15
				c-0.04-0.01-0.33-0.05-0.49-0.07v-3.9C288.64,107.63,290.11,107.87,291.57,108.16z"/>
			<path class="st3" d="M301.15,110.98v4.17c-1.41-0.62-2.81-1.14-4.41-1.65v-4.05C298.23,109.89,299.7,110.4,301.15,110.98z"/>
		</g>
		<g class="st6">
			<path class="st3" d="M258.07,126.07v4.05c-0.72,0.22-1.43,0.46-2.13,0.71c-0.41,0.15-0.82,0.31-1.23,0.47
				c-0.18,0.07-0.35,0.14-0.53,0.21c-0.01,0-0.01,0.01-0.02,0.01c0,0-0.01,0-0.01,0c0,0,0,0,0,0c0,0,0,0,0,0c0,0,0,0-0.01,0
				c0,0,0,0,0,0c0,0-0.01,0-0.01,0.01c-0.01,0.01-0.04,0.02-0.06,0.03c-0.01,0-0.01,0-0.02,0.01c0,0,0,0-0.01,0c0,0,0,0,0,0
				c-0.01,0-0.01,0-0.02,0.01c0,0-0.01,0-0.01,0c0,0-0.01,0-0.01,0c-0.11,0.05-0.21,0.1-0.32,0.14v-4.16
				C255.1,127.01,256.57,126.51,258.07,126.07z"/>
			<path class="st3" d="M267.64,124.1v3.91c-0.07,0.01-0.15,0.02-0.25,0.04c-1.39,0.2-2.78,0.45-4.16,0.74v-3.97
				C264.69,124.53,266.16,124.29,267.64,124.1z"/>
			<path class="st3" d="M277.21,123.44v3.87c-0.96,0.01-1.92,0.04-2.88,0.09c-0.51,0.03-1.02,0.06-1.53,0.09v-3.88
				c1.13-0.07,2.27-0.12,3.4-0.15C276.54,123.45,276.88,123.44,277.21,123.44z"/>
			<path class="st3" d="M282,123.54v3.88c-0.11-0.01-0.21-0.01-0.32-0.02c-1.36-0.07-2.73-0.1-4.09-0.09v-3.87
				C279.06,123.43,280.53,123.46,282,123.54z"/>
			<path class="st3" d="M286.79,123.96v3.9c-0.5-0.07-1.01-0.12-1.52-0.18c-0.96-0.1-1.93-0.18-2.89-0.24v-3.89
				C283.85,123.65,285.32,123.78,286.79,123.96z"/>
			<path class="st3" d="M291.57,124.73v3.96c-0.98-0.21-1.97-0.4-2.97-0.56c-0.32-0.05-0.64-0.1-0.96-0.15
				c-0.04-0.01-0.33-0.05-0.49-0.07v-3.9C288.64,124.2,290.11,124.44,291.57,124.73z"/>
			<path class="st3" d="M301.15,127.55v4.17c-1.41-0.62-2.81-1.14-4.41-1.65v-4.05C298.23,126.46,299.7,126.97,301.15,127.55z"/>
		</g>
		<g class="st4">
			<path class="st3" d="M258.07,148.16v4.05c-0.72,0.22-1.43,0.46-2.13,0.71c-0.41,0.15-0.82,0.31-1.23,0.47
				c-0.18,0.07-0.35,0.14-0.53,0.21c-0.01,0-0.01,0.01-0.02,0.01c0,0-0.01,0-0.01,0c0,0,0,0,0,0c0,0,0,0,0,0c0,0,0,0-0.01,0
				c0,0,0,0,0,0c0,0-0.01,0-0.01,0.01c-0.01,0.01-0.04,0.02-0.06,0.03c-0.01,0-0.01,0-0.02,0.01c0,0,0,0-0.01,0c0,0,0,0,0,0
				c-0.01,0-0.01,0-0.02,0.01c0,0-0.01,0-0.01,0c0,0-0.01,0-0.01,0c-0.11,0.05-0.21,0.1-0.32,0.14v-4.16
				C255.1,149.09,256.57,148.59,258.07,148.16z"/>
			<path class="st3" d="M267.64,146.18v3.91c-0.07,0.01-0.15,0.02-0.25,0.04c-1.39,0.2-2.78,0.45-4.16,0.74v-3.97
				C264.69,146.61,266.16,146.37,267.64,146.18z"/>
			<path class="st3" d="M272.43,145.71v3.89c-0.63,0.05-1.26,0.1-1.89,0.16c-0.6,0.06-1.21,0.12-1.81,0.2
				c-0.35,0.04-0.53,0.06-0.7,0.09v-3.91C269.48,145.95,270.96,145.81,272.43,145.71z"/>
			<path class="st3" d="M282,145.62v3.88c-0.11-0.01-0.21-0.01-0.32-0.02c-1.36-0.07-2.73-0.1-4.09-0.09v-3.87
				C279.06,145.51,280.53,145.54,282,145.62z"/>
			<path class="st3" d="M291.57,146.81v3.96c-0.98-0.21-1.97-0.4-2.97-0.56c-0.32-0.05-0.64-0.1-0.96-0.15
				c-0.04-0.01-0.33-0.05-0.49-0.07v-3.9C288.64,146.28,290.11,146.52,291.57,146.81z"/>
			<path class="st3" d="M301.15,149.63v4.17c-1.41-0.62-2.81-1.14-4.41-1.65v-4.05C298.23,148.54,299.7,149.05,301.15,149.63z"/>
		</g>
		<g class="st4">
			<g>
				<path class="st3" d="M259.34,70.96c0.15,1.34,0.3,2.68,0.45,4.02c-0.7,0.3-1.39,0.62-2.06,0.97c-0.4,0.2-0.79,0.41-1.18,0.63
					c-0.17,0.09-0.33,0.19-0.5,0.28c-0.01,0-0.01,0.01-0.02,0.01c0,0-0.01,0-0.01,0.01c0,0,0,0,0,0c0,0,0,0,0,0c0,0,0,0-0.01,0
					c0,0,0,0,0,0c0,0-0.01,0.01-0.01,0.01c-0.01,0.01-0.03,0.02-0.06,0.04c-0.01,0-0.01,0.01-0.01,0.01c0,0,0,0-0.01,0c0,0,0,0,0,0
					c-0.01,0-0.01,0.01-0.02,0.01c0,0-0.01,0-0.01,0.01c0,0-0.01,0-0.01,0.01c-0.1,0.06-0.2,0.13-0.3,0.19
					c-0.2-1.37-0.41-2.75-0.61-4.12C256.36,72.26,257.83,71.57,259.34,70.96z"/>
				<path class="st3" d="M264.27,69.32c0.09,1.32,0.19,2.64,0.28,3.97c-0.6,0.17-1.2,0.36-1.79,0.56c-0.88,0.3-1.75,0.62-2.6,0.98
					c-0.14-1.34-0.29-2.68-0.43-4.02C261.2,70.23,262.72,69.74,264.27,69.32z"/>
				<path class="st3" d="M269.31,68.27c0.04,1.3,0.08,2.61,0.12,3.91c-0.07,0.01-0.16,0.03-0.26,0.04
					c-1.43,0.25-2.85,0.57-4.24,0.96c-0.09-1.32-0.18-2.64-0.27-3.96C266.19,68.83,267.74,68.51,269.31,68.27z"/>
				<path class="st3" d="M274.41,67.74c-0.01,1.3-0.02,2.59-0.03,3.89c-0.65,0.04-1.31,0.1-1.96,0.16
					c-0.63,0.06-1.25,0.14-1.87,0.23c-0.36,0.05-0.55,0.08-0.73,0.11c-0.04-1.3-0.07-2.61-0.11-3.91
					C271.26,67.98,272.84,67.82,274.41,67.74z"/>
				<path class="st3" d="M279.53,67.69c-0.06,1.29-0.12,2.58-0.19,3.87c-1-0.04-2-0.04-2.99-0.02c-0.53,0.01-1.06,0.03-1.59,0.06
					c0.01-1.29,0.03-2.59,0.05-3.88c1.21-0.06,2.43-0.08,3.63-0.06C278.8,67.66,279.17,67.67,279.53,67.69z"/>
				<path class="st3" d="M284.63,68.13c-0.11,1.29-0.23,2.58-0.34,3.87c-0.11-0.02-0.22-0.03-0.33-0.05
					c-1.4-0.19-2.82-0.32-4.23-0.38c0.07-1.29,0.13-2.58,0.2-3.87C281.5,67.77,283.07,67.91,284.63,68.13z"/>
				<path class="st3" d="M289.67,69.09c-0.17,1.29-0.33,2.58-0.49,3.87c-0.51-0.13-1.02-0.25-1.54-0.36
					c-0.98-0.21-1.97-0.39-2.96-0.54c0.12-1.29,0.23-2.58,0.35-3.87C286.59,68.41,288.14,68.71,289.67,69.09z"/>
				<path class="st3" d="M294.59,70.6c-0.22,1.3-0.44,2.61-0.66,3.91c-0.96-0.38-1.94-0.72-2.93-1.02c-0.32-0.1-0.64-0.19-0.96-0.28
					c-0.04-0.01-0.33-0.09-0.49-0.14c0.17-1.29,0.34-2.58,0.51-3.87C291.6,69.58,293.11,70.05,294.59,70.6z"/>
			</g>
		</g>
		<g>
			<g>
				<path class="st3" d="M257.8,78.09c0.16,1.31,0.33,2.61,0.49,3.92c-0.68,0.3-1.35,0.62-2,0.97c-0.38,0.2-0.77,0.41-1.14,0.63
					c-0.16,0.09-0.32,0.19-0.48,0.28c-0.01,0-0.01,0.01-0.02,0.01c0,0-0.01,0-0.01,0.01c0,0,0,0,0,0c0,0,0,0,0,0c0,0,0,0-0.01,0
					c0,0,0,0,0,0c0,0-0.01,0.01-0.01,0.01c-0.01,0.01-0.03,0.02-0.06,0.03c-0.01,0-0.01,0.01-0.01,0.01c0,0,0,0-0.01,0c0,0,0,0,0,0
					c-0.01,0-0.01,0.01-0.02,0.01c0,0-0.01,0-0.01,0.01c0,0-0.01,0-0.01,0.01c-0.1,0.06-0.19,0.12-0.29,0.19
					c-0.21-1.34-0.41-2.68-0.62-4.02C254.92,79.39,256.34,78.7,257.8,78.09z"/>
				<path class="st3" d="M262.53,76.41c0.12,1.29,0.24,2.58,0.36,3.87c-0.58,0.18-1.16,0.37-1.73,0.58c-0.85,0.3-1.69,0.64-2.52,1
					c-0.16-1.31-0.32-2.61-0.48-3.92C259.58,77.35,261.04,76.85,262.53,76.41z"/>
				<path class="st3" d="M267.38,75.26c0.08,1.27,0.15,2.54,0.23,3.81c-0.07,0.01-0.15,0.03-0.25,0.05
					c-1.38,0.29-2.75,0.63-4.1,1.04c-0.12-1.29-0.23-2.57-0.35-3.86C264.38,75.89,265.87,75.54,267.38,75.26z"/>
				<path class="st3" d="M272.29,74.59c0.04,1.26,0.07,2.53,0.11,3.79c-0.63,0.06-1.27,0.14-1.9,0.22
					c-0.61,0.08-1.21,0.17-1.81,0.28c-0.35,0.06-0.53,0.09-0.7,0.12c-0.07-1.27-0.15-2.54-0.22-3.81
					C269.26,74.93,270.77,74.73,272.29,74.59z"/>
				<path class="st3" d="M277.22,74.33c0,1.26-0.01,2.52-0.01,3.78c-0.97,0.01-1.94,0.04-2.9,0.1c-0.51,0.03-1.02,0.07-1.54,0.12
					c-0.03-1.26-0.07-2.53-0.1-3.79c1.17-0.1,2.34-0.17,3.5-0.2C276.52,74.34,276.87,74.34,277.22,74.33z"/>
				<path class="st3" d="M287.07,75.18c-0.08,1.27-0.17,2.53-0.25,3.8c-0.5-0.1-1.01-0.18-1.51-0.26c-0.96-0.15-1.93-0.27-2.9-0.37
					c0.05-1.26,0.09-2.53,0.14-3.79C284.07,74.69,285.58,74.9,287.07,75.18z"/>
				<path class="st3" d="M296.64,78.02c-0.17,1.3-0.34,2.61-0.51,3.91c-0.02-0.01-0.03-0.01-0.05-0.02
					c-1.36-0.61-2.76-1.15-4.18-1.61c0.13-1.29,0.26-2.57,0.39-3.86C293.77,76.89,295.23,77.42,296.64,78.02z"/>
				<path class="st3" d="M301.21,80.3c-0.22,1.34-0.43,2.68-0.65,4.02c-1.27-0.82-2.56-1.53-4.07-2.23
					c0.17-1.31,0.35-2.61,0.52-3.92C298.46,78.81,299.86,79.51,301.21,80.3z"/>
			</g>
		</g>
		<g class="st4">
			<g>
				<path class="st3" d="M257.84,83.89c0.16,1.3,0.32,2.61,0.49,3.91c-0.68,0.3-1.34,0.62-1.99,0.96c-0.38,0.2-0.76,0.41-1.14,0.62
					c-0.16,0.09-0.32,0.19-0.48,0.28c-0.01,0-0.01,0.01-0.02,0.01c0,0-0.01,0-0.01,0.01c0,0,0,0,0,0c0,0,0,0,0,0c0,0,0,0-0.01,0
					c0,0,0,0,0,0c0,0-0.01,0.01-0.01,0.01c-0.01,0.01-0.03,0.02-0.06,0.03c-0.01,0-0.01,0.01-0.01,0.01c0,0,0,0-0.01,0c0,0,0,0,0,0
					c-0.01,0-0.01,0.01-0.02,0.01c0,0-0.01,0-0.01,0.01c0,0-0.01,0-0.01,0.01c-0.1,0.06-0.19,0.12-0.29,0.19
					c-0.21-1.33-0.41-2.67-0.62-4C254.98,85.18,256.39,84.5,257.84,83.89z"/>
				<path class="st3" d="M262.56,82.22c0.12,1.28,0.24,2.57,0.36,3.85c-0.58,0.18-1.15,0.37-1.72,0.57
					c-0.85,0.3-1.69,0.63-2.51,0.99c-0.16-1.3-0.32-2.6-0.48-3.9C259.62,83.16,261.08,82.65,262.56,82.22z"/>
				<path class="st3" d="M267.39,81.07c0.08,1.27,0.15,2.53,0.23,3.8c-0.07,0.01-0.15,0.03-0.25,0.05
					c-1.38,0.29-2.74,0.63-4.08,1.03c-0.12-1.28-0.23-2.56-0.35-3.85C264.4,81.7,265.89,81.35,267.39,81.07z"/>
				<path class="st3" d="M272.28,80.4c0.04,1.26,0.07,2.52,0.11,3.78c-0.63,0.06-1.26,0.14-1.89,0.22c-0.6,0.08-1.21,0.17-1.81,0.28
					c-0.35,0.06-0.53,0.09-0.7,0.12c-0.07-1.27-0.15-2.53-0.22-3.8C269.27,80.74,270.77,80.54,272.28,80.4z"/>
				<path class="st3" d="M277.2,80.15c0,1.26-0.01,2.51-0.01,3.77c-0.97,0.01-1.93,0.04-2.89,0.1c-0.51,0.03-1.02,0.07-1.53,0.12
					c-0.03-1.26-0.07-2.52-0.1-3.78c1.16-0.1,2.33-0.17,3.49-0.2C276.51,80.16,276.85,80.15,277.2,80.15z"/>
				<path class="st3" d="M282.13,80.33c-0.04,1.26-0.09,2.52-0.13,3.78c-0.11-0.01-0.21-0.02-0.32-0.03
					c-1.37-0.11-2.74-0.17-4.11-0.17c0.01-1.26,0.01-2.51,0.02-3.77C279.1,80.14,280.61,80.2,282.13,80.33z"/>
				<path class="st3" d="M287.02,80.98c-0.08,1.26-0.17,2.52-0.25,3.78c-0.5-0.1-1-0.18-1.51-0.26c-0.96-0.15-1.92-0.27-2.89-0.37
					c0.05-1.26,0.09-2.52,0.14-3.78C284.02,80.5,285.53,80.71,287.02,80.98z"/>
				<path class="st3" d="M291.84,82.13c-0.13,1.28-0.25,2.56-0.38,3.84c-0.96-0.3-1.92-0.57-2.9-0.8c-0.31-0.08-0.63-0.15-0.94-0.22
					c-0.04-0.01-0.32-0.07-0.48-0.1c0.09-1.26,0.17-2.53,0.26-3.79C288.9,81.35,290.38,81.7,291.84,82.13z"/>
				<path class="st3" d="M301.11,86.09c-0.22,1.33-0.43,2.67-0.65,4c-1.26-0.82-2.55-1.52-4.06-2.22c0.17-1.3,0.34-2.6,0.52-3.91
					C298.36,84.6,299.76,85.31,301.11,86.09z"/>
			</g>
		</g>
		<g class="st4">
			<path class="st3" d="M257.79,164.59v12.75h-2.29v-11.52C256.19,165.38,256.96,164.97,257.79,164.59z"/>
			<path class="st3" d="M262.44,162.89v14.45h-2.29v-13.71C260.88,163.36,261.65,163.11,262.44,162.89z"/>
			<path class="st3" d="M267.1,161.82v15.51h-2.29v-15.05C265.55,162.12,266.31,161.96,267.1,161.82z"/>
			<path class="st3" d="M271.75,161.21v16.13h-2.29v-15.87C270.21,161.36,270.97,161.28,271.75,161.21z"/>
			<path class="st3" d="M276.41,160.96v16.37h-2.29v-16.29C274.87,161,275.63,160.97,276.41,160.96z"/>
			<path class="st3" d="M281.06,161.05v16.29h-2.29v-16.37C279.54,160.98,280.31,161.01,281.06,161.05z"/>
			<path class="st3" d="M285.72,161.48v15.85h-2.29v-16.11C284.2,161.3,284.97,161.38,285.72,161.48z"/>
			<path class="st3" d="M290.37,162.32v15.01h-2.29v-15.48C288.86,161.99,289.63,162.15,290.37,162.32z"/>
			<path class="st3" d="M295.03,163.68v13.66h-2.29v-14.4C293.53,163.16,294.3,163.41,295.03,163.68z"/>
			<path class="st3" d="M299.68,165.91v11.42h-2.29v-12.68C298.22,165.05,298.99,165.47,299.68,165.91z"/>
		</g>
		<path class="st3" d="M279.57,60.98c2.24-0.17,6.89-0.23,10.81,1.59l-0.32,3.06c0,0-6.84-1.77-11.66-0.8
			c-0.1-0.97-0.14-1.76-0.16-2.36C278.21,61.69,278.8,61.04,279.57,60.98z"/>
		<path class="st7" d="M301.91,66.99c0,0.13-0.01,0.25-0.03,0.37v117.72h-13.76l1.96-124.74c0.53,0.1,1.04,0.21,1.54,0.32
			c0.08,0.02,0.16,0.04,0.24,0.05c0.05,0.01,0.1,0.02,0.15,0.03c0.1,0.02,0.21,0.05,0.31,0.07c0.09,0.02,0.18,0.04,0.27,0.07
			c0.14,0.03,0.28,0.07,0.42,0.11c0.07,0.02,0.14,0.04,0.22,0.06c0.03,0.01,0.06,0.02,0.1,0.03c0.07,0.02,0.14,0.04,0.21,0.06
			c0.37,0.1,0.72,0.21,1.07,0.31c0.11,0.03,0.21,0.07,0.32,0.1c0.01,0,0.01,0,0.02,0.01c0.11,0.04,0.23,0.07,0.34,0.11
			c0.11,0.04,0.22,0.07,0.33,0.11v0C299.52,63.16,301.91,64.99,301.91,66.99z"/>
		<path class="st8" d="M284.51,59.39c2.84,0.17,3.19,0.5,5.58,0.96l-1.72,124.74h-5.31L284.51,59.39z"/>
	</g>
	<path class="st0" d="M244.01,52.31c-2.75-0.02-11.28-0.47-8.01-7.57c2.12-4.6,7.77-0.63,18.21-4.44
		c10.44-3.81,14.41-9.98,28.41-4.84c13.99,5.14,11.27,0.43,19.2,0.51c10.73,0.11,13.29,16.66-3.63,17.03
		C281.28,53.38,258.94,52.44,244.01,52.31z"/>
	<path class="st1" d="M522.49,184.58H198.82c-1.12,0-2.02-0.9-2.02-2.02l0,0c0-1.12,0.9-2.02,2.02-2.02h323.67
		c1.12,0,2.02,0.9,2.02,2.02l0,0C524.51,183.68,523.61,184.58,522.49,184.58z"/>
	<rect x="318.77" y="19.92" class="st1" width="5.05" height="164.3"/>
</g>
<g>
	<path class="st9" d="M146.36,141.88c0.08,38.13-0.21,76.26-0.85,114.39c-0.64,37.97-1.64,75.93-3.01,113.88
		c-0.77,21.44-1.65,42.87-2.65,64.29c-0.03,0.62,0.93,0.54,0.96-0.07c1.77-38.09,3.18-76.2,4.23-114.31
		c1.05-37.96,1.73-75.93,2.06-113.9c0.19-21.45,0.25-42.9,0.21-64.35C147.32,141.2,146.36,141.27,146.36,141.88z"/>
	<path class="st9" d="M180.58,99.95c-0.94-4.52-3.55-10.62-8.82-11.25c-5.24-0.63-8.45,4.8-9.97,9c-1.02,2.83-1.82,5.88-3.68,8.31
		c-2.1,2.75-5.57,3.25-8.12,5.4c-3.56,2.99-4.91,7.78-5.13,12.27c-0.18,3.62,0.7,7.09,0.92,10.68c0.26,4.36-1.94,7.51-3.21,11.47
		c-1.96,6.08-0.64,12.82,3.21,17.86c0.32,0.42,0.96,0.08,0.88-0.34c0.09,0,0.18-0.01,0.27-0.07c4.99-3.26,10.07-6.61,14.04-11.11
		c4.27-4.84,5.67-10.42,7.46-16.46c1.13-3.8,2.86-6.88,5.46-9.87c2.08-2.39,4.15-4.71,5.39-7.67
		C181.61,112.64,181.79,105.77,180.58,99.95z"/>
	<path class="st9" d="M101.78,164.93c-4.5-0.99-11.14-1.12-13.88,3.43c-2.72,4.52,0.92,9.68,4.13,12.78
		c2.17,2.09,4.62,4.07,6.07,6.76c1.65,3.05,0.69,6.41,1.6,9.62c1.27,4.48,5.08,7.67,9.09,9.71c3.23,1.65,6.75,2.26,10.12,3.54
		c4.08,1.55,6.06,4.84,9.14,7.63c4.74,4.28,11.43,5.83,17.6,4.39c0.52-0.12,0.46-0.84,0.05-0.94c0.04-0.08,0.06-0.17,0.04-0.27
		c-0.93-5.89-1.91-11.89-4.38-17.36c-2.66-5.88-7.18-9.45-11.96-13.55c-3.01-2.59-5.1-5.43-6.76-9.03
		c-1.33-2.88-2.59-5.72-4.78-8.06C113.77,169.2,107.58,166.21,101.78,164.93z"/>
	<path class="st9" d="M204.11,186.65c-0.95-1.77-2.69-4.23-4.7-4.89c-2.24-0.74-5.24,1.38-7.2,2.29c-2.76,1.29-5.49,2.7-7.98,4.46
		c-5.03,3.54-8.32,8.46-11.23,13.78c-1.72,3.16-3.25,6.51-5.38,9.43c-2.57,3.52-5.82,4.93-9.85,6.21
		c-5.72,1.82-10.08,5.48-12.06,11.27c-0.1,0.28,0.07,0.46,0.3,0.52c1.04,4.29,5.29,6.97,9.61,6.93c5.9-0.05,10.22-4.34,13.9-8.42
		c2.52-2.79,4.97-4.85,8.64-5.91c2.82-0.82,5.54-1.61,8.17-2.95c4.64-2.35,8.73-5.74,11.98-9.8c3.29-4.1,6.08-9.17,7.06-14.39
		C205.92,192.27,205.52,189.29,204.11,186.65z"/>
	<path class="st9" d="M146.03,276.37c-1.74-4.32-5.81-7.49-10.52-7.82c-1.82-0.13-3.6,0.4-5.4,0.25c-2.23-0.18-4.02-1.49-5.84-2.69
		c-3.2-2.1-6.31-4.31-9.5-6.43c-5.53-3.68-11.3-7.11-17.69-9.07c-5.12-1.57-13.82-3.3-18.26,0.83c-1.75,1.63-2.29,4.77-2.71,7
		c-0.61,3.25,0.12,6.22,1.16,9.31c0.82,2.41,1.79,5.12,3.97,6.64c2.75,1.92,6.44,1.06,7.89,4.76c1,2.57,1.12,5.23,2.79,7.54
		c1.39,1.92,3.38,3.44,5.61,4.24c6.56,2.37,12.79-1.89,18.46-4.6c1.91-0.91,4.03-1.92,6.17-2.07c2.31-0.16,4.03,0.85,5.89,2.02
		c2.66,1.68,5.65,2.81,8.85,2.33c5.67-0.87,8.24-6.46,8.63-11.64C145.85,277,146.19,276.74,146.03,276.37z"/>
	<path class="st9" d="M210.91,276.49c-9.21-10.21-22.57,1.51-29.94,8.05c-3.29,2.92-6.43,6.32-10.61,7.96
		c-3.66,1.43-7.68,1.44-11.44,2.49c-6.1,1.7-11.23,5.91-14.2,11.47c-0.16,0.14-0.22,0.36-0.04,0.57c1.43,1.64,2.51,3.14,2.81,5.37
		c0.17,1.26,0.17,2.53,0.81,3.66c1.02,1.79,3.08,2.33,5.03,2.14c3.1-0.31,5.61-2.63,8.75-2.78c3.89-0.18,7.67,2.25,11.56,2.65
		c5.65,0.59,11.47-1,15.55-5.08c2.13-2.13,3.09-5.64,5.61-7.3c2.7-1.78,6.36-1.07,9.39-1.61c5.43-0.97,8.23-6.7,9.67-11.53
		C215.5,287.02,214.87,280.88,210.91,276.49z"/>
	<path class="st10" d="M186.83,356.76c-0.03-0.21-0.22-0.45-0.47-0.4c-7.71,1.38-81.22,5-88.63,4.6l0-0.06
		c0-0.56-0.87-0.5-0.87,0.06c0,0.04,0,0.09,0,0.13c-0.16,0.18-0.18,0.48,0,0.62c-0.07,12.63-0.14,25.27,0.24,37.9
		c0.36,12.04,1.3,23.95,4.14,35.69c2.74,11.34,6.83,22.33,11.77,32.89c2.38,5.09,4.97,10.09,7.7,15c1.06,1.91,1.52,5.33,3.6,6.02
		c7.27,2.38,32.64,1.38,46.84-0.16c0.21-0.02,1.88-4.08,1.94-4.27c4.93-15.95,8.24-32.34,10.59-48.85
		c2.34-16.46,4.18-33.16,4.85-49.77C188.95,376.3,188.39,366.48,186.83,356.76z"/>
	<path class="st11" d="M172.5,88.85c-0.23-0.05-0.46-0.1-0.71-0.13c-0.1-0.01-0.19-0.01-0.28-0.01c1.39,7.42,0.48,15.24-4.24,21.38
		c-2.15,2.8-4.77,5.19-6.85,8.03c-1.91,2.62-3.13,5.55-3.81,8.71c-1.68,7.81-1.11,15.64-4.62,23.05c-2.06,4.36-5.5,8.61-6.55,13.3
		c0.12,0.17,0.24,0.35,0.37,0.52c0.13,0.17,0.3,0.21,0.46,0.18c0.47-2.65,1.77-5.18,3.17-7.55c1.92-3.26,3.81-6.42,5-10.03
		c2.47-7.45,1.34-15.64,4.16-22.96c2.6-6.74,9.25-10.71,12.21-17.25C173.29,100.68,173.54,94.63,172.5,88.85z"/>
	<path class="st11" d="M201.66,183.31c-2.06,6.66-3.91,13.88-8.55,19.19c-2.34,2.69-5.3,4.84-8.57,6.26
		c-3.21,1.4-6.72,1.52-9.95,2.79c-4.99,1.96-8.11,6.6-11.67,10.34c-2.41,2.53-5.07,4.56-8.48,5.55c-2.72,0.79-5.55,0.95-8.37,0.93
		c-0.12,0.29-0.25,0.57-0.36,0.87c-0.01,0.02,0,0.04-0.01,0.06c5.97-0.02,11.64-0.88,16.32-5.18c5.01-4.61,8.35-10.8,15.46-12.41
		c6.61-1.5,12.39-3.75,16.83-9.15c4.27-5.2,6.13-12.04,8.1-18.44C202.17,183.84,201.93,183.56,201.66,183.31z"/>
	<path class="st11" d="M134.47,205.93c-1.96-3-4.45-5.53-7.82-6.9c-4-1.63-8.9-0.98-11.17-5.39c-2.01-3.9-1.23-8.51-2.77-12.55
		c-1.16-3.05-3.37-5.58-5.98-7.49c-5.3-3.87-11.75-5.03-18.08-6.29c-0.23,0.26-0.45,0.54-0.64,0.84c7.12,1.41,14.59,2.63,20.01,7.75
		c3.95,3.72,4.39,8.09,5.16,13.19c0.44,2.95,1.34,6.12,3.88,7.95c3.03,2.18,7.23,1.74,10.52,3.48c3.86,2.04,6.17,5.81,8.17,9.54
		c2.52,4.7,5.19,10.14,9.95,12.7c0.43-0.17,0.37-0.82-0.02-0.91c0.02-0.05,0.04-0.11,0.04-0.17
		C140.18,218.46,137.84,211.11,134.47,205.93z"/>
	<path class="st11" d="M145.39,275.01c-0.22,0.08-0.44,0.15-0.67,0.22c-2.26,0.64-4.11-0.01-6.29-0.39
		c-3.37-0.59-6.64,0.58-9.94,1.06c-2.21,0.32-4.32,0.28-6.38-0.68c-1.85-0.86-3.35-2.31-4.95-3.54c-2.47-1.89-5.29-3.59-8.48-3.71
		c-3.38-0.13-6.44,1.58-9.77,1.75c-5.03,0.26-7.48-4.31-10.06-7.88c-2.81-3.88-6.37-7.92-11-9.11c-0.15,0.26-0.29,0.54-0.42,0.83
		c6.72,1.45,10.26,9.35,14.66,14.18c5.85,6.43,13.06-0.81,19.96,1.96c3.42,1.37,5.8,4.25,8.96,6.02c3.16,1.77,6.39,1.4,9.81,0.71
		c1.75-0.35,3.51-0.77,5.3-0.81c2.01-0.04,3.78,0.76,5.75,0.88c1.38,0.08,2.7-0.18,3.94-0.66
		C145.68,275.57,145.54,275.29,145.39,275.01z"/>
	<path class="st11" d="M188.48,296.84c3.26-0.23,5.12-2.07,6.69-4.78c2.24-3.86,4.54-7.38,8.95-8.94c3.25-1.15,6.15-1.81,8.29-4.68
		c-0.18-0.28-0.37-0.56-0.56-0.83c-0.51,0.74-1.12,1.42-1.85,2.01c-2.99,2.44-7.21,2.31-10.26,4.79c-2.62,2.13-4.05,5.01-5.78,7.82
		c-1.42,2.32-3.11,3.53-5.93,3.67c-2.07,0.11-4.13-0.25-6.2-0.18c-3.84,0.13-6.75,1.6-9.66,4c-1.66,1.38-3.25,2.89-5.16,3.92
		c-2.64,1.43-4.98,1.28-7.73,0.38c-4.82-1.58-9.88-1.01-14.04,1.58c-0.17,0.28-0.33,0.56-0.48,0.85c-0.16,0.14-0.22,0.36-0.04,0.57
		c0.02,0.02,0.04,0.04,0.05,0.06c3.07-2.26,6.89-3.39,10.73-2.97c3.39,0.37,6.25,2.37,9.74,1.34c3.75-1.11,6.28-4.25,9.39-6.42
		C179.1,295.9,183.48,297.2,188.48,296.84z"/>
	<path class="st12" d="M168.86,432.51c-2.24,0.15-4.58,0.43-6.81,0.11c-2.17-0.31-4.03-1.31-5.86-2.44
		c-3.17-1.96-6.18-3.39-9.95-3.71c-3.57-0.3-7.21,0.16-10.67,1.07c-3.77,0.99-7.23,2.63-10.53,4.67c-3.79,2.34-7.65,5.06-12.31,4.93
		c-3.73-0.1-7.9-2.57-11.97-4.05c0.16,0.74,0.31,1.47,0.49,2.21c0.7,2.9,1.49,5.77,2.36,8.62c0.92,0.45,1.78,0.96,2.48,1.46
		c3.09,2.21,5.9,4.56,9.8,5.09c3.32,0.45,6.79-0.27,9.6-2.12c3.52-2.31,5.65-6.21,9.26-8.41c8.84-5.38,18.98,1.68,27.54,4.08
		c3.69,1.04,7.77,1.48,11.49,0.35c1.81-0.55,3.28-1.53,4.84-2.57c1.08-0.73,2.26-1.5,3.62-1.53c0.27,0,0.53,0.03,0.8,0.07
		c0.23-1.48,0.45-2.96,0.66-4.44c0.3-2.12,0.59-4.24,0.88-6.36c-0.85,0.36-1.61,0.68-2.21,0.87
		C178,431.79,173.4,432.2,168.86,432.51z M184.16,386.93c-8.35,2.36-15.29,11.69-24.72,8.93c-4.35-1.27-7.35-4.65-10.96-7.15
		c-2.74-1.91-5.87-2.9-9.21-3c-8.38-0.27-15.73,4.69-22.17,9.48c-4.07,3.03-8.44,8.55-14.02,7.66c-2.16-0.35-4.12-1.34-5.96-2.62
		c0.12,3.99,0.32,7.96,0.63,11.92c0.91,0.36,1.87,0.61,2.87,0.74c3.97,0.51,8.02-0.74,11.48-2.61c8.14-4.39,17.43-15.43,27.76-10.62
		c6.68,3.11,8.73,14.07,17.58,12.63c4.78-0.78,8.03-4.64,11.69-7.42c4.53-3.43,10.72-5.2,15.68-1.62c0.85,0.61,1.67,1.23,2.49,1.78
		c0.55-6.24,0.97-12.49,1.23-18.72C187.06,386.31,185.57,386.54,184.16,386.93z"/>
</g>
<g>
	<path class="st13" d="M634.1,53.85c-15.59,0.3-79.44-0.03-81.4,0.24c-3.2,0.44-2.43,0.1-2.62,3.23
		c-0.1,1.65,1.36,81.42,2.02,100.26c0.18,5.14,0.53,4.07,7.36,4.07c15.91-0.01,62.94,0.24,66.91-0.04c2.57-0.18,6.87,0.46,7.26-2.97
		c0.2-1.75,0.07-3.6,0.08-5.38c0.01-2.08,0.46-76.59,0.56-93.19c0.01-2.01,0.02-4.02,0.04-6.04
		C634.3,53.94,634.19,53.85,634.1,53.85z"/>
	<path class="st13" d="M751.25,53.78c-15.59,0.3-79.44-0.03-81.4,0.24c-3.2,0.44-2.43,0.1-2.62,3.23
		c-0.1,1.65,1.36,81.42,2.02,100.26c0.18,5.14,0.53,4.07,7.36,4.07c15.91-0.01,62.94,0.24,66.91-0.04c2.57-0.18,6.87,0.46,7.26-2.97
		c0.2-1.75,0.07-3.6,0.08-5.38c0.01-2.08,0.46-76.59,0.56-93.19c0.01-2.01,0.02-4.02,0.04-6.04
		C751.45,53.87,751.34,53.78,751.25,53.78z"/>
	<path class="st14" d="M624.77,61.67c-21.88-0.09-44.22-0.22-66.11-0.4c-0.13-0.05-0.29-0.05-0.42,0c-0.09,0-0.19,0-0.28,0
		c0,0.08,0,0.16,0,0.25c-0.03,0.06-0.05,0.14-0.05,0.23c0.44,36.25,0.7,61.62,1.26,91.62c0.43,0.02,0.57,0.02,0.75,0.03
		c0,0,0,0,0,0.01c22.18,0.18,44.36,0.31,66.53,0.41c0-0.01-0.01-0.01-0.01-0.02c0.27,0.01,0.55-0.16,0.54-0.51
		c-0.86-30.26-1.59-60.51-2.22-90.75C624.78,62.21,624.77,61.98,624.77,61.67z M625.91,152.74c-21.9-0.09-43.81-0.23-65.72-0.41
		c-0.5-23.12-0.95-46.57-1.32-69.67c-0.22-13.98,0.27-6.98,0.12-20.34c21.45,0.18,43.33,0.29,64.78,0.38
		c0.25,14.53,0.57,29.84,1.02,47.97C625.13,124.71,625.51,138.72,625.91,152.74z"/>
	<path class="st15" d="M615.81,74.66c-15.83-0.07-31.99-0.16-47.83-0.29c-0.1-0.04-0.21-0.04-0.3,0c-0.07,0-0.13,0-0.2,0
		c0,0.06,0,0.12,0,0.18c-0.02,0.05-0.04,0.1-0.03,0.16c0.32,26.23,0.5,44.58,0.91,66.29c0.31,0.01,0.41,0.02,0.54,0.02c0,0,0,0,0,0
		c16.05,0.13,32.09,0.23,48.14,0.29c0,0,0-0.01-0.01-0.01c0.2,0.01,0.4-0.11,0.39-0.37c-0.62-21.89-1.15-43.78-1.6-65.66
		C615.82,75.06,615.81,74.89,615.81,74.66z"/>
	<path class="st16" d="M734.06,75.12c-15.83-0.07-31.99-0.16-47.83-0.29c-0.1-0.04-0.21-0.04-0.3,0c-0.07,0-0.13,0-0.2,0
		c0,0.06,0,0.12,0,0.18c-0.02,0.05-0.04,0.1-0.03,0.16c0.32,26.23,0.5,44.58,0.91,66.29c0.31,0.01,0.41,0.02,0.54,0.02c0,0,0,0,0,0
		c16.05,0.13,32.09,0.23,48.14,0.29c0,0,0-0.01-0.01-0.01c0.2,0.01,0.4-0.11,0.39-0.37c-0.62-21.89-1.15-43.78-1.6-65.66
		C734.07,75.51,734.06,75.35,734.06,75.12z"/>
	<path class="st14" d="M742.53,62.65c-21.88-0.09-44.22-0.22-66.11-0.4c-0.13-0.05-0.29-0.05-0.42,0c-0.09,0-0.19,0-0.28,0
		c0,0.08,0,0.16,0,0.25c-0.03,0.06-0.05,0.14-0.05,0.23c0.44,36.25,0.7,61.62,1.26,91.62c0.43,0.02,0.57,0.02,0.75,0.03
		c0,0,0,0,0,0.01c22.18,0.18,44.36,0.31,66.53,0.41c0-0.01-0.01-0.01-0.01-0.02c0.27,0.01,0.55-0.16,0.54-0.51
		c-0.86-30.26-1.59-60.51-2.22-90.75C742.54,63.19,742.53,62.97,742.53,62.65z M743.67,153.73c-21.9-0.09-43.81-0.23-65.72-0.41
		c-0.5-23.12-0.95-46.57-1.32-69.67c-0.22-13.98,0.27-6.98,0.12-20.34c21.45,0.18,43.33,0.29,64.78,0.38
		c0.25,14.53,0.57,29.84,1.02,47.97C742.9,125.69,743.27,139.71,743.67,153.73z"/>
	<path class="st17" d="M591.17,141.17c0-0.21,0.01-0.42,0.02-0.6c0.15-2.43,0.25-4.86,0.31-7.3c0.12-4.88,0.04-9.78-0.19-14.68
		c0.31,0.11,0.61,0.22,0.92,0.33c0.53,0.28,1.09-0.43,0.58-0.83c-8.64-6.87-16.43-14.73-25.08-21.57
		c0.19,15.74,0.37,29.29,0.65,44.47c0.31,0.01,0.41,0.02,0.54,0.02c0,0,0,0,0,0C576.34,141.08,583.76,141.13,591.17,141.17z"/>
	<path class="st17" d="M686.61,141.43c0.31,0.01,0.41,0.02,0.54,0.02c0,0,0,0,0,0c0.3,0,0.59,0,0.89,0.01
		c15.56-14.46,31.07-28.98,46.53-43.55c-0.02-0.99-0.04-1.98-0.07-2.97c-15.92,15.01-31.89,29.98-47.92,44.87
		C686.59,140.36,686.6,140.89,686.61,141.43z M724.45,141.7c3.63-3.73,7.28-7.45,10.93-11.16c-0.03-1.02-0.05-2.05-0.08-3.07
		c-4.65,4.72-9.29,9.46-13.92,14.22C722.41,141.69,723.43,141.69,724.45,141.7z M706.55,74.95c-6.82,7.49-13.69,14.94-20.59,22.36
		c0.01,1.08,0.03,2.14,0.04,3.2c7.89-8.47,15.74-16.98,23.53-25.54C708.53,74.97,707.54,74.96,706.55,74.95z M722.39,75.04
		l-36.28,35.3c0.01,1.02,0.03,2.03,0.04,3.04l39.39-38.32C724.49,75.05,723.45,75.05,722.39,75.04z M703.5,141.57
		c1.04,0.01,2.08,0.02,3.12,0.02c4.49-4.43,8.98-8.85,13.47-13.28c4.89-4.83,9.92-9.58,14.86-14.42c-0.03-1-0.05-2.01-0.08-3.01
		c-5.43,5.37-11,10.61-16.41,15.94C713.47,131.74,708.48,136.66,703.5,141.57z M686.32,124.58c0.01,0.97,0.03,1.93,0.05,2.9
		c16.26-14.53,32.22-29.39,47.86-44.55c-0.02-1-0.05-2-0.07-3C718.52,95.13,702.57,110.01,686.32,124.58z M693.02,74.86
		c-2.41,2.63-4.82,5.26-7.24,7.88c0.01,1.08,0.03,2.15,0.04,3.2c3.4-3.68,6.79-7.37,10.18-11.06
		C695,74.88,694.01,74.87,693.02,74.86z"/>
</g>
<g>
	<g>
		<defs>
			<path id="XMLID_4_" d="M836.16,451.45c-0.05-0.06-0.11-0.11-0.16-0.17c-0.87-0.82-4.77-0.62-5.89-0.74
				c-8.03-0.91-16.06-1.77-24.1-2.6c-43.64-4.47-88.45-9.8-132.37-7.47c-45.73,2.43-124.79,5.98-202.18,5.32
				c-54.87-0.47-128.86-4.05-169.6-2.66c-83.52,2.84-95.77,7.32-119.42,8.52c-0.38-0.04-0.91,1.13-1.06,1.42
				c-17.95,35.9-69.14,71.81-87.08,107.71c-0.22,0.44,0.08,1,0.4,1.02c44.43,1.94,112.54,5.03,156.98,5.34
				c21.98,0.15,43.72-1.9,65.56-5.38c21.69-3.46,172.78,11.48,194.59,9.19c43.28-4.54,86.03-15.34,129.55-10.54
				c22.23,2.45,44.34,6.69,66.68,5.91c21.99-0.77,25.53-4.77,47.55-4.22c4.31,0.11,9.11,1.32,13.36,0.99
				c4.55-0.36,4.05-1.75,6.14-5.89c0.53-1.05,1.28-1.85,1.73-2.88c1.2-2.7,1.8-5.45,3.53-8.07c3.26-4.92,5.83-8.94,6.91-14.74
				c1.25-6.73,2.56-10.63,7.91-15.67c4.79-4.51,8.87-9.52,12.8-14.82c6.78-9.12,12.66-18.93,19.39-28.17
				C829.96,469.3,840.54,456.17,836.16,451.45z"/>
		</defs>
		<use xlink:href="#XMLID_4_"  style="overflow:visible;fill:#6E439D;"/>
		<clipPath id="XMLID_6_">
			<use xlink:href="#XMLID_4_"  style="overflow:visible;"/>
		</clipPath>
		<g class="st18">
			<g>
				<path class="st19" d="M151.28,485.82c10.75-2.87,23.45-0.44,34.43,0.2c11.32,0.66,22.65,1.33,33.98,1.67
					c23.04,0.68,46.09-0.21,69.06-2.01c45.15-3.53,89.88-10.81,134.95-15.07c22.76-2.15,45.65-3.45,68.51-2.61
					c23.48,0.86,46.79,4.15,69.9,8.28c21.71,3.88,43.3,9.57,65.25,11.84c22.35,2.32,44.84,1.18,67.21-0.24
					c12.32-0.78,24.63-1.65,36.97-2.04c12.95-0.42,25.84,0.17,38.78,0.26c26.31,0.2,52.59-1.44,78.9-1.56c1.93-0.01,1.93-3.01,0-3
					c-23.67,0.12-47.32,1.44-70.99,1.57c-22.6,0.12-44.99-0.62-67.58,0.75c-22.34,1.36-44.71,3.24-67.11,2.39
					c-23.49-0.89-46.16-6.37-69.16-10.74c-22.08-4.19-44.3-7.84-66.72-9.61c-22.8-1.8-45.7-1.3-68.49,0.4
					c-45.79,3.4-91.16,11-136.88,15.23c-25.82,2.39-51.76,3.82-77.7,3.29c-12.65-0.26-25.28-1-37.9-1.73
					c-11.61-0.68-24.81-3.2-36.19-0.15C148.62,483.42,149.41,486.32,151.28,485.82L151.28,485.82z"/>
			</g>
		</g>
		<g class="st18">
			<g>
				<path class="st19" d="M885.13,505.49c-13.07,0.53-26,2.41-38.96,4.06c-13.2,1.67-26.37,2.46-39.65,2.98
					c-26.42,1.04-52.86,1.52-79.3,1.79c-53.55,0.55-107.07,0.77-160.6,2.13c-53.55,1.36-106.97,1.04-160.52,0.16
					c-53.54-0.88-107.06-0.28-160.57-2.34c-60.13-2.31-120.23-6.08-180.43-6.12c-1.93,0-1.93,3,0,3
					c53.58,0.04,107.09,3.02,160.61,5.31c53.55,2.3,107.02,2.11,160.59,2.84c53.53,0.74,106.97,1.85,160.5,0.63
					c53.54-1.23,107.04-2.07,160.59-2.44c29.75-0.21,59.5-0.58,89.23-1.6c14.96-0.51,29.92-0.98,44.8-2.76
					c14.56-1.74,29.05-4.05,43.72-4.65C887.05,508.41,887.06,505.41,885.13,505.49L885.13,505.49z"/>
			</g>
		</g>
		<g class="st18">
			<g>
				<path class="st19" d="M97.27,525.72c92.37,23.17,188.19,27.61,282.99,22.59c24.02-1.27,47.86-3.13,71.94-2.72
					c23.91,0.4,47.66,1.71,71.39,4.7c23.56,2.97,46.91,5.48,70.71,4.8c23.48-0.67,46.83-3.42,70.15-6.11
					c26.46-3.06,52.91-5.87,79.58-5.81c27.31,0.06,54.63,1.88,81.92-0.1c1.91-0.14,1.93-3.14,0-3c-24.03,1.74-48.1,0.56-72.15,0.19
					c-23.91-0.37-47.59,1.12-71.35,3.69c-23.34,2.52-46.62,5.66-70.05,7.25c-23.36,1.59-46.56,1.16-69.82-1.55
					c-23.64-2.75-46.99-5.6-70.79-6.51c-23.82-0.91-47.45-0.63-71.23,0.95c-47.53,3.16-95.24,4.17-142.83,1.77
					c-53.8-2.72-107.36-9.92-159.64-23.04C96.2,522.36,95.4,525.25,97.27,525.72L97.27,525.72z"/>
			</g>
		</g>
		<g class="st18">
			<g>
				<path class="st19" d="M146.22,465.92c12.02,1.28,23.99,0.21,36.02-0.32c11.95-0.53,23.91-0.3,35.87-0.26
					c23.77,0.08,47.48-1.33,71.2-2.69c47.96-2.75,96.04-2.31,143.94-6.16c24-1.93,47.96-4.03,72.06-3.88
					c24.2,0.15,48.38,1.35,72.54,2.62c23.53,1.24,46.88,4.24,70.38,5.65c23.91,1.43,47.95,0.82,71.88,0.53
					c26.98-0.33,53.89-0.24,80.82,1.49c12.99,0.83,25.99,1.75,39.01,1.7c12.69-0.05,25.16-3.28,37.87-2.67c1.93,0.09,1.93-2.91,0-3
					c-11.18-0.54-22.09,2.08-33.21,2.58c-11.93,0.54-23.98-0.36-35.88-1.11c-23.63-1.49-47.17-2.32-70.85-2.17
					c-24.01,0.16-48.02,0.79-72.03,0.28c-23.56-0.49-46.79-3.81-70.27-5.33c-48.21-3.11-96.39-5.01-144.6-1.15
					c-23.93,1.91-47.81,3.67-71.81,4.45c-23.99,0.78-48,0.98-71.98,2.18c-27.1,1.36-54.17,3.47-81.32,3.66
					c-12.93,0.09-25.86-0.28-38.78,0.09c-13.64,0.39-27.23,1.95-40.86,0.5C144.31,462.72,144.32,465.72,146.22,465.92L146.22,465.92
					z"/>
			</g>
		</g>
	</g>
	<g>
		<path class="st20" d="M415.49,534.19c14.39,5.49,29.38,15.7,42.12,21.27c7.39,3.24,10.41-20.03,10.41-20.03
			s-19.07-16.06-32.64-27.83C429.33,519.13,420.93,527.37,415.49,534.19z"/>
		<g>
			<defs>
				<path id="XMLID_3_" d="M444.87,524.91c-2.54,2.7-9.41,11.31-11.62,14.27c-0.47,0.63-1.03,2.78-1.02,3.35
					c-0.25,1.07,18.67,10.74,19.94,11.45c5.23,2.58,5.81,8.87,8.91,13.2c3.37,4.69,9.7,6,14.99,7.71
					c6.37,2.06,12.74,4.12,19.11,6.17c5.56,1.8,11.73,4.82,17.85,4.23c4.94-0.47,9.51-3.72,11.99-8.05c2.74-4.77,0.84-9-3.32-11.72
					c-11.34-7.42-23.59-13.77-35.32-20.6c-3.29-1.92-6.59-3.84-9.88-5.76c-2.25-1.31-21.95-18.33-24.44-19.47
					C450.28,518.87,446.75,522.91,444.87,524.91z"/>
			</defs>
			<use xlink:href="#XMLID_3_"  style="overflow:visible;fill:#481F58;"/>
			<clipPath id="XMLID_7_">
				<use xlink:href="#XMLID_3_"  style="overflow:visible;"/>
			</clipPath>
			<g class="st21">
				<g>
					<path class="st22" d="M456.54,554.73c5.72,0,5.73-8.88,0-8.88C450.83,545.85,450.82,554.73,456.54,554.73L456.54,554.73z"/>
				</g>
			</g>
			<g class="st21">
				<g>
					<path class="st22" d="M473.53,542.91c5.72,0,5.73-8.88,0-8.88C467.81,534.03,467.8,542.91,473.53,542.91L473.53,542.91z"/>
				</g>
			</g>
			<g class="st21">
				<g>
					<path class="st22" d="M471.07,557.19c5.72,0,5.73-8.88,0-8.88C465.35,548.31,465.34,557.19,471.07,557.19L471.07,557.19z"/>
				</g>
			</g>
			<g class="st21">
				<g>
					<path class="st22" d="M488.55,577.38c5.72,0,5.73-8.88,0-8.88C482.83,568.49,482.82,577.38,488.55,577.38L488.55,577.38z"/>
				</g>
			</g>
			<g class="st21">
				<g>
					<path class="st22" d="M470.82,574.67c5.72,0,5.73-8.88,0-8.88C465.11,565.79,465.1,574.67,470.82,574.67L470.82,574.67z"/>
				</g>
			</g>
			<g class="st21">
				<g>
					<path class="st22" d="M487.81,556.45c5.72,0,5.73-8.88,0-8.88C482.09,547.57,482.08,556.45,487.81,556.45L487.81,556.45z"/>
				</g>
			</g>
			<g class="st21">
				<g>
					<path class="st22" d="M514.89,565.32c5.72,0,5.73-8.88,0-8.88C509.17,556.43,509.16,565.32,514.89,565.32L514.89,565.32z"/>
				</g>
			</g>
			<g class="st21">
				<g>
					<path class="st22" d="M500.86,568.52c5.72,0,5.73-8.88,0-8.88C495.14,559.63,495.13,568.52,500.86,568.52L500.86,568.52z"/>
				</g>
			</g>
			<g class="st21">
				<g>
					<path class="st22" d="M514.4,593.87c5.72,0,5.73-8.88,0-8.88C508.68,584.99,508.67,593.87,514.4,593.87L514.4,593.87z"/>
				</g>
			</g>
			<g class="st21">
				<g>
					<path class="st22" d="M510.46,586.98c5.72,0,5.73-8.88,0-8.88C504.74,578.1,504.73,586.98,510.46,586.98L510.46,586.98z"/>
				</g>
			</g>
			<g class="st21">
				<g>
					<path class="st22" d="M525.23,580.09c5.72,0,5.73-8.88,0-8.88C519.51,571.2,519.5,580.09,525.23,580.09L525.23,580.09z"/>
				</g>
			</g>
		</g>
		<path class="st23" d="M576.46,447.46c-1.05-14.96-16.04-23.02-30.38-19.45c-9.68,2.41-18.86,8.68-27.42,13.77
			c-5.97,3.55-11.86,7.24-17.67,11.05c-2.62-5.25-5.32-10.46-7.99-15.69c-2.68-5.27-5.42-10.52-4.9-16.75
			c0.37-4.45-6.55-4.44-6.96,0c-0.38,4.04,0.34,7.81,1.6,11.42c-1.5-1.29-3.18-2.39-5.12-3.18c-6.68-2.73-14.61-1.58-21.79-0.93
			c-8.72,0.79-17.43,1.95-26.11,3.41c-0.06,0.01-0.11,0.03-0.17,0.05c-0.18-2.69-3.37-4.25-5.81-2.14
			c-0.16,0.14-0.32,0.29-0.48,0.43c-0.69-1.52-2.47-2.31-4.12-1.78c-1.2-2.01-4.36-2.7-5.93-0.02c-0.22,0.37-0.44,0.74-0.65,1.11
			c-1.19-0.89-2.89-1.02-4.29,0.45c-0.17,0.18-0.32,0.37-0.49,0.56c-0.4-2.44-3.78-3.33-5.64-1.79c-1.5-0.59-3.43-0.31-4.47,1.36
			c-0.35,0.56-0.7,1.12-1.05,1.68c0.02-0.57-0.02-1.13-0.18-1.68c-0.38-1.33-1.64-2.7-3.22-2.55c-0.31,0.03-0.6,0.08-0.88,0.13
			c-0.5-3.32-5.72-4.41-6.63-0.5c-1.39,6-5.51,11.57-7.51,17.45c-1.06-0.71-2.11-1.41-3.15-2.1c-8.51-5.66-17.63-10.54-27.42-13.91
			c-8.37-2.88-19.4-6.2-28.48-3.01c-2.1,0.74-3.9,1.79-5.48,3.07c-0.58,0.23-1.13,0.62-1.61,1.2c-0.44,0.53-0.84,1.08-1.24,1.63
			c-3.81,4.64-6.39,10.88-6.55,16.78c-0.23,8.3,1.48,11.08,2.93,15.06c4.51,12.39,14.3,21.73,24.42,29.69
			c21.2,16.66,46.81,26.86,69.78,40.9c2.54,1.55,5.36,3.32,8.59,2.28c2.76-0.88,5.16-3.58,7.24-5.49c1.41-1.29,2.77-2.63,4.09-4
			c4.56,8.1,9.54,16,14.73,23.69c1.01,1.5,2.69,1.77,4.13,1.31c0.52-0.02,1.07-0.15,1.64-0.46c18.65-10.07,37.21-20.32,55.67-30.76
			c18.22-10.3,36.68-20.42,54.44-31.55C566.36,479.15,577.66,464.71,576.46,447.46z"/>
		<path class="st14" d="M472.17,243.65c-10.6-1.82-21.5-4.63-32.41-4.62c-1.39,0-2.84,0.06-4.24,0.3c0.77-3.64,1.53-7.27,2.3-10.91
			c0.59-2.78-1.55-4.53-3.65-4.32c0.04-0.7,0.06-1.41,0.07-2.11c0.03-1.7-1.34-3.05-2.89-3.42c0.04-0.19,0.09-0.37,0.13-0.56
			c0.78-3.45-3.06-5.39-5.33-3.82c0.04-1.13,0.05-2.26,0.03-3.39c-0.08-3.7-5.54-4.92-6.8-0.92c-0.67,2.14-0.76,3.88-0.57,6.05
			c0.03,0.29,0.1,0.54,0.19,0.78c-0.27,3.68-0.78,7.35-1.33,11.03c-0.49,3.29-2.6,9.37,1.32,11.2c-1.1,4.03-2.02,8.07-1.1,12.11
			c0.4,1.75,2.33,3.04,4.19,2.44c0.3-0.1,0.58-0.21,0.86-0.34c-0.15,2.77,0.12,5.38,1.36,7.27c1.31,2,3.94,2.16,5.54,0.6
			c1.51-0.41,2.93-1.72,3.14-3.38c0.37-2.96-0.26-9.96,3.16-11.44c2.85-1.24,8.89,0.1,11.72,0.49c3.78,0.52,7.53,1.15,11.28,1.81
			c0.36,0.35,0.79,0.75,1.2,1.15c-1.07,0.96-1.52,2.41-0.48,3.89c1.36,1.93,2.72,2.96,5,2.84c0.42,0.12,0.84,0.24,1.26,0.37
			c3.56,1.04,5.76-3.31,3.78-5.85c-0.15-0.2-0.32-0.37-0.48-0.56c0.15,0.02,0.3,0.05,0.45,0.07
			C474.24,251,476.65,244.42,472.17,243.65z"/>
		<path class="st24" d="M513.63,402.61c2.31,10.45,35.96,23.12,44.49,25.31c0.48,0.12,7.89-13.97,5.7-15.73
			c-22.84-18.39-27.54-24.11-27.56-24.22c-2.89-17.58-1.88-19.73-3.88-30.24c-0.82-4.33-24.11,3.58-24.97,6
			C506.43,364.15,512.33,396.73,513.63,402.61z"/>
		<polygon class="st24" points="465.36,257.53 432.85,257.53 435.62,210.96 468.14,210.96 		"/>
		<path class="st24" d="M558.11,427.92c5.47,3.02,10.87,6.1,15.14,10.67c0.22,0.23,0.45,0.39,0.7,0.51c1.76,1.6,3.78,2.9,6.17,3.75
			c5.86,2.07,12.9,0.47,18.27-2.9c2.02-1.27,0.56-4.37-1.38-4.23c2.12-1.4,4.06-3.24,5.71-5.54c1.81-2.53-1.88-5.19-3.74-2.67
			c-4.01,5.42-10.24,7.62-15.73,6.58c1.06,0.01,2.16-0.11,3.31-0.39c6.95-1.69,11.55-7.71,15.28-13.38c1.7-2.58-1.97-5.25-3.73-2.67
			c-2.7,3.94-5.53,8.33-9.98,10.52c-3.27,1.61-4.31,1.4-6.9,0.11c1.34-0.14,1.92-0.57,3.8-2.06c4.36-3.48,4.63-9.23,2.92-13.81
			c-0.32-0.85-0.95-1.25-1.64-1.34c0.85-1.67-0.69-4.1-2.96-3.17c-4.39,1.79-16.52,2.84-21.79,5.49
			C556.62,415.88,557.62,427.65,558.11,427.92z M577.93,415.33c1.88-0.81,3.63-1.9,5.55-2.56c-0.18,0.48-0.21,1.02,0.01,1.6
			c0.87,2.35,1.23,5.14-0.51,7.37c-2.2,2.83-4.81,1.67-6.71-0.44C575.39,420.34,576.19,416.08,577.93,415.33z"/>
		<path class="st24" d="M375.08,361.1c-0.57-2.42-20.58-14.63-21.92-10.3c-3.25,10.51-2.51,15.15-7.49,32.74
			c-0.03,0.1-5.55,6.38-32.78,26.03c-2.41,1.74,3.33,15.86,3.83,15.73c8.79-2.19,43.95-14.86,47.5-25.31
			C366.22,394.1,376,361.52,375.08,361.1z"/>
		<path class="st24" d="M315.01,410.76c-4.95-2.66-16.96-3.71-21.13-5.49c-2.15-0.92-3.98,1.5-3.33,3.17
			c-0.7,0.08-1.38,0.49-1.8,1.34c-2.26,4.58-2.67,10.33,1.27,13.81c1.7,1.5,2.24,1.93,3.56,2.06c-2.73,1.28-3.8,1.49-6.88-0.11
			c-4.19-2.19-6.5-6.58-8.73-10.52c-1.46-2.58-5.45,0.09-4.05,2.67c3.06,5.67,6.95,11.69,13.69,13.38c1.12,0.28,2.2,0.4,3.26,0.39
			c-5.62,1.04-11.59-1.16-14.95-6.58c-1.56-2.52-5.56,0.14-4.06,2.67c1.37,2.3,3.09,4.14,5.05,5.54c-1.92-0.14-3.76,2.96-1.89,4.23
			c4.97,3.37,11.82,4.96,17.93,2.9c2.49-0.84,4.66-2.15,6.62-3.75c0.26-0.12,0.52-0.28,0.76-0.51c4.81-4.57,10.58-7.65,16.41-10.67
			C317.25,425.02,319.65,413.25,315.01,410.76z M299.36,418.68c-2.15,2.11-4.89,3.27-6.76,0.44c-1.48-2.24-0.79-5.03,0.36-7.37
			c0.29-0.58,0.32-1.12,0.2-1.6c1.84,0.66,3.46,1.75,5.24,2.56C300.06,413.45,300.35,417.71,299.36,418.68z"/>
		<polygon class="st25" points="465.36,257.53 432.85,257.53 435.62,210.96 468.14,210.96 		"/>
		<path class="st26" d="M446.16,193.75c0.25,0.03,0.5,0.07,0.75,0.1c2.9,0.37,3,0.24,3.51-2.78c0.57-3.37-0.3-6.65-0.41-9.98
			c-0.04-1.08-0.16-2.19-0.47-3.21c-0.16-0.51-0.79-1.08-1.31-1.21c-0.36-0.09-1.1,0.4-1.32,0.82c-0.7,1.32-1.37,2.69-1.8,4.11
			c-0.58,1.92-0.92,3.91-1.4,5.86c-0.26,1.05-0.71,2.05-0.89,3.11c-0.41,2.42-0.22,2.64,2.11,3.01
			C445.32,193.65,445.75,193.69,446.16,193.75z"/>
		<path class="st27" d="M438,202.98c-0.37,1.54,0.57,2.66,1.41,3.38c1.95,1.65,4.18,3.1,6.97,2.1c0.85-0.3,1.79-0.72,2.32-1.39
			c0.5-0.63,0.9-1.79,0.65-2.45c-0.4-1.05-1.27-1.99-2.13-2.78c-1.09-1-2.19,0.19-3.28,0.23c-1.15,0.04-1.24-2.02-2.8-1.72
			C439.37,200.69,438.17,201.64,438,202.98z"/>
		<path class="st28" d="M467.15,177.1c-0.61-0.08-1.2-0.26-1.78-0.22c-0.97,0.07-1.71,0.52-1.98,1.57c-0.28,1.1,0.29,1.98,1.11,2.28
			c2.23,0.82,4.54,1.42,6.84,2.05c0.79,0.22,1.76,0.45,2.24-0.52c0.45-0.9,0.24-1.83-0.53-2.51
			C471.38,178.23,469.43,177.25,467.15,177.1z"/>
		<path class="st28" d="M434.37,170.59c-1.23,0-2.56-0.07-3.87,0.02c-0.94,0.06-1.79,1.27-1.71,2.18c0.08,0.96,0.99,1.87,1.96,1.92
			c1.9,0.1,3.81,0.13,5.71,0.29c0.96,0.08,1.67-0.03,1.92-1.09c0.23-1.02-0.25-2.05-1.11-2.41c-0.6-0.25-1.2-0.53-1.81-0.75
			C435.14,170.64,434.79,170.65,434.37,170.59z"/>
		<path class="st29" d="M463.59,186.1c-0.43,2.13,0.12,2.84,1.04,3.45c0.27,0.17,1.28,0.22,1.58,0.15c1.07-0.22,1.94-2.38,1.57-3.82
			c-0.36-1.4-1.51-2.29-2.71-1.76C464.41,184.41,463.75,185.27,463.59,186.1z"/>
		<path class="st29" d="M431.12,179.83c-0.43,2.13,0.12,2.84,1.04,3.45c0.27,0.17,1.28,0.22,1.58,0.15
			c1.08-0.22,1.94-2.38,1.57-3.82c-0.36-1.4-1.51-2.29-2.71-1.76C431.95,178.14,431.29,179.01,431.12,179.83z"/>
		<path class="st25" d="M435.3,234.27c5,3.7,15.21,3.85,20.36,1.86c3.85-1.49,15.65-12.97,6.36-14.03
			c-3.89-0.44-7.52,3.04-10.92,4.35c-1.97,0.76-4.01,1.2-6.07,1.35c-2.48-1.2-5.67-2.54-8.3-2.06c0,0.15,0,0.31-0.01,0.47
			C436.58,228.34,435.76,231.31,435.3,234.27z"/>
		<g>
			<path class="st24" d="M438.83,232.35c9.19,1.61,20.45-2.62,27-7.54c8.53-6.41,15.1-14.39,17.81-25.01
				c3.15-12.36,3.24-17.65,4.56-30.32c0.46-4.42-2.69-13.16-7.42-15.93c-16.32-9.54-43.84-12.99-51.19-6.52
				c-7.55,6.64-10.6,24.06-10.74,33.48C418.23,219.88,432.07,231.16,438.83,232.35z"/>
			<g>
				<path class="st14" d="M455.14,187.88c-0.04,0.73-0.15,5.85,1.44,5.09c0.53-0.25,0.65-1.49,0.71-1.99
					c0.12-1.07,0.23-2.18,0.28-3.26c0.08-1.63,2.62-1.45,2.54,0.18c-0.13,2.44-0.08,7.31-3.43,7.62c-4.14,0.38-4.23-5.02-4.07-7.83
					C452.7,186.06,455.23,186.24,455.14,187.88L455.14,187.88z"/>
			</g>
			<g>
				<path class="st14" d="M427.52,186.06c-0.04,0.73-0.15,5.85,1.44,5.09c0.53-0.25,0.65-1.49,0.71-1.99
					c0.12-1.07,0.23-2.18,0.28-3.26c0.08-1.63,2.62-1.45,2.54,0.18c-0.13,2.44-0.08,7.31-3.43,7.62c-4.14,0.38-4.23-5.02-4.07-7.83
					C425.08,184.25,427.61,184.43,427.52,186.06L427.52,186.06z"/>
			</g>
			<path class="st30" d="M432.69,213.8c3.51,4.84,11.99,6.28,15.57,0.72c0.3-0.46,0.09-1.16-0.5-1.22
				c-5.71-0.62-9.51-0.67-14.53-0.95c-0.53-0.03-0.81,0.26-0.81,0.74C432.42,213.29,432.54,213.59,432.69,213.8z"/>
			<path class="st24" d="M472.01,191c3.61-2.88,8.06-3.4,10.52,1.19c2.25,4.2,0.79,9.89-1.49,13.93c-0.96,1.7-2.49,3.05-4,3.42
				c-0.03,0.02-0.05,0.05-0.08,0.06c-1.57,1.01-3.1-0.29-3.32-1.75c-0.15-0.28-0.29-0.58-0.41-0.93c-1.08-3.11-0.5-9.18,1.69-12.45
				c-0.2,0.13-0.39,0.24-0.6,0.41C472.02,196.63,469.73,192.81,472.01,191z"/>
			<path class="st14" d="M436.67,175c1.58,0.47,1.6,3.03-0.17,3.24c-2.36,0.29-4.81-0.43-7.15-0.64c-2.7-0.24-5.45,0.17-8.13-0.18
				c-0.56-0.07-0.82-0.64-0.69-1.26C421.71,170.45,433.66,174.11,436.67,175z"/>
			<path class="st14" d="M448.65,175.4c-1.75,0.26-2.16,2.98-0.31,3.48c2.47,0.66,5.19,0.27,7.71,0.4c2.91,0.15,5.78,1,8.68,1.04
				c0.61,0.01,0.97-0.56,0.92-1.23C465.26,172.81,451.98,174.9,448.65,175.4z"/>
		</g>
		<path class="st20" d="M421.25,517.36c-12.56,10.13-29.61,18.76-41.37,27.43c-6.82,5.03,14.08,15.09,14.08,15.09
			s21.35-8.78,39.03-15.49C426.04,534.15,424.37,525.03,421.25,517.36z"/>
		<path class="st24" d="M473.21,276.78c-1.29-0.11-2.59-0.2-3.89-0.27c-0.13-1.11-0.85-2.11-2.32-2.53
			c-1.29-0.37-2.66-0.56-4.08-0.62c0.02-0.65-0.12-1.29-0.39-1.86c2.75-0.43,5.5-0.87,8.24-1.3c3.17-0.49,3.3-4.11,1.61-5.92
			c0.14-1.72-0.89-3.47-3.18-3.61c-0.24-0.02-0.48-0.02-0.72-0.04c2.08-0.09,4.15-0.18,6.23-0.27c3.82-0.16,5.35-6.01,1.35-6.88
			c-9.1-1.97-18.84-1.63-28.23-1.11c-9.6,0.53-20.17,3.17-28.98-1.16c-2.49-1.23-5.03,0.3-5.49,3.02
			c-1.06,6.25-0.98,11.14,1.3,16.84c0.92,2.29,0.3,5.22,1.83,7.26c0.12,0.16,0.25,0.29,0.38,0.43c-0.14,0.54-0.17,1.11-0.07,1.65
			c-0.29,0.25-0.56,0.53-0.78,0.84c-2.45,0.38-4.61,3.59-2.51,5.95c3.6,4.05,10.47,32.71,15.64,34.3c6.09,1.87,12.53,2.97,19,3.12
			c8.87,0.21,20.66-27.48,24.44-36.88c1.83-0.65,2.6-2.85,2.13-4.55C477.57,281.47,476.75,277.08,473.21,276.78z M422.91,265.41
			c-0.95,0.2-1.63,0.77-2.09,1.5c-0.62-1.22-1.15-2.48-1.26-4.1c-0.01-0.2-0.02-0.41-0.02-0.61c0.97,1.91,2.52,2.56,4.6,2.97
			C423.73,265.24,423.32,265.32,422.91,265.41z"/>
		<path class="st31" d="M538.2,368.27c-2.85-22.69-8.79-45.55-14.77-67.46c-4.6-16.88-9.07-41.71-30.24-44.12
			c-1.93-0.22-3.09,0.96-3.43,2.41c-0.96,0.37-1.78,1.12-2.11,2.22c-1.43,4.63-2.84,9.27-4.26,13.91c-0.93-0.1-1.9,0.17-2.69,1.03
			c-12.5,13.43-24.23,25.55-41.8,22.1c-8.69-1.71-23.39-10.66-29.77-16.55c-4.12-3.8-7.8-7.9-12.33-10.99
			c1.72-2.63-1.3-5.89-4.23-4.74c-0.55-0.77-1.43-1.3-2.39-1.46c1.06-0.33,2.15-0.62,3.27-0.85c4.46-0.9,6.48-10.44,2.07-9.52
			c-23.42,4.92-31.75,33.49-36.32,57.35c-3.01,15.72-14.15,38.97-16.04,54.8c-0.32,2.72-0.59,5.24,1.67,7.04
			c2.39,1.91,6.08,2.47,9.02,3.37c3.75,1.15,7.52,2.25,11.31,3.3c2.35,0.65,5.22,1.87,7.69,0.58c3.17-1.65,3.6-6.13,4.41-9.06
			c1.24-4.47,2.44-8.95,3.59-13.45c0.51-1.97,1-3.94,1.48-5.91c1.12,5.85,2.24,11.7,3.35,17.55c1.71,9.03,3.34,18.22,1.72,27.58
			c-1.24,7.18-2.22,16.33-3.85,23.42c-1.34,5.82-4.08,14.33-2.82,15.7c3.93,4.29,9.46,8.41,14.44,10.9
			c13.15,6.58,27.84,9.62,42.72,10.79c8.2,0.64,16.47,0.53,24.73,0.56c19.06,0.07,35.05-12.47,35.73-15
			c1.36-5.04-11.59-56.37-10-74.93c0.92-10.66,4.03-21.25,6.48-31.73c0.24-1.01,0.47-2.03,0.71-3.04c2.5,9.65,3.53,19.77,6.03,29.42
			c1.25,4.82,0.61,13.76,7.08,14.43c3.23,0.33,21.02-5.2,25.26-5.81C535.93,371.82,538.41,369.93,538.2,368.27z"/>
		<path class="st14" d="M507.18,225.58c-2.4-3.49-4.76-6.93-6.23-10.96c-1.38-3.76-2.37-15.94-0.69-25.52
			c0.06-0.34-8.94,1.42-9.57,1.14c-1.02-4.41-2.29-8.7-5.15-12.33c-0.08-0.31-0.16-0.63-0.24-0.94c-0.36-1.39-1.24-2.14-2.25-2.39
			c-1.63-4.64-3.53-9.16-5.71-13.56c-0.94-1.89-3.22-2.02-4.87-1.1c-2.32-3.77-4.94-7.32-8.39-10.3c-1.37-1.19-3.2-1.07-4.52-0.23
			c-0.1-0.16-0.2-0.31-0.3-0.46c-0.26-0.43-0.52-0.85-0.78-1.28c-0.04-0.08-0.07-0.14-0.11-0.21c0.07-0.57,0.01-1.16-0.25-1.78
			c-0.04-0.1-0.09-0.2-0.13-0.31c-0.59-1.4-2.42-1.94-3.85-1.6c-0.14,0.03-0.28,0.07-0.42,0.1c-1.58,0.38-2.55,1.82-2.76,3.31
			c-2.73-2.81-4.6-12.91-8.59-14.31c-0.85-0.3-2.97,7.56-3.61,7.82c-1.64-1.25-4.73-1.02-5.9,1.6c-0.29,0.65-0.58,1.31-0.86,1.96
			c-1.16-0.13-2.37,0.35-3.13,1.75c-3.04,5.57-7.49,11.1-12.97,14.41c-4.96,2.99-8.82,6.46-5.04,12.64c1.24,2.03,4.38,4.3,7.01,3.89
			c1.72-0.27,2.16-1.69,3.18-2.92c2.23-2.69,3.73-6.38,5-9.73c0.9-2.36,1.2-4.83,2.17-7.18c1.01-2.43,2.45-4.34,3.88-6.51
			c0.65-0.99,1.81-3.63,2.84-4.05c4.38-1.8,11.02,5.37,13.14,8.38c3.03,4.32,4.99,9.29,8.01,13.61c2.48,3.54,6.49,5.3,9.23,8.6
			c3.13,3.77,4.83,8.54,5.54,13.43c1.59,10.94-2.45,22.09-6.25,32.48c-1.76,4.82-5.21,10.68-5.02,15.86
			c0.22,6.08,3.23,9.6,4.45,13.39c4.3,13.39-8.12,22.53-9.41,36.59c-0.59,6.44,0.83,13.08,4.02,18.51
			c2.83,4.83,7.61,10.41,13.88,10.36c14.82-0.12,23.01-17.76,23.9-29.95c0.57-7.88-2.63-16.91,0.59-24.53
			c1.6-3.78,5.25-5.78,8.13-8.5c2.68-2.54,4.94-5.62,6.26-9.03C514.3,238.21,511.27,231.53,507.18,225.58z"/>
		<path class="st14" d="M405.21,173.84c-6.18,12.93-8.87,25.82-7.9,39.66c0.51,7.24,0.57,14.06-2.52,21.01
			c-2.61,5.87-6.34,11.37-8.01,17.58c-1.54,5.75-1.52,11.8,0.19,17.32c0.85,2.74,2.07,5.3,3.66,7.65c1.78,2.65,4.35,5.21,3.77,8.72
			c-0.95,5.85-5.23,10.15-4,16.38c1.03,5.21,4.64,9.66,8.54,13.01c3.95,3.4,9.35,6.25,14.9,4.08c4.45-1.73,7.12-5.98,8.21-10.38
			c1.68-6.8-0.6-13.48,3.31-19.89c3.32-5.43,6.79-9.88,7.88-16.22c2.34-13.69-2.87-26.45-6.29-38.91
			c-5.56-20.29-10.12-44.27-4.58-64.93c-3.04-2.34-6.09-5.1-9.13-7.73C410.1,165.13,407.4,169.27,405.21,173.84z"/>
		<g>
			<defs>
				<path id="XMLID_2_" d="M422.43,539.78c-1.03-3.37-4.98-13.05-6.41-16.25c-0.3-0.68-0.75-1.11-1.26-1.35
					c-0.81-0.68-21.87,13.99-23.18,14.79c-5.08,3.44-9.75-2.16-15.24-1.33c-5.95,0.9-10.5,5.84-14.84,9.7
					c-5.23,4.65-10.46,9.29-15.69,13.94c-4.56,4.06-10.55,8.12-13.3,13.68c-2.22,4.5-1.79,9.87,0.71,13.89
					c2.76,4.44,7.52,4.61,12.15,2.18c12.64-6.65,24.81-14.56,37.13-21.81c3.46-2.03,6.92-4.07,10.39-6.1
					c2.36-1.39,27.97-11.16,30.31-12.84C424.88,547.08,423.2,542.28,422.43,539.78z"/>
			</defs>
			<use xlink:href="#XMLID_2_"  style="overflow:visible;fill:#481F58;"/>
			<clipPath id="XMLID_8_">
				<use xlink:href="#XMLID_2_"  style="overflow:visible;"/>
			</clipPath>
			<g class="st32">
				<g>
					<path class="st22" d="M410.63,554.73c5.72,0,5.73-8.88,0-8.88C404.92,545.85,404.91,554.73,410.63,554.73L410.63,554.73z"/>
				</g>
			</g>
			<g class="st32">
				<g>
					<path class="st22" d="M394.38,541.07c5.72,0,5.73-8.88,0-8.88C388.67,532.18,388.66,541.07,394.38,541.07L394.38,541.07z"/>
				</g>
			</g>
			<g class="st32">
				<g>
					<path class="st22" d="M392.54,554.73c5.72,0,5.73-8.88,0-8.88C386.82,545.85,386.81,554.73,392.54,554.73L392.54,554.73z"/>
				</g>
			</g>
			<g class="st32">
				<g>
					<path class="st22" d="M377.4,574.67c5.72,0,5.73-8.88,0-8.88C371.68,565.79,371.67,574.67,377.4,574.67L377.4,574.67z"/>
				</g>
			</g>
			<g class="st32">
				<g>
					<path class="st22" d="M374.81,548.82c5.72,0,5.73-8.88,0-8.88C369.1,539.94,369.09,548.82,374.81,548.82L374.81,548.82z"/>
				</g>
			</g>
			<g class="st32">
				<g>
					<path class="st22" d="M366.69,562.85c5.72,0,5.73-8.88,0-8.88C360.97,553.97,360.96,562.85,366.69,562.85L366.69,562.85z"/>
				</g>
			</g>
			<g class="st32">
				<g>
					<path class="st22" d="M351.18,560.27c5.72,0,5.73-8.88,0-8.88C345.46,551.39,345.45,560.27,351.18,560.27L351.18,560.27z"/>
				</g>
			</g>
			<g class="st32">
				<g>
					<path class="st22" d="M364.1,580.58c5.72,0,5.73-8.88,0-8.88C358.39,571.7,358.38,580.58,364.1,580.58L364.1,580.58z"/>
				</g>
			</g>
			<g class="st32">
				<g>
					<path class="st22" d="M346.01,579.1c5.72,0,5.73-8.88,0-8.88C340.29,570.22,340.29,579.1,346.01,579.1L346.01,579.1z"/>
				</g>
			</g>
			<g class="st32">
				<g>
					<path class="st22" d="M338.63,597.56c5.72,0,5.73-8.88,0-8.88C332.91,588.68,332.9,597.56,338.63,597.56L338.63,597.56z"/>
				</g>
			</g>
			<g class="st32">
				<g>
					<path class="st22" d="M331.61,579.47c5.72,0,5.73-8.88,0-8.88C325.89,570.59,325.88,579.47,331.61,579.47L331.61,579.47z"/>
				</g>
			</g>
			<g class="st32">
				<g>
					<path class="st33" d="M504.43,564.7c5.72,0,5.73-8.88,0-8.88C498.71,555.82,498.7,564.7,504.43,564.7L504.43,564.7z"/>
				</g>
			</g>
			<g class="st32">
				<g>
					<path class="st33" d="M468.24,575.04c5.72,0,5.73-8.88,0-8.88C462.52,566.16,462.51,575.04,468.24,575.04L468.24,575.04z"/>
				</g>
			</g>
			<g class="st32">
				<g>
					<path class="st22" d="M507.38,566.92c5.72,0,5.73-8.88,0-8.88C501.66,558.03,501.65,566.92,507.38,566.92L507.38,566.92z"/>
				</g>
			</g>
			<g class="st32">
				<g>
					<path class="st33" d="M491.87,578.73c5.72,0,5.73-8.88,0-8.88C486.15,569.85,486.14,578.73,491.87,578.73L491.87,578.73z"/>
				</g>
			</g>
			<g class="st32">
				<g>
					<path class="st22" d="M500.36,564.33c5.72,0,5.73-8.88,0-8.88C494.65,555.45,494.64,564.33,500.36,564.33L500.36,564.33z"/>
				</g>
			</g>
			<g class="st32">
				<g>
					<path class="st22" d="M511.44,582.06c5.72,0,5.73-8.88,0-8.88C505.73,573.17,505.72,582.06,511.44,582.06L511.44,582.06z"/>
				</g>
			</g>
			<g class="st32">
				<g>
					<path class="st33" d="M481.9,708.34c5.72,0,5.73-8.88,0-8.88C476.18,699.46,476.17,708.34,481.9,708.34L481.9,708.34z"/>
				</g>
			</g>
		</g>
		<path class="st34" d="M508.5,454.95c-20.91,15.88-41.88,31.8-64.54,45.13c-6.04,3.55-12.21,6.89-17.63,11.38
			c-0.37,0.31,0.16,0.84,0.53,0.53c5-4.14,10.67-7.29,16.26-10.55c5.59-3.26,11.09-6.68,16.5-10.22
			c10.84-7.1,21.36-14.67,31.75-22.41c5.86-4.37,11.68-8.78,17.5-13.2C509.26,455.31,508.88,454.66,508.5,454.95z"/>
		<path class="st34" d="M426.17,508.47c-5.94-9.86-13.77-18.35-22.11-26.23c-9.11-8.61-18.64-16.78-28.01-25.11
			c-5.67-5.04-11.34-10.07-17-15.11c-0.36-0.32-0.89,0.21-0.53,0.53c9.85,8.75,19.7,17.51,29.55,26.26
			c8.74,7.77,17.64,15.44,25.49,24.13c4.46,4.93,8.53,10.21,11.96,15.91C425.77,509.26,426.42,508.88,426.17,508.47z"/>
		<path class="st14" d="M503.14,171.7c-0.47-6.57-3.09-12.55-6.21-18.14c-3.13-5.61-6.12-11.69-10.26-16.59
			c-9.73-11.51-26.76-15.53-33.63-15.99c-6.25-0.42-12.5-1.22-17.87,3.17c-3.82,3.12-5.85,7.39-7.02,11.89
			c-1.73,0.26-3.46,0.83-5.11,1.73c-6.36,3.44-10.08,10.27-12.78,16.59c-3.36,7.87-5.36,16.31-7.34,24.53
			c-2.16,8.97-3.15,17.85-2.92,26.94c0.09,3.69,5.65,5.01,6.85,0.93c6.29-21.4,10.62-43.64,27.25-60.36
			c0.52-0.52,0.83-1.1,0.98-1.69c2.54,0.74,5.4-1.68,4.96-3.96c0.6,0.03,1.11-0.02,1.6-0.13c3.25,2.43,6.5,4.86,9.74,7.29
			c1.86,9.71,6.75,18.37,14.11,24.82c1.21,1.06,2.89,1.05,4.21,0.39c2.43,5.44,4.15,11.21,5.1,17.2c0.13,1.12,0.26,2.25,0.37,3.37
			c-0.08,3.69-0.26,7.38-0.53,11.07c-0.13,1.43-0.26,2.87-0.35,4.3c-0.18,2.63,2.1,3.71,4.12,3.27c1.31,0.53,2.93,0.4,3.95-0.58
			c1.99,0.99,5.14-0.01,5.42-3c0.03-0.3,0.06-0.6,0.09-0.9c0.32-0.15,0.63-0.34,0.9-0.58c1.05,0.98,2.81,1.36,4.12,0.48
			c2.23-1.5,2.38-3.41,3.05-5.78c1-3.53,2.31-6.97,3.51-10.44C501.68,185.08,503.62,178.44,503.14,171.7z"/>
		<path class="st22" d="M415.32,194.72c2.62,5.32,10.03,8.6,15.56,5.51c4.93-2.76,8.06-9.18,7.69-14.81
			c1.75-0.39,4.28-0.22,6.03,0.41c-1.17,5.67,1.34,12.7,6.14,16.02c5.21,3.6,12.9,1.04,16.01-4.01c2.15-3.48,3.01-7.89,2.23-11.89
			c1.26,0.05,2.54,0.18,3.84,0.15c0.94-0.02,1.92,0,2.86,0.12c0.53,0.06,1.82,0.62,2.31,0.41c1.31-0.57-0.62-1.41-1.21-1.54
			c-1.43-0.34-2.75-0.69-4.22-0.79c-1.44-0.1-2.72-0.12-4.12-0.09c-0.66-1.48-1.69-2.74-3.23-3.58c-0.08-0.05-0.53-0.32-0.75-0.34
			c-5.99-0.68-16.67-3-19.4,4.02c-0.97-0.33-2.05-0.42-3.05-0.53c-1.23-0.13-2.46-0.21-3.67,0.06c-1.67-7.84-12.89-6.48-19.06-6.38
			c-0.23,0-0.69,0.23-0.78,0.27C412.34,180.34,412.82,189.65,415.32,194.72z M446.92,184.01c2.28-4.24,11.5-2.88,16.34-2.27
			c0.35,0.04,1.02,0.17,1.06,0.19c5.6,3.08,3.36,13.35-0.51,17.08c-3.95,3.81-10.7,3.62-14.24-0.55
			C446.46,194.82,444.51,188.49,446.92,184.01z M419.26,179.12c0.04-0.02,0.72-0.07,1.07-0.09c4.87-0.16,14.18-0.63,16.05,3.81
			c1.97,4.69-0.58,10.8-4,14.14c-3.92,3.82-10.66,3.36-14.23-0.8C414.65,192.09,413.39,181.65,419.26,179.12z"/>
		<path class="st35" d="M435.2,199.75c-0.77-4.51,1.98-9.53,3.37-13.67c0.32-0.97,1.88-0.61,1.55,0.38
			c-0.89,2.7-2.02,5.34-2.74,8.09c-0.32,1.22-0.81,2.92-0.66,4.17c0.44,3.8,2.97,3.67,5.41,4.32c1,0.27,0.63,1.84-0.38,1.57
			C438.71,203.8,435.81,203.36,435.2,199.75z"/>
		<path class="st14" d="M491.71,170.95c-1.36,1.43-2.22,3.48-2.43,5.45c-0.24,2.28,0.95,6.49-0.92,8.24
			c-2.07,1.94-4.89,1.72-7.16,0.33c-3.35-2.04-5.86-5.26-9.5-6.78c-3.22-1.35-6.33-2.79-9.45-4.36c-3.2-1.61-5.77-3.23-7.53-6.37
			c-1.35-2.41-2.37-4.72-4.09-6.91c-1.54-1.96-3.34-3.74-5.6-4.86c-3.81-1.9-9.14-1.61-11.7-5.61c0.06,3.83-2.12,9.37-4.15,12.67
			c-1.55,2.52-7.16,10.77-9.69,12.46c-4.67,3.12,1.77-13.06,2.09-15.27c0.69-4.72,0.71-9.22,2.93-13.64
			c1.79-3.57,3.9-6.82,7.33-9.01c4.18-2.66,8.6-3.45,13.42-4.19c3.46-0.53,7.02-0.64,10.51-0.3c3.92,0.38,7.63,2.09,11.47,2.98
			c6.15,1.43,12.88,2.77,18.28,6.26c3.99,2.58,6.6,7.33,8.93,11.31c2.01,3.44,3.77,8.02,2.76,12.11c-0.62,2.49-2.97,3.39-4.79,4.83
			C492.18,170.49,491.94,170.71,491.71,170.95z"/>
	</g>
</g>
<g>
	<g>
		<defs>
			<path id="XMLID_1_" d="M744.32,479.24c-16.54-10.9-44.52-13.51-64.12,0.2c-1.25-4.3-3.63-9.25-8.11-13.83
				c0,0-0.72-15.73-2.22-16.68c-1.51-0.95-8.88,8.54-10.74,12.75c0,0-11.92,0.9-22.18,4.96c-4.45-3.62-14.19-8.46-15.15-6.96
				c-0.96,1.5,5.1,16.04,5.1,16.04c-2.32,6.67-2.14,12.68-1.21,17.31c-4.14,7.31-15.32,30.27,0.63,41.25
				c2.6,1.79,6.5,3.35,11.34,4.68l-0.48-0.01c-14.48,4.14-18.1,22.42,7.29,12.25c6.59-2.64,12.31-4.68,17.18-6.27
				c13.18,6.87,18.5,4.25,18.24-0.41c8.37,0.39,16.94,0.49,25.17,0.29c-12.84,2.99-7.72,13.35,6.96,10.87
				c0,0,40.48-1.88,48.84-26.03c0.83-2.4,1.37-4.32,1.69-5.84C766.13,509.02,758.39,488.51,744.32,479.24z"/>
		</defs>
		<use xlink:href="#XMLID_1_"  style="overflow:visible;fill:#E6E6E6;"/>
		<clipPath id="XMLID_9_">
			<use xlink:href="#XMLID_1_"  style="overflow:visible;"/>
		</clipPath>
		<path class="st36" d="M719.47,517.52c4.38-4.56,11.16-6.35,12.34-13.2c0.32-1.83,0.23-4.02,1.3-5.64
			c1.25-1.89,3.72-2.49,5.14-4.19c2.55-3.05,1.27-6.15,4.43-9.09c1.64-1.53,6.71-7.22,9.37-6.13c2.92,1.2,7.27,10.21,6.14,13.42
			c-1.25,3.55-7.15,3.57-10.13,4.2c-5.4,1.13-7.17,3.34-9.58,7.86c-1.55,2.9-3.29,4.95-5.76,7.12c-4.17,3.66-10.57,2.45-14.22,6.74
			C718.75,518.34,718.98,518.05,719.47,517.52z"/>
		<path class="st36" d="M719.94,504.1c1.74-2.84,2.71-6.17,5.18-8.92c2.71-3.02,4.77-4.81,5.52-8.82c0.69-3.7,1.28-6.24,3.41-9.52
			c1.69-2.61,4.51-5.27,1.6-7.39c-2.08-1.52-10.1-2.15-12.12-0.73c-3.02,2.13-1.8,7.4-1.8,10.63c0,6.96-2.76,11.53-3.89,18.16
			c-0.81,4.74-1.18,8.65-2.74,13.32C718.28,508.87,721.8,503.89,719.94,504.1z"/>
		<path class="st36" d="M708.06,465.96c-3.06,2.73,1.72,8.38,2.27,11.29c0.83,4.37-2.17,6.19-3.16,10.03
			c-1.22,4.67,0.94,10.32,0.6,15.19c-2.32-3.15-3.14-8.14-4.05-11.93c-0.87-3.59,0.23-7.84-1.71-10.98
			c-2.04-3.29-7.12-6.45-5.12-11.24C698.13,465.37,704.5,465.33,708.06,465.96z"/>
		<path class="st36" d="M686.68,471.9c-0.19,2.9,0.95,5.97,2.91,8.11c2.04,2.23,4,3.01,4.41,6.27c0.52,4.09,0.8,8.42,0.99,12.53
			c0.29,6.46,4.91,13.76,2.61,20.3c0.6-4.96-4.32-10.18-5.7-14.73c-0.89-2.93-0.65-5.99-1.52-8.87c-1.19-3.95-3.85-6.69-6.32-9.83
			c-1.47-1.86-4.78-6.18-4.74-8.56C679.37,473.8,683.63,473.81,686.68,471.9z"/>
		<path class="st36" d="M723.74,528.21c4.22,0.12,8.88-4.6,12.91-5.77c4.64-1.35,9.69,0.32,13.65-2.72
			c4.71-3.61,11.49-6.86,17.59-6.91c0.59,1.75-0.12,7.86-1.76,8.97c-0.82,0.56-3.78-0.07-4.73,0.01c-2.17,0.17-4.29,0.79-5.95,2.19
			c-1.56,1.31-2.41,3.19-4.56,3.82c-2.52,0.75-5.48-0.26-8.01-0.55c-3.79-0.42-7.18-0.49-10.82,0.83c-1.69,0.61-3.22,1.49-5.01,1.9
			c-4.37,1.01-8.07-0.33-12.27-0.83c4.74-0.22,9.36-0.26,13.95-1.43"/>
		<path class="st36" d="M614.81,500.53c6.97-1.99,12,5.51,18.36,6.21c3.9,0.44,6.35,2.81,9.89,4.2c2.38,0.93,5.53,1.31,8.06,1.71
			c-6.68,1.22-12.63-2.2-19.08-2.5C628.83,510.01,608.61,511.13,614.81,500.53z"/>
		<path class="st36" d="M613.2,516.39c3.12-0.11,6.4-0.36,9.51,0.17c3.64,0.62,6.52,2.38,10.36,2.33c2.54-0.03,5.37-1.02,7.89-0.55
			c2.35,0.44,4.38,0.76,6.94,0.72c-1.77,1.54-4.92,1.59-7.15,1.61c-4.56,0.04-8.52,2.69-13.07,3.04c-2.47,0.19-4.51-0.63-6.89-1.04
			c-2.1-0.37-4.22-0.22-6.32-0.04c-1.33,0.11-1.36,0.41-2.02-0.53C611.64,520.92,612.28,518.25,613.2,516.39z"/>
		<path class="st36" d="M618.55,535.28c2.68-3.39,8.09-2.92,11.88-4.09c3.27-1,6.26-3.07,9.49-4.23c-1.42,2.23-4.99,3.43-7.02,5.19
			c-1.71,1.49-3.21,3.4-5.31,4.37c-1.06,0.5-2.59,0.92-3.71,1.01c-0.85,0.07-0.53,0.28-1.61-0.07
			C621.28,537.15,620.49,536.33,618.55,535.28z"/>
	</g>
	<g>
		<g>
			<path class="st37" d="M661.12,487.36c-0.99,0-1.96-0.32-2.83-0.92c-1.14-0.8-1.95-2.02-2.28-3.44c-0.14-0.58,0.23-1.17,0.81-1.31
				c0.59-0.13,1.17,0.23,1.31,0.81c0.21,0.9,0.71,1.66,1.41,2.16c0.66,0.47,1.43,0.63,2.15,0.46c0.72-0.17,1.34-0.65,1.72-1.37
				c0.41-0.75,0.52-1.66,0.31-2.56c-0.14-0.58,0.23-1.17,0.81-1.31c0.59-0.13,1.17,0.23,1.31,0.81c0.33,1.42,0.15,2.87-0.52,4.09
				c-0.69,1.26-1.8,2.13-3.14,2.44C661.84,487.32,661.48,487.36,661.12,487.36z"/>
		</g>
		<g>
			<path class="st37" d="M638.89,492.37c-2.22,0-4.28-1.68-4.85-4.13c-0.14-0.59,0.23-1.17,0.81-1.31c0.58-0.14,1.17,0.23,1.31,0.81
				c0.39,1.65,1.84,2.72,3.24,2.39c0.66-0.15,1.21-0.59,1.56-1.24c0.37-0.69,0.48-1.52,0.28-2.34c-0.14-0.59,0.23-1.17,0.81-1.31
				c0.58-0.14,1.17,0.23,1.31,0.81c0.31,1.34,0.14,2.72-0.49,3.87c-0.65,1.2-1.71,2.02-2.98,2.32
				C639.56,492.33,639.23,492.37,638.89,492.37z"/>
		</g>
		<path class="st37" d="M650.32,488.06c-0.94,0.21-3.66,0.86-2.66,2.15c0.54,0.71,1.53,1.23,2.19,1.53
			c0.41,0.18,0.88,0.09,1.19-0.24C652.24,490.22,654.84,487.06,650.32,488.06z"/>
		<g>
			<path class="st37" d="M643.77,498.27c-0.33,0-0.62-0.25-0.67-0.59c-0.05-0.37,0.21-0.71,0.58-0.76c0.04-0.01,4.19-0.59,5.67-2.74
				c0.48-0.7,0.61-1.48,0.4-2.39c-0.08-0.36,0.14-0.73,0.51-0.82c0.37-0.08,0.73,0.14,0.82,0.51c0.3,1.28,0.09,2.45-0.61,3.47
				c-1.82,2.64-6.41,3.28-6.6,3.31C643.83,498.27,643.8,498.27,643.77,498.27z"/>
		</g>
		<g>
			<path class="st37" d="M655.08,495.36c-1.11,0-2.27-0.18-3.24-0.72c-1.08-0.6-1.78-1.56-2.08-2.84c-0.08-0.36,0.14-0.73,0.51-0.82
				c0.37-0.08,0.73,0.14,0.82,0.51c0.21,0.91,0.68,1.55,1.42,1.96c2.28,1.27,6.25-0.04,6.29-0.06c0.36-0.12,0.74,0.07,0.86,0.43
				c0.12,0.36-0.07,0.74-0.43,0.86C659.09,494.72,657.17,495.36,655.08,495.36z"/>
		</g>
		<g>
			<path class="st37" d="M652.24,502.52c-1.07,0-1.91-0.29-1.98-0.31c-0.35-0.13-0.54-0.51-0.41-0.86c0.12-0.35,0.51-0.53,0.87-0.42
				c0.1,0.04,2.61,0.89,4.03-0.86c0.24-0.29,0.66-0.34,0.96-0.1c0.29,0.24,0.34,0.66,0.1,0.96
				C654.76,502.2,653.37,502.52,652.24,502.52z"/>
		</g>
	</g>
	<g>
		<path class="st37" d="M659.17,544.39c-0.12,0-0.24-0.03-0.34-0.09c-10.65-6.25-20.01-4.5-20.1-4.48c-0.36,0.07-0.72-0.17-0.8-0.53
			c-0.07-0.37,0.17-0.72,0.53-0.8c0.4-0.08,9.96-1.87,21.05,4.64c0.32,0.19,0.43,0.61,0.24,0.93
			C659.63,544.27,659.4,544.39,659.17,544.39z"/>
	</g>
	<g>
		<path class="st37" d="M672.19,535.78c-0.15,0-0.3-0.05-0.42-0.15c-10.83-8.54-24.1-6.67-24.23-6.65c-0.39,0.06-0.72-0.2-0.77-0.57
			c-0.06-0.37,0.2-0.72,0.57-0.77c0.56-0.09,13.96-1.98,25.27,6.93c0.29,0.23,0.34,0.66,0.11,0.95
			C672.59,535.69,672.39,535.78,672.19,535.78z"/>
	</g>
	<g>
		<path class="st37" d="M679.18,546.79c-0.05,0-0.1-0.01-0.15-0.02c-0.37-0.08-0.59-0.45-0.51-0.81c0.99-4.36-2.77-7.32-2.81-7.35
			c-0.3-0.23-0.35-0.66-0.12-0.95c0.23-0.3,0.66-0.35,0.95-0.12c0.18,0.14,4.49,3.53,3.3,8.73
			C679.77,546.58,679.49,546.79,679.18,546.79z"/>
	</g>
	<g>
		<path class="st37" d="M699.89,547.48c-0.12,0-0.25-0.03-0.35-0.1c-0.31-0.2-0.42-0.59-0.23-0.9c0.2-0.35,2.37-3.43,16.46-4.39
			c15.21-1.03,26.05-5.11,31.35-11.79c0.23-0.3,0.66-0.34,0.95-0.11c0.29,0.23,0.34,0.66,0.11,0.95
			c-5.55,6.99-16.73,11.25-32.33,12.3c-13.28,0.9-15.37,3.71-15.39,3.74C700.33,547.37,700.11,547.48,699.89,547.48z"/>
	</g>
	<g>
		<path class="st37" d="M701.66,535.78c-0.29,0-0.56-0.19-0.65-0.48c-2.72-8.72-2.46-16.23,0.78-22.34
			c4.46-8.39,12.86-11,13.22-11.11c0.36-0.11,0.74,0.1,0.84,0.45c0.11,0.36-0.1,0.74-0.45,0.85c-0.08,0.03-8.24,2.57-12.42,10.46
			c-3.06,5.77-3.28,12.93-0.67,21.28c0.11,0.36-0.09,0.74-0.45,0.85C701.79,535.77,701.72,535.78,701.66,535.78z"/>
	</g>
	<g>
		<path class="st37" d="M665.17,508.33c-0.29,0-0.56-0.19-0.65-0.49c-0.11-0.36,0.1-0.74,0.46-0.84
			c13.61-4.05,14.23-17.9,14.25-18.49c0.01-0.37,0.31-0.66,0.68-0.66c0.4,0.01,0.69,0.33,0.68,0.7
			c-0.01,0.15-0.66,15.41-15.22,19.75C665.3,508.32,665.24,508.33,665.17,508.33z"/>
	</g>
</g>
</svg>
